Division,WeightClassKg,Place,Name,Team,BodyweightKg,Best3SquatKg,Best3BenchKg,Best3DeadliftKg,TotalKg,Equipment,Event,Sex
Girls,44.23,1,Kaila Gonzalez,McAllen,43.68,92.99,58.97,99.79,251.74,Single-ply,SBD,F
Girls,44.23,2,Keyshley Ramos,La Joya Juarez-Lincoln,37.51,86.18,29.48,83.91,199.58,Single-ply,SBD,F
Girls,44.23,3,Soledad Lopez,McAllen Rowe,38.24,52.16,29.48,54.43,136.08,Single-ply,SBD,F
Girls,44.23,4,Neida Garza,Rio Grande City Grulla,44.13,40.82,20.41,54.43,115.67,Single-ply,SBD,F
Girls,44.23,DQ,Tekila Cantu,McAllen Memorial,40.32,,,,,Single-ply,SBD,F
Girls,44.23,DQ,Yhasiri Reyna,La Joya,44.04,54.43,,,,Single-ply,SBD,F
Girls,47.85,1,Sabrina Espinoza,McAllen,46.81,117.93,68.04,120.2,306.17,Single-ply,SBD,F
Girls,47.85,2,Mia Munoz,McAllen Memorial,47.81,115.67,70.31,117.93,303.91,Single-ply,SBD,F
Girls,47.85,3,Crystal Borrego,PSJA Memorial,47.85,104.33,38.56,108.86,251.74,Single-ply,SBD,F
Girls,47.85,4,Yaleina Ramirez,McAllen Rowe,47.72,92.99,47.63,108.86,249.48,Single-ply,SBD,F
Girls,47.85,5,Destiny Perez,Rio Grande City Grulla,46.9,86.18,49.9,104.33,240.4,Single-ply,SBD,F
Girls,47.85,6,Briana Cantu,Sharyland Pioneer,47.72,95.25,38.56,92.99,226.8,Single-ply,SBD,F
Girls,47.85,7,Zulimar Vasquez,McAllen Rowe,47.26,88.45,47.63,88.45,224.53,Single-ply,SBD,F
Girls,47.85,8,Yulissa Resendez,Rio Grande City,47.63,92.99,38.56,92.99,224.53,Single-ply,SBD,F
Girls,47.85,9,Kaitlyn Bryan,Mission Veterans Memorial,47.26,70.31,38.56,92.99,201.85,Single-ply,SBD,F
Girls,47.85,10,Deili Silva,La Joya Juarez-Lincoln,47.63,68.04,27.22,90.72,185.97,Single-ply,SBD,F
Girls,51.94,1,Brittney Salcido,PSJA Memorial,50.67,133.81,81.65,133.81,349.27,Single-ply,SBD,F
Girls,51.94,2,Daniela Echavarria,McAllen,50.08,124.74,65.77,131.54,322.05,Single-ply,SBD,F
Girls,51.94,3,Lliana Vasquez,Sharyland Pioneer,51.94,117.93,49.9,120.2,288.03,Single-ply,SBD,F
Girls,51.94,4,Kc Aguilera,Mission,50.21,129.27,52.16,104.33,285.76,Single-ply,SBD,F
Girls,51.94,5,Sheyla Cantu,La Joya Juarez-Lincoln,51.66,104.33,54.43,117.93,276.69,Single-ply,SBD,F
Girls,51.94,6,Kayla Villarreal,Sharyland Pioneer,48.58,111.13,56.7,102.06,269.89,Single-ply,SBD,F
Girls,51.94,7,DeAndra Canales,Rio Grande City,51.8,95.25,43.09,104.33,242.67,Single-ply,SBD,F
Girls,51.94,8,Celeste Alvarez,Sharyland Pioneer,48.49,83.91,36.29,90.72,210.92,Single-ply,SBD,F
Girls,51.94,9,Victoria Fuentes,Rio Grande City,48.13,70.31,45.36,88.45,204.12,Single-ply,SBD,F
Girls,51.94,10,Gloria Fuentes,Rio Grande City,50.67,70.31,43.09,83.91,197.31,Single-ply,SBD,F
Girls,51.94,11,Suhadie Gonzalez,Edinburg North,51.94,68.04,36.29,79.38,183.7,Single-ply,SBD,F
Girls,51.94,12,Marlena Torres,Edinburg North,49.31,52.16,34.02,56.7,142.88,Single-ply,SBD,F
Girls,56.02,1,Rhyauna Lee,McAllen Memorial,56.02,136.08,74.84,138.35,349.27,Single-ply,SBD,F
Girls,56.02,2,Faith Escamilla,McAllen Memorial,55.75,127.01,54.43,145.15,326.59,Single-ply,SBD,F
Girls,56.02,3,Josefina Bueno,McAllen Memorial,54.79,122.47,61.23,133.81,317.51,Single-ply,SBD,F
Girls,56.02,4,Aubrie Gonzalez,McAllen,55.57,120.2,56.7,122.47,299.37,Single-ply,SBD,F
Girls,56.02,5,Jayden Barrientes,PSJA Memorial,55.93,113.4,68.04,117.93,299.37,Single-ply,SBD,F
Girls,56.02,6,Bryanna Marroquin,Edinburg North,55.38,111.13,65.77,115.67,292.57,Single-ply,SBD,F
Girls,56.02,7,Brenda Gazca,Rio Grande City,55.25,102.06,43.09,127.01,272.16,Single-ply,SBD,F
Girls,56.02,8,Fernanda Garza,Donna North,55.43,102.06,47.63,120.2,269.89,Single-ply,SBD,F
Girls,56.02,9,Mariana Zarate,Mission Sharyland,55.43,106.59,49.9,113.4,269.89,Single-ply,SBD,F
Girls,56.02,10,Brianna Perez,Donna North,55.11,92.99,54.43,102.06,249.48,Single-ply,SBD,F
Girls,56.02,11,Kylony Loredo,McAllen,53.71,104.33,45.36,97.52,247.21,Single-ply,SBD,F
Girls,56.02,12,Daniela Diaz,McAllen Rowe,55.47,102.06,40.82,92.99,235.87,Single-ply,SBD,F
Girls,56.02,13,Anahy Garcia,Rio Grande City,54.2,102.06,43.09,86.18,231.33,Single-ply,SBD,F
Girls,56.02,14,Venya Gonzalez,La Joya,54.7,68.04,34.02,102.06,204.12,Single-ply,SBD,F
Girls,56.02,15,Cassidy Gomez,McAllen Rowe,55.07,77.11,38.56,81.65,197.31,Single-ply,SBD,F
Girls,56.02,16,Alejandra Garcia,Sharyland Pioneer,55.66,74.84,36.29,81.65,192.78,Single-ply,SBD,F
Girls,56.02,17,Miranda Troche,La Joya,55.7,77.11,29.48,86.18,192.78,Single-ply,SBD,F
Girls,56.02,18,Arelly Gonzalez,Mission Veterans Memorial,54.07,63.5,27.22,68.04,158.76,Single-ply,SBD,F
Girls,56.02,19,Jaylea Guzman,Rio Grande City Grulla,52.34,58.97,24.95,72.57,156.49,Single-ply,SBD,F
Girls,56.02,DQ,Cassandra Galvan,Sharyland Pioneer,55.47,,,,,Single-ply,SBD,F
Girls,60.1,1,Laura Gomez,PSJA Memorial,58.2,165.56,90.72,165.56,421.84,Single-ply,SBD,F
Girls,60.1,2,Cassandra Vargas,PSJA North,60.06,156.49,79.38,117.93,353.8,Single-ply,SBD,F
Girls,60.1,3,Janessa Campos,PSJA North,60.1,138.35,72.57,104.33,315.25,Single-ply,SBD,F
Girls,60.1,4,Valeria Guerra,Mission,57.74,115.67,56.7,133.81,306.17,Single-ply,SBD,F
Girls,60.1,5,Valerie Cordova,Mission Veterans Memorial,59.19,113.4,61.23,127.01,301.64,Single-ply,SBD,F
Girls,60.1,6,Brianna Anzaldua,Sharyland Pioneer,56.97,115.67,45.36,122.47,283.5,Single-ply,SBD,F
Girls,60.1,7,Vanessa Diaz,PSJA Memorial,59.06,120.2,45.36,111.13,276.69,Single-ply,SBD,F
Girls,60.1,8,Carmen Juarez,McAllen Rowe,59.92,102.06,47.63,97.52,247.21,Single-ply,SBD,F
Girls,60.1,9,Ashley Garcia,Rio Grande City,59.51,90.72,45.36,97.52,233.6,Single-ply,SBD,F
Girls,60.1,10,Yamilex Villarreal,Rio Grande City Grulla,60.01,68.04,31.75,81.65,181.44,Single-ply,SBD,F
Girls,60.1,11,Daniela Lechuga,Mission,60.06,74.84,27.22,68.04,170.1,Single-ply,SBD,F
Girls,60.1,DQ,Amme Alcorchas,PSJA Memorial,59.33,145.15,,,,Single-ply,SBD,F
Girls,67.36,1,Brianna Flores,Mission Veterans Memorial,67.04,165.56,83.91,174.63,424.11,Single-ply,SBD,F
Girls,67.36,2,Natalie Maldonado,PSJA Memorial,65.18,154.22,81.65,136.08,371.95,Single-ply,SBD,F
Girls,67.36,3,Alejandra Roman,Sharyland Pioneer,64.82,136.08,72.57,142.88,351.53,Single-ply,SBD,F
Girls,67.36,4,Bianca Rosales,Mission,64.59,147.42,72.57,122.47,342.46,Single-ply,SBD,F
Girls,67.36,5,Alyssa de la Garza,McAllen Rowe,64.5,124.74,65.77,117.93,308.44,Single-ply,SBD,F
Girls,67.36,6,Karen Rosales,Donna North,61.55,120.2,63.5,117.93,301.64,Single-ply,SBD,F
Girls,67.36,7,Michelle Ramirez,Edinburg North,66.41,108.86,63.5,115.67,288.03,Single-ply,SBD,F
Girls,67.36,8,Zaylin Cavazos,Edinburg North,67.27,108.86,61.23,113.4,283.5,Single-ply,SBD,F
Girls,67.36,9,Mariana Perez,Donna North,65,104.33,54.43,113.4,272.16,Single-ply,SBD,F
Girls,67.36,10,Julissa Juarez,Mission Sharyland,65.09,111.13,54.43,106.59,272.16,Single-ply,SBD,F
Girls,67.36,11,Jennifer Duarte,McAllen,66.95,111.13,43.09,115.67,269.89,Single-ply,SBD,F
Girls,67.36,12,Fabiola Chavez,La Joya,61.92,102.06,40.82,106.59,249.48,Single-ply,SBD,F
Girls,67.36,13,Natalie Trevino,PSJA North,65.59,97.52,47.63,102.06,247.21,Single-ply,SBD,F
Girls,67.36,14,Jacky Flores,Rio Grande City,66.13,95.25,43.09,104.33,242.67,Single-ply,SBD,F
Girls,67.36,15,Aaliyah Logan,Mission,66,83.91,47.63,97.52,229.06,Single-ply,SBD,F
Girls,67.36,16,Arlinda Cantu,Rio Grande City Grulla,67.22,81.65,34.02,104.33,219.99,Single-ply,SBD,F
Girls,67.36,17,Rebecca Cavazos,McAllen Rowe,64.09,90.72,40.82,83.91,215.46,Single-ply,SBD,F
Girls,67.36,DQ,Emily Longoria,Mission,63.32,111.13,,,,Single-ply,SBD,F
Girls,67.36,DQ,Galilea Leal,Edinburg North,62.82,61.23,,,,Single-ply,SBD,F
Girls,67.36,DQ,Kylie Olivares,Donna North,65.36,122.47,,,,Single-ply,SBD,F
Girls,67.36,DQ,Puente Lena,Rio Grande City Grulla,61.33,,,,,Single-ply,SBD,F
Girls,75.07,1,Victoria Trevino,PSJA Memorial,73.21,188.24,113.4,154.22,455.86,Single-ply,SBD,F
Girls,75.07,2,Alyssa Moreno,McAllen Memorial,69.31,174.63,90.72,142.88,408.23,Single-ply,SBD,F
Girls,75.07,3,Alyssa Alvarado,McAllen Memorial,73.53,142.88,70.31,142.88,356.07,Single-ply,SBD,F
Girls,75.07,4,Bianca Aguirre,Donna North,71.58,136.08,56.7,124.74,317.51,Single-ply,SBD,F
Girls,75.07,5,Abigail Vega,PSJA Memorial,72.89,120.2,58.97,136.08,315.25,Single-ply,SBD,F
Girls,75.07,6,Monique Garza,McAllen,73.66,127.01,61.23,117.93,306.17,Single-ply,SBD,F
Girls,75.07,7,Brianna Flores,Rio Grande City,69.22,115.67,56.7,108.86,281.23,Single-ply,SBD,F
Girls,75.07,8,Anastasia Garcia,La Joya,71.17,111.13,47.63,120.2,278.96,Single-ply,SBD,F
Girls,75.07,9,Mariana Juarez,PSJA North,72.62,111.13,54.43,108.86,274.42,Single-ply,SBD,F
Girls,75.07,10,Mikayla Trevino,Mission,75.02,102.06,43.09,115.67,260.82,Single-ply,SBD,F
Girls,75.07,11,Laisha Rivas,Mission Veterans Memorial,70.9,106.59,54.43,97.52,258.55,Single-ply,SBD,F
Girls,75.07,12,Maria Magana,Mission,69.35,99.79,45.36,106.59,251.74,Single-ply,SBD,F
Girls,75.07,13,Valeria Estrada,Edinburg North,71.85,81.65,49.9,102.06,233.6,Single-ply,SBD,F
Girls,75.07,14,Valerie Garza,Mission Veterans Memorial,72.76,88.45,45.36,83.91,217.72,Single-ply,SBD,F
Girls,75.07,15,Violette Bazan,Rio Grande City Grulla,74.93,74.84,36.29,97.52,208.65,Single-ply,SBD,F
Girls,75.07,16,Galilea Vargas,La Joya,68.49,83.91,31.75,90.72,206.38,Single-ply,SBD,F
Girls,75.07,DQ,Brenda Cervantes,Mission,68.49,,,,,Single-ply,SBD,F
Girls,82.33,1,Keyla Puente,La Joya,76.43,190.51,74.84,163.29,428.64,Single-ply,SBD,F
Girls,82.33,2,Jeweliana Rosas,La Joya Juarez-Lincoln,79.15,142.88,83.91,147.42,374.21,Single-ply,SBD,F
Girls,82.33,3,Carolina Constantino,Mission Sharyland,80.06,170.1,65.77,138.35,374.21,Single-ply,SBD,F
Girls,82.33,4,Abigail Martinez,PSJA Memorial,81.33,154.22,74.84,131.54,360.61,Single-ply,SBD,F
Girls,82.33,5,Allyson Gutierrez,McAllen Memorial,77.16,136.08,63.5,151.95,351.53,Single-ply,SBD,F
Girls,82.33,6,Kayla Cox,Edinburg North,80.65,140.61,74.84,131.54,347,Single-ply,SBD,F
Girls,82.33,7,Destiny Hernandez,Edinburg North,81.24,95.25,56.7,111.13,263.08,Single-ply,SBD,F
Girls,82.33,DQ,Leticia Flores,PSJA North,81.87,136.08,,,,Single-ply,SBD,F
Girls,82.33,DQ,Laura Mendoza,Sharyland Pioneer,75.52,92.99,40.82,,,Single-ply,SBD,F
Girls,90.04,1,Kim Junco,McAllen Memorial,88.22,183.7,90.72,176.9,451.32,Single-ply,SBD,F
Girls,90.04,2,Katrina Mendez,Mission Sharyland,82.92,181.44,102.06,149.69,433.18,Single-ply,SBD,F
Girls,90.04,3,Karla Frias,PSJA Memorial,87.27,136.08,70.31,149.69,356.07,Single-ply,SBD,F
Girls,90.04,4,Naylie Chavez,La Joya Juarez-Lincoln,89.95,147.42,72.57,127.01,347,Single-ply,SBD,F
Girls,90.04,5,Maria Cuellar,PSJA Memorial,85.5,131.54,54.43,122.47,308.44,Single-ply,SBD,F
Girls,90.04,6,Sophia Handy,McAllen,85.09,127.01,65.77,111.13,303.91,Single-ply,SBD,F
Girls,90.04,7,Lori Uvalle,PSJA North,89.09,120.2,58.97,122.47,301.64,Single-ply,SBD,F
Girls,90.04,8,Gardenia Valdez,Mission,89.27,108.86,45.36,131.54,285.76,Single-ply,SBD,F
Girls,90.04,9,Alexia Guerrero,McAllen,86.27,111.13,68.04,104.33,283.5,Single-ply,SBD,F
Girls,100.02,1,Alicia Gomez,PSJA Memorial,96.57,179.17,88.45,163.29,430.91,Single-ply,SBD,F
Girls,100.02,2,Valeria Santiago,McAllen Memorial,98.52,165.56,86.18,142.88,394.63,Single-ply,SBD,F
Girls,100.02,3,Erika Guerrero,Mission,100.02,183.7,54.43,142.88,381.02,Single-ply,SBD,F
Girls,100.02,4,Brisa Barrientos,La Joya,95.98,149.69,70.31,136.08,356.07,Single-ply,SBD,F
Girls,100.02,5,Angellie Macias,McAllen Rowe,99.47,147.42,68.04,131.54,347,Single-ply,SBD,F
Girls,100.02,6,Paloma Sanmeigo,PSJA North,98.79,115.67,56.7,104.33,276.69,Single-ply,SBD,F
Girls,100.02,DQ,Anyah Brown,PSJA North,97.57,124.74,,,,Single-ply,SBD,F
Girls,117.71,1,Alysha Torres,PSJA North,112.04,195.04,72.57,142.88,410.5,Single-ply,SBD,F
Girls,117.71,2,Kaylen Flores,PSJA Memorial,117.39,170.1,95.25,136.08,401.43,Single-ply,SBD,F
Girls,117.71,3,Leah Cantu,McAllen Memorial,112.9,151.95,95.25,136.08,383.29,Single-ply,SBD,F
Girls,117.71,4,America Alvarez,McAllen,101.79,117.93,63.5,97.52,278.96,Single-ply,SBD,F
Girls,117.71,5,Tara Torres,McAllen,105.82,102.06,54.43,99.79,256.28,Single-ply,SBD,F
Girls,117.71+,1,Chloe Martinez,McAllen Memorial,118.12,204.12,102.06,181.44,487.61,Single-ply,SBD,F
Girls,117.71+,2,RosaLynn Davila,Edinburg North,131.59,108.86,97.52,142.88,349.27,Single-ply,SBD,F
Girls,117.71+,3,Nayely Leyva,La Joya,118.39,117.93,58.97,133.81,310.71,Single-ply,SBD,F
