Division,WeightClassKg,Place,Name,Team,BodyweightKg,Best3SquatKg,Best3BenchKg,Best3DeadliftKg,TotalKg,Equipment,Event,Sex
Boys,51.71,1,JJ Galvan,Abilene,51.07,92.99,54.43,108.86,256.28,Single-ply,SBD,M
Boys,51.71,2,Joseph Woodyard,Abilene,51.71,77.11,58.97,108.86,244.94,Single-ply,SBD,M
Boys,55.79,1,Chris Jackson,Sweetwater,55.16,158.76,113.4,163.29,435.45,Single-ply,SBD,M
Boys,55.79,2,Canaan Charleston,Clyde,54.61,142.88,83.91,136.08,362.87,Single-ply,SBD,M
Boys,55.79,3,Kaleb Chacon,Merkel,55.43,120.2,77.11,136.08,333.39,Single-ply,SBD,M
Boys,55.79,4,Christian Martin,Abilene Cooper,55.34,117.93,52.16,113.4,283.5,Single-ply,SBD,M
Boys,55.79,5,Don Bridges,Tuscola Jim Ned,54.16,97.52,54.43,113.4,265.35,Single-ply,SBD,M
Boys,59.87,1,Riley Perry,Tuscola Jim Ned,58.97,142.88,97.52,151.95,392.36,Single-ply,SBD,M
Boys,59.87,2,Lleyton Frazier,Tuscola Jim Ned,58.51,131.54,86.18,149.69,367.41,Single-ply,SBD,M
Boys,59.87,3,Blake Scott,Sweetwater,59.87,136.08,79.38,136.08,351.53,Single-ply,SBD,M
Boys,59.87,4,Adam Hathaway,Merkel,59.87,124.74,68.04,158.76,351.53,Single-ply,SBD,M
Boys,59.87,5,Matthew Lozano,Anson,59.87,127.01,70.31,138.35,335.66,Single-ply,SBD,M
Boys,59.87,6,Jayton Pimentel,Clyde,59.87,117.93,70.31,113.4,301.64,Single-ply,SBD,M
Boys,59.87,7,Austin Tobar,Abilene Cooper,59.87,113.4,72.57,115.67,301.64,Single-ply,SBD,M
Boys,59.87,8,Brody Stanford,Abilene Cooper,58.97,111.13,65.77,122.47,299.37,Single-ply,SBD,M
Boys,59.87,9,Emilio Fernandez,Abilene Cooper,56.52,102.06,77.11,113.4,292.57,Single-ply,SBD,M
Boys,59.87,10,Michael Torres,Merkel,59.69,113.4,56.7,117.93,288.03,Single-ply,SBD,M
Boys,59.87,DQ,Jesus Menjivar,Abilene Cooper,57.97,,,,,Single-ply,SBD,M
Boys,67.13,1,Josh Camacho,Sweetwater,66.77,151.95,95.25,176.9,424.11,Single-ply,SBD,M
Boys,67.13,2,Joe Flores,Abilene Cooper,66.5,154.22,83.91,181.44,419.57,Single-ply,SBD,M
Boys,67.13,3,Rob Young,Tuscola Jim Ned,64.77,140.61,86.18,158.76,385.55,Single-ply,SBD,M
Boys,67.13,4,Kendall Adames,Sweetwater,63.5,142.88,83.91,156.49,383.29,Single-ply,SBD,M
Boys,67.13,5,Clayton Sparks,Merkel,64.95,151.95,77.11,151.95,381.02,Single-ply,SBD,M
Boys,67.13,6,Carson Parker,Merkel,63.96,129.27,81.65,163.29,374.21,Single-ply,SBD,M
Boys,67.13,7,Nick Massey,Merkel,65.68,120.2,74.84,136.08,331.12,Single-ply,SBD,M
Boys,67.13,8,Trevor Wilkerson,Clyde,67.13,129.27,70.31,113.4,312.98,Single-ply,SBD,M
Boys,67.13,9,Blue Reyes,Abilene,60.6,102.06,65.77,136.08,303.91,Single-ply,SBD,M
Boys,67.13,10,Truett Wilkerson,Clyde,67.13,111.13,61.23,124.74,297.1,Single-ply,SBD,M
Boys,67.13,11,Mark Leyva,Merkel,61.87,106.59,,,106.59,Single-ply,S,M
Boys,74.84,1,Rj Hoffman,Clyde,72.12,195.04,95.25,174.63,464.93,Single-ply,SBD,M
Boys,74.84,2,Ernesto Ornelas,Monahans,74.84,172.37,108.86,181.44,462.66,Single-ply,SBD,M
Boys,74.84,3,Jorge Hernandez,Abilene,74.12,149.69,95.25,172.37,417.3,Single-ply,SBD,M
Boys,74.84,4,Blayze Ingle,Clyde,68.49,172.37,81.65,151.95,405.97,Single-ply,SBD,M
Boys,74.84,5,Javon Brown,Monahans,71.76,136.08,83.91,181.44,401.43,Single-ply,SBD,M
Boys,74.84,6,Ethan Cortez,Sweetwater,72.21,147.42,88.45,161.03,396.89,Single-ply,SBD,M
Boys,74.84,7,Phonzo Dotson,Abilene,73.84,156.49,74.84,142.88,374.21,Single-ply,SBD,M
Boys,74.84,8,Henry Ferrel,Abilene Cooper,74.84,142.88,74.84,140.61,358.34,Single-ply,SBD,M
Boys,74.84,DQ,Slade Shipman,Merkel,71.21,138.35,83.91,156.49,,Single-ply,SBD,M
Boys,82.1,1,Donovan Gomez,Clyde,82.1,258.55,131.54,229.06,619.15,Single-ply,SBD,M
Boys,82.1,2,Emile Niyonkuru,Abilene Cooper,79.56,195.04,108.86,204.12,508.02,Single-ply,SBD,M
Boys,82.1,3,Ty Tipton,Cross Plains,82.1,192.78,88.45,190.51,471.74,Single-ply,SBD,M
Boys,82.1,4,Tony Padilla,Sweetwater,79.11,183.7,104.33,181.44,469.47,Single-ply,SBD,M
Boys,82.1,5,Elijah Moser,Anson,80.6,181.44,92.99,195.04,469.47,Single-ply,SBD,M
Boys,82.1,6,Michael Bartlett,Abilene,77.2,174.63,97.52,188.24,460.4,Single-ply,SBD,M
Boys,82.1,7,AJ Gonzales,Abilene,81.01,192.78,108.86,158.76,460.4,Single-ply,SBD,M
Boys,82.1,8,Zack Yost,Clyde,79.83,167.83,97.52,172.37,437.72,Single-ply,SBD,M
Boys,82.1,9,Xavier Carrillo,Abilene,79.74,163.29,83.91,183.7,430.91,Single-ply,SBD,M
Boys,82.1,10,Phillip Tellez,Abilene,80.1,158.76,95.25,165.56,419.57,Single-ply,SBD,M
Boys,82.1,11,Athen Fish,Clyde,82.1,149.69,90.72,174.63,415.04,Single-ply,SBD,M
Boys,82.1,12,Gabriel Camargo,Anson,76.2,115.67,56.7,133.81,306.17,Single-ply,SBD,M
Boys,82.1,13,Dallas Camargo,Anson,77.11,111.13,61.23,117.93,290.3,Single-ply,SBD,M
Boys,82.1,14,Dawson Cannon,Clyde,78.47,99.79,68.04,111.13,278.96,Single-ply,SBD,M
Boys,82.1,DQ,Aaron Ursry,Monahans,77.29,167.83,,,,Single-ply,SBD,M
Boys,89.81,1,Devin Romero,Abilene,89.27,238.14,122.47,233.6,594.21,Single-ply,SBD,M
Boys,89.81,2,Ignacio Camacho,Monahans,88.18,222.26,122.47,201.85,546.58,Single-ply,SBD,M
Boys,89.81,3,Morgan Porter,Clyde,87.45,183.7,99.79,179.17,462.66,Single-ply,SBD,M
Boys,89.81,4,Logan Proctor,Cross Plains,87.54,176.9,90.72,181.44,449.06,Single-ply,SBD,M
Boys,89.81,5,Xavier Jenkins,Abilene Cooper,86.45,156.49,102.06,185.97,444.52,Single-ply,SBD,M
Boys,89.81,6,Logan King,Sweetwater,89.72,136.08,104.33,154.22,394.63,Single-ply,SBD,M
Boys,89.81,7,Kyle St John,Anson,88.18,138.35,79.38,138.35,356.07,Single-ply,SBD,M
Boys,89.81,DQ,Kanen Herd,Merkel,88.99,136.08,,,,Single-ply,SBD,M
Boys,99.79,1,Hayden Pipkin,Monahans,96.62,208.65,145.15,199.58,553.38,Single-ply,SBD,M
Boys,99.79,2,Harley Ford,Abilene,96.16,215.46,111.13,201.85,528.44,Single-ply,SBD,M
Boys,99.79,3,Griffin Cooke,Abilene,96.52,204.12,111.13,188.24,503.49,Single-ply,SBD,M
Boys,99.79,4,Jacob Turner,Tuscola Jim Ned,91.35,174.63,108.86,217.72,501.22,Single-ply,SBD,M
Boys,99.79,5,Arthur Murillo,Tuscola Jim Ned,93.44,201.85,99.79,190.51,492.15,Single-ply,SBD,M
Boys,99.79,6,Xavier Graves,Abilene,97.34,197.31,108.86,181.44,487.61,Single-ply,SBD,M
Boys,99.79,7,John Wheeler,Tuscola Jim Ned,95.98,185.97,124.74,172.37,483.08,Single-ply,SBD,M
Boys,99.79,8,Kutter McDowell,Clyde,92.71,188.24,111.13,165.56,464.93,Single-ply,SBD,M
Boys,99.79,9,Jorrian Moses,Abilene Cooper,95.62,154.22,113.4,158.76,426.38,Single-ply,SBD,M
Boys,99.79,10,Gustavo Velasquez,Clyde,93.26,113.4,61.23,124.74,299.37,Single-ply,SBD,M
Boys,109.77,1,Brandon Padilla,Anson,107.77,276.69,138.35,247.21,662.24,Single-ply,SBD,M
Boys,109.77,2,Zack Thompson,Abilene,108.41,233.6,154.22,208.65,596.47,Single-ply,SBD,M
Boys,109.77,3,Justin Castereno,Sweetwater,105.87,208.65,111.13,213.19,532.97,Single-ply,SBD,M
Boys,109.77,4,Colton Grimes,Abilene Cooper,108.68,192.78,136.08,190.51,519.36,Single-ply,SBD,M
Boys,109.77,5,Blaine Hunt,Monahans,109.32,199.58,117.93,201.85,519.36,Single-ply,SBD,M
Boys,109.77,6,Tye Landeros,Tuscola Jim Ned,103.87,215.46,117.93,181.44,514.83,Single-ply,SBD,M
Boys,109.77,7,Jaxon Smith,Abilene,107.68,213.19,113.4,188.24,514.83,Single-ply,SBD,M
Boys,109.77,8,Kade Heatherly,Abilene Cooper,104.05,183.7,102.06,190.51,476.27,Single-ply,SBD,M
Boys,109.77,9,Triston Patterson,Tuscola Jim Ned,100.43,174.63,108.86,185.97,469.47,Single-ply,SBD,M
Boys,109.77,10,Stedham Buchanan,Clyde,109.13,201.85,113.4,154.22,469.47,Single-ply,SBD,M
Boys,109.77,11,Xavier Cortez,Abilene,106.68,197.31,95.25,167.83,460.4,Single-ply,SBD,M
Boys,109.77,12,Lucas Gomez,Abilene,104.78,190.51,102.06,163.29,455.86,Single-ply,SBD,M
Boys,109.77,13,Gavin Reyes,Sweetwater,108.14,149.69,106.59,181.44,437.72,Single-ply,SBD,M
Boys,109.77,14,Kade Miller,Tuscola Jim Ned,100.74,156.49,83.91,174.63,415.04,Single-ply,SBD,M
Boys,109.77,15,Juan Rodriguez,Monahans,109.41,133.81,79.38,140.61,353.8,Single-ply,SBD,M
Boys,124.74,1,Austin Schoonmaker,Clyde,111.49,226.8,149.69,204.12,580.6,Single-ply,SBD,M
Boys,124.74,2,Israel DelaCruz,Anson,110.95,231.33,122.47,201.85,555.65,Single-ply,SBD,M
Boys,124.74,3,Michaelin Toney,Abilene Cooper,110.86,192.78,122.47,188.24,503.49,Single-ply,SBD,M
Boys,124.74,4,Justin Smith,Abilene Cooper,117.57,195.04,113.4,183.7,492.15,Single-ply,SBD,M
Boys,124.74,5,CJ Ugalde,Merkel,118.75,199.58,129.27,158.76,487.61,Single-ply,SBD,M
Boys,124.74,6,Josh Jimenez,Monahans,124.47,174.63,90.72,158.76,424.11,Single-ply,SBD,M
Boys,124.74,7,Matthew Roberts,Abilene,119.66,163.29,92.99,142.88,399.16,Single-ply,SBD,M
Boys,124.74,DQ,Jacob Collier,Cross Plains,113.13,,,,,Single-ply,SBD,M
Boys,124.74+,1,Izak Leyva,Monahans,174.54,229.06,145.15,226.8,601.01,Single-ply,SBD,M
Boys,124.74+,2,Max Rodriguez,Sweetwater,127.19,233.6,131.54,226.8,591.94,Single-ply,SBD,M
Boys,124.74+,3,David Schuman,Merkel,127.01,226.8,140.61,204.12,571.53,Single-ply,SBD,M
Boys,124.74+,4,Jeremiah Barrera,Sweetwater,131.54,226.8,111.13,231.33,569.26,Single-ply,SBD,M
Boys,124.74+,5,Devon Cosby,Abilene Cooper,126.19,208.65,129.27,217.72,555.65,Single-ply,SBD,M
Boys,124.74+,6,Ricardo Rios,Abilene Cooper,135.62,222.26,124.74,192.78,539.77,Single-ply,SBD,M
Boys,124.74+,7,Gage McVey,Abilene Cooper,129.82,215.46,136.08,183.7,535.24,Single-ply,SBD,M
Boys,124.74+,8,Luis Jauregui,Monahans,133.54,208.65,129.27,195.04,532.97,Single-ply,SBD,M
Boys,124.74+,9,Jaron Castillo,Anson,130.73,215.46,106.59,201.85,523.9,Single-ply,SBD,M
Boys,124.74+,10,Javier Santana,Abilene,131,204.12,95.25,161.03,460.4,Single-ply,SBD,M
Boys,124.74+,11,Jonathan Presley,Abilene Cooper,151.41,181.44,83.91,151.95,417.3,Single-ply,SBD,M
Boys,124.74+,DQ,Reagan Huffty,Monahans,137.08,165.56,99.79,,,Single-ply,SBD,M
