Division,WeightClassKg,Place,Name,Team,BodyweightKg,Best3SquatKg,Best3BenchKg,Best3DeadliftKg,TotalKg,Equipment,Event,Sex
Boys,51.71,1,Martin Lopez,Maypearl,51.71,136.08,68.04,124.74,328.85,Single-ply,SBD,M
Boys,55.79,2,Ross Ginsburg,Waco Reicher Catholic,51.89,122.47,63.5,133.81,319.78,Single-ply,SBD,M
Boys,55.79,3,Ethan Hoops,Eustace,51.94,122.47,68.04,129.27,319.78,Single-ply,SBD,M
Boys,51.71,4,Rodrigo Hernandez,Hillsboro,51.35,120.2,61.23,127.01,308.44,Single-ply,SBD,M
Boys,51.71,5,Estefano Lopez,Waco University,51.71,108.86,74.84,122.47,306.17,Single-ply,SBD,M
Boys,51.71,6,Michael Smagghe,Fairfield,50.8,127.01,74.84,,201.85,Single-ply,SB,M
Boys,51.71,7,Jon Whalen,Whitney,43.91,72.57,31.75,81.65,185.97,Single-ply,SBD,M
Boys,51.71,DQ,Sam Garcia,Ferris,47.63,,,,,Single-ply,SBD,M
Boys,55.79,DQ,Joey Carusso,Burleson,51.94,,,,,Single-ply,SBD,M
Boys,51.71,DQ,Stephen McNaught,Meridian,49.26,,,,,Single-ply,SBD,M
Boys,51.71,DQ,Ethan Ford,Burleson Centennial,50.71,,,,,Single-ply,SBD,M
Boys,59.87,1,Colton Doyle,Waxahachie,55.88,136.08,74.84,147.42,358.34,Single-ply,SBD,M
Boys,55.79,2,Josh Vandygrift,Godley,55.52,138.35,68.04,140.61,347,Single-ply,SBD,M
Boys,55.79,3,Trevor Koestens,Troy,52.16,136.08,72.57,136.08,344.73,Single-ply,SBD,M
Boys,55.79,4,Noah Weigant,Whitney,55.79,127.01,74.84,136.08,337.93,Single-ply,SBD,M
Boys,55.79,5,Houston Johnson,North Crowley,55.52,124.74,56.7,145.15,326.59,Single-ply,SBD,M
Boys,55.79,6,Julian Espinosa,Venus,54.98,122.47,52.16,115.67,290.3,Single-ply,SBD,M
Boys,55.79,7,Dillon McCastland,Italy,54.43,95.25,56.7,97.52,249.48,Single-ply,SBD,M
Boys,55.79,8,Justin Hibler,Justin Northwest,52.16,81.65,52.16,99.79,233.6,Single-ply,SBD,M
Boys,55.79,DQ,Connor Watson,Burleson Centennial,55.25,,,,,Single-ply,SBD,M
Boys,55.79,DQ,Shayne Streminski,Burleson Centennial,55.07,,,,,Single-ply,SBD,M
Boys,55.79,DQ,Cody McQueen,Fairfield,52.16,99.79,45.36,,,Single-ply,SBD,M
Boys,55.79,DQ,Clayton Keahey,Waco Reicher Catholic,55.34,,,122.47,,Single-ply,SBD,M
Boys,55.79,DQ,Brock McLemore,Midlothian,55.07,120.2,92.99,,,Single-ply,SBD,M
Boys,55.79,DQ,Tylor Chandler,Scurry-Rosser,54.61,127.01,,,,Single-ply,SBD,M
Boys,59.87,1,Jaquay Brown,Milford,59.78,163.29,86.18,183.7,433.18,Single-ply,SBD,M
Boys,59.87,2,Hayden Dibble,North Crowley,59.69,176.9,79.38,174.63,430.91,Single-ply,SBD,M
Boys,59.87,3,Jorge Perez,Venus,57.42,163.29,79.38,165.56,408.23,Single-ply,SBD,M
Boys,59.87,4,Clayton Bryant,Godley,58.6,145.15,95.25,167.83,408.23,Single-ply,SBD,M
Boys,67.13,5,Adolfo Rodriguez,West,60.06,154.22,88.45,156.49,399.16,Single-ply,SBD,M
Boys,59.87,6,Victor Ejiasi,North Forney,57.97,136.08,79.38,158.76,374.21,Single-ply,SBD,M
Boys,59.87,7,Tommy Allbright,Godley,59.87,140.61,79.38,145.15,365.14,Single-ply,SBD,M
Boys,59.87,8,Paul Clark,Joshua,59.69,120.2,90.72,138.35,349.27,Single-ply,SBD,M
Boys,59.87,9,Michael Brown,Lancaster,56.7,129.27,72.57,140.61,342.46,Single-ply,SBD,M
Boys,59.87,10,Casey Stevenson,Rio Vista,59.15,113.4,72.57,145.15,331.12,Single-ply,SBD,M
Boys,59.87,11,Keith Kayser,Milford,59.78,124.74,56.7,145.15,326.59,Single-ply,SBD,M
Boys,59.87,12,Luke Elkins,Corsicana,59.15,106.59,79.38,136.08,322.05,Single-ply,SBD,M
Boys,59.87,DQ,David Turbig,Burleson,58.88,,,,,Single-ply,SBD,M
Boys,59.87,DQ,Jarred Childers,Meridian,59.87,,,,,Single-ply,SBD,M
Boys,67.13,DQ,Austin Blalock,Burleson Centennial,59.96,,,,,Single-ply,SBD,M
Boys,74.84,1,Garrett David,Waxahachie,67.31,167.83,92.99,206.38,467.2,Single-ply,SBD,M
Boys,67.13,2,Tanner Bailey,Waco Reicher Catholic,67.13,163.29,83.91,201.85,449.06,Single-ply,SBD,M
Boys,67.13,3,Baldomero Sanchez,Waco University,64.5,170.1,86.18,181.44,437.72,Single-ply,SBD,M
Boys,67.13,4,Jake Schmidt,Troy,60.51,154.22,106.59,163.29,424.11,Single-ply,SBD,M
Boys,74.84,5,Colton Squires,Godley,67.31,151.95,99.79,170.1,421.84,Single-ply,SBD,M
Boys,67.13,6,Darius Campbell,Red Oak,66.68,158.76,102.06,158.76,419.57,Single-ply,SBD,M
Boys,74.84,7,Michael Vega,Venus,67.22,161.03,97.52,161.03,419.57,Single-ply,SBD,M
Boys,67.13,8,Ivan Vasquez,Red Oak,66.5,142.88,90.72,181.44,415.04,Single-ply,SBD,M
Boys,67.13,9,Jacob McLean,Scurry-Rosser,60.87,158.76,81.65,163.29,403.7,Single-ply,SBD,M
Boys,67.13,10,Hugo Chavez,Hillsboro,66.32,149.69,83.91,165.56,399.16,Single-ply,SBD,M
Boys,67.13,11,Nick Morrow,Midlothian,64.5,147.42,90.72,156.49,394.63,Single-ply,SBD,M
Boys,67.13,12,Ian Lucas,Venus,64.5,142.88,86.18,161.03,390.09,Single-ply,SBD,M
Boys,67.13,13,Adam Schroeder,Midlothian,66.68,145.15,79.38,165.56,390.09,Single-ply,SBD,M
Boys,67.13,14,Carter Creel,Midlothian,67.13,151.95,74.84,154.22,381.02,Single-ply,SBD,M
Boys,67.13,15,Gabe Gonzales,Midlothian,66.41,140.61,74.84,156.49,371.95,Single-ply,SBD,M
Boys,67.13,16,Alonzo Shaw,Alvarado,64.23,145.15,77.11,136.08,358.34,Single-ply,SBD,M
Boys,67.13,17,Harley Scroggins,Alvarado,67.13,136.08,81.65,140.61,358.34,Single-ply,SBD,M
Boys,67.13,18,Hudson Howell,Cleburne,62.96,117.93,68.04,142.88,328.85,Single-ply,SBD,M
Boys,67.13,19,Stephen Tometi,Midlothian,63.87,120.2,68.04,136.08,324.32,Single-ply,SBD,M
Boys,67.13,20,David Johnson,Waco Reicher Catholic,62.96,108.86,65.77,124.74,299.37,Single-ply,SBD,M
Boys,67.13,21,Christian Bares,Whitney,63.78,113.4,72.57,113.4,299.37,Single-ply,SBD,M
Boys,67.13,DQ,Mariano Perez,West,66.22,,,,,Single-ply,SBD,M
Boys,67.13,DQ,Devin Eggins,Fairfield,66.13,,,,,Single-ply,SBD,M
Boys,67.13,DQ,Nick Mooneyham,Fairfield,65.32,147.42,79.38,,,Single-ply,SBD,M
Boys,74.84,DQ,Felix Gandara,Alvarado,67.31,149.69,,,,Single-ply,SBD,M
Boys,67.13,DQ,Sean Wofford,Burleson,62.32,,,,,Single-ply,SBD,M
Boys,67.13,DQ,Greg Ash,Burleson,66.59,142.88,,,,Single-ply,SBD,M
Boys,67.13,DQ,Joshua Scott,Cedar Hill,63.41,120.2,52.16,,,Single-ply,SBD,M
Boys,67.13,DQ,Tanner Wilkerson,Joshua,63.96,136.08,81.65,,,Single-ply,SBD,M
Boys,67.13,DQ,Joseph Musgrove,Justin Northwest,61.05,129.27,,,,Single-ply,SBD,M
Boys,67.13,DQ,Jayvier Rigmaiden,Burleson Centennial,62.96,,,,,Single-ply,SBD,M
Boys,67.13,DQ,Brady McDaniel,Burleson Centennial,66.59,,,,,Single-ply,SBD,M
Boys,74.84,1,Kneeland Donnelly,Hawley,71.67,251.74,147.42,226.8,625.96,Single-ply,SBD,M
Boys,74.84,2,Chris Vega,Fort Worth North Side,73.48,219.99,142.88,231.33,594.21,Single-ply,SBD,M
Boys,82.1,3,Chris Dingrando,Whitney,75.02,192.78,120.2,222.26,535.24,Single-ply,SBD,M
Boys,74.84,4,Roy Ward,Waco Reicher Catholic,72.39,204.12,115.67,204.12,523.9,Single-ply,SBD,M
Boys,74.84,5,Zach Rankin,West,73.66,190.51,124.74,197.31,512.56,Single-ply,SBD,M
Boys,74.84,6,Adrian Cooper,Red Oak Life,74.84,192.78,108.86,188.24,489.88,Single-ply,SBD,M
Boys,74.84,7,Tres Cox,Northwest Nelson,69.49,183.7,117.93,181.44,483.08,Single-ply,SBD,M
Boys,74.84,8,Gavian Pringle,Waxahachie,71.85,185.97,102.06,183.7,471.74,Single-ply,SBD,M
Boys,74.84,9,Derrick Mosley,North Forney,67.95,181.44,106.59,174.63,462.66,Single-ply,SBD,M
Boys,74.84,10,Justin Griffin,Eustace,67.59,176.9,106.59,172.37,455.86,Single-ply,SBD,M
Boys,74.84,11,Lane Yancey,Joshua,73.12,145.15,92.99,204.12,442.25,Single-ply,SBD,M
Boys,74.84,12,Abraham Flores,Fort Worth North Side,74.3,163.29,88.45,190.51,442.25,Single-ply,SBD,M
Boys,74.84,13,Deondre Gray,Red Oak,71.94,154.22,99.79,170.1,424.11,Single-ply,SBD,M
Boys,74.84,14,Jesse Landess,Scurry-Rosser,72.94,158.76,97.52,167.83,424.11,Single-ply,SBD,M
Boys,74.84,15,Jared Leal,Palmer,70.31,156.49,90.72,172.37,419.57,Single-ply,SBD,M
Boys,74.84,16,Richie Dubose,Maypearl,71.21,127.01,99.79,190.51,417.3,Single-ply,SBD,M
Boys,74.84,17,Dalton Riley,Maypearl,73.03,154.22,72.57,190.51,417.3,Single-ply,SBD,M
Boys,74.84,18,DeMarr Henry,Corsicana,68.95,147.42,102.06,165.56,415.04,Single-ply,SBD,M
Boys,82.1,19,Juan Ruiz,Cleburne,75.07,151.95,92.99,161.03,405.97,Single-ply,SBD,M
Boys,74.84,20,Langston Madison,Corsicana,68.49,147.42,83.91,145.15,376.48,Single-ply,SBD,M
Boys,74.84,21,Chris Pitts,North Crowley,67.77,142.88,79.38,151.95,374.21,Single-ply,SBD,M
Boys,74.84,22,Kyle Holecek,Waco Reicher Catholic,73.48,124.74,88.45,156.49,369.68,Single-ply,SBD,M
Boys,74.84,23,Didier Chavez,Fort Worth North Side,68.95,136.08,81.65,145.15,362.87,Single-ply,SBD,M
Boys,74.84,24,Kaleb Madison,Joshua,70.4,129.27,77.11,156.49,362.87,Single-ply,SBD,M
Boys,74.84,25,Jason Wiggin,Rio Vista,71.94,136.08,72.57,145.15,353.8,Single-ply,SBD,M
Boys,74.84,26,Lorenzo Vargas,Waco Reicher Catholic,70.03,124.74,65.77,136.08,326.59,Single-ply,SBD,M
Boys,74.84,DQ,Jesse Alfaro,Palmer,71.4,,,,,Single-ply,SBD,M
Boys,74.84,DQ,MeKenzie Dulaney,Meridian,74.84,,,,,Single-ply,SBD,M
Boys,74.84,DQ,Lucas Ramsey,Meridian,67.68,,,,,Single-ply,SBD,M
Boys,74.84,DQ,Jared Conley,Cleburne,73.12,,,,,Single-ply,SBD,M
Boys,74.84,DQ,Joel Reyes,Cedar Hill,74.48,129.27,77.11,,,Single-ply,SBD,M
Boys,74.84,DQ,JaSean Myers,Burleson Centennial,72.48,,,,,Single-ply,SBD,M
Boys,82.1,1,James Bradford,Troy,80.83,226.8,158.76,226.8,612.35,Single-ply,SBD,M
Boys,82.1,2,Allen Scott,Waco Reicher Catholic,77.38,222.26,133.81,224.53,580.6,Single-ply,SBD,M
Boys,82.1,3,Michael Tsapos,Northwest Nelson,81.01,240.4,136.08,204.12,580.6,Single-ply,SBD,M
Boys,82.1,4,Jacob Parker,Justin Northwest,81.56,219.99,129.27,226.8,576.06,Single-ply,SBD,M
Boys,82.1,5,Dawson Lochridge,Whitney,82.1,188.24,136.08,210.92,535.24,Single-ply,SBD,M
Boys,82.1,6,Alberto Camarillo,Fort Worth North Side,77.38,188.24,106.59,185.97,480.81,Single-ply,SBD,M
Boys,89.81,7,Sebastian Reyes,Justin Northwest,82.19,188.24,102.06,188.24,478.54,Single-ply,SBD,M
Boys,82.1,8,Trevon Brooks,Lancaster,80.47,188.24,102.06,161.03,451.32,Single-ply,SBD,M
Boys,82.1,9,Peanut White,Corsicana,78.93,142.88,111.13,195.04,449.06,Single-ply,SBD,M
Boys,82.1,10,Eduardo Ortiz,Hillsboro,76.48,172.37,97.52,174.63,444.52,Single-ply,SBD,M
Boys,82.1,11,Trevor Sellers,Grandview,79.56,163.29,120.2,158.76,442.25,Single-ply,SBD,M
Boys,82.1,12,Daniel Salguero,Red Oak,77.11,165.56,108.86,163.29,437.72,Single-ply,SBD,M
Boys,82.1,13,Dalton Samek,Midlothian,79.47,158.76,106.59,156.49,421.84,Single-ply,SBD,M
Boys,82.1,14,Cyan Vaughn,Waco Reicher Catholic,81.92,147.42,108.86,158.76,415.04,Single-ply,SBD,M
Boys,82.1,15,Adam Solis,Midlothian,78.02,142.88,111.13,158.76,412.77,Single-ply,SBD,M
Boys,82.1,16,Eric Murphy,Godley,82.1,145.15,102.06,151.95,399.16,Single-ply,SBD,M
Boys,82.1,17,Gerado Garcia,Alvarado,79.56,145.15,95.25,124.74,365.14,Single-ply,SBD,M
Boys,82.1,18,Jared Burchard,Alvarado,77.02,142.88,86.18,131.54,360.61,Single-ply,SBD,M
Boys,82.1,19,Brian Leal,Whitney,77.47,115.67,83.91,147.42,347,Single-ply,SBD,M
Boys,82.1,20,Aj Salazar,Rio Vista,81.1,120.2,65.77,129.27,315.25,Single-ply,SBD,M
Boys,82.1,21,John Baker,Rio Vista,75.48,111.13,61.23,124.74,297.1,Single-ply,SBD,M
Boys,82.1,22,Jared Grooms,Waco Reicher Catholic,80.56,111.13,61.23,108.86,281.23,Single-ply,SBD,M
Boys,82.1,23,Gragory Strange,Milford,81.74,95.25,54.43,111.13,260.82,Single-ply,SBD,M
Boys,82.1,DQ,Jaime Reynoso,Meridian,80.29,,,,,Single-ply,SBD,M
Boys,89.81,DQ,Stevie Stoermer,West,82.28,,,,,Single-ply,SBD,M
Boys,82.1,DQ,Jeff Morua,Waco University,81.83,,,,,Single-ply,SBD,M
Boys,82.1,DQ,N Reyes,Cedar Hill,78.02,127.01,65.77,,,Single-ply,SBD,M
Boys,82.1,DQ,Huriel Oviedo,Godley,78.65,,,,,Single-ply,SBD,M
Boys,82.1,DQ,Aric Ramzanali,Hawley,81.65,206.38,,,,Single-ply,SBD,M
Boys,82.1,DQ,Dakota Deger,Joshua,79.74,,,,,Single-ply,SBD,M
Boys,82.1,DQ,Damon Elvington,Burleson Centennial,80.01,,,,,Single-ply,SBD,M
Boys,82.1,DQ,Nathan Ferguson,Burleson Centennial,80.1,,,,,Single-ply,SBD,M
Boys,89.81,1,Vincent Ajaegbu,North Crowley,88.99,222.26,120.2,238.14,580.6,Single-ply,SBD,M
Boys,89.81,2,Dontavious Green,Waco University,88,213.19,133.81,231.33,578.33,Single-ply,SBD,M
Boys,89.81,3,Andrew Lee,North Crowley,87,226.8,138.35,210.92,576.06,Single-ply,SBD,M
Boys,89.81,4,Chase Coleman,North Crowley,88.99,201.85,120.2,244.94,566.99,Single-ply,SBD,M
Boys,89.81,5,Davion Smith,Lancaster,84.91,179.17,131.54,254.01,564.72,Single-ply,SBD,M
Boys,89.81,6,Leonardo Zavala,Waxahachie,87.54,219.99,106.59,226.8,553.38,Single-ply,SBD,M
Boys,89.81,7,Joel Kabongo,Northwest Nelson,84.46,206.38,115.67,219.99,542.04,Single-ply,SBD,M
Boys,89.81,8,Jeremiah Simpson,Fairfield,87.09,226.8,113.4,190.51,530.7,Single-ply,SBD,M
Boys,89.81,9,Dj Jefferson,Waxahachie,89.09,199.58,120.2,204.12,523.9,Single-ply,SBD,M
Boys,89.81,10,Bailey Guynes,Troy,86,188.24,117.93,213.19,519.36,Single-ply,SBD,M
Boys,89.81,11,Lio Reyes,Alvarado,88.81,204.12,124.74,183.7,512.56,Single-ply,SBD,M
Boys,89.81,12,Erick Torres,Palmer,89.18,190.51,133.81,181.44,505.76,Single-ply,SBD,M
Boys,89.81,13,Chris Clark,Waxahachie,84.73,174.63,108.86,215.46,498.95,Single-ply,SBD,M
Boys,89.81,14,Dylan Esquivel,Godley,87.54,181.44,115.67,201.85,498.95,Single-ply,SBD,M
Boys,89.81,15,Lloyd Reid,Red Oak,83.91,174.63,113.4,206.38,494.42,Single-ply,SBD,M
Boys,89.81,16,Alexeey Dismuke,Lancaster,82.64,183.7,117.93,183.7,485.34,Single-ply,SBD,M
Boys,89.81,17,Chris Adkinson,Corsicana,85.91,181.44,129.27,174.63,485.34,Single-ply,SBD,M
Boys,89.81,18,Frankie Solis,Midlothian,83.82,181.44,117.93,181.44,480.81,Single-ply,SBD,M
Boys,89.81,19,Ryan Mutina,Corsicana,83.91,190.51,106.59,151.95,449.06,Single-ply,SBD,M
Boys,89.81,20,Chase Killpatrick,Fairfield,87,183.7,90.72,174.63,449.06,Single-ply,SBD,M
Boys,89.81,21,Zeke Lopez,Ferris,88.63,163.29,117.93,158.76,439.98,Single-ply,SBD,M
Boys,89.81,22,Sam Ejiasi,North Forney,87.72,172.37,97.52,167.83,437.72,Single-ply,SBD,M
Boys,89.81,23,David Librado,Hillsboro,83.28,183.7,92.99,147.42,424.11,Single-ply,SBD,M
Boys,89.81,24,Elliseo Ortiz,Red Oak,83.91,147.42,102.06,158.76,408.23,Single-ply,SBD,M
Boys,89.81,25,Cody Tomlin,Corsicana,86.45,165.56,88.45,151.95,405.97,Single-ply,SBD,M
Boys,89.81,26,Elifonso Vargas,Joshua,89.72,142.88,90.72,156.49,390.09,Single-ply,SBD,M
Boys,89.81,27,Timothy Thomas,Whitney,82.74,161.03,79.38,145.15,385.55,Single-ply,SBD,M
Boys,89.81,28,Justin Leisering,Cleburne,84.55,136.08,90.72,158.76,385.55,Single-ply,SBD,M
Boys,89.81,29,Jacob Rounsavall,Hillsboro,88.18,127.01,99.79,136.08,362.87,Single-ply,SBD,M
Boys,89.81,30,Chris Jackson,Hillsboro,85.64,102.06,70.31,158.76,331.12,Single-ply,SBD,M
Boys,99.79,DQ,Samuel Jennings,Justin Northwest,89.9,,,,,Single-ply,SBD,M
Boys,89.81,DQ,Andrew Carnes,Burleson,86.64,,,,,Single-ply,SBD,M
Boys,89.81,DQ,Josh Ramsey,Meridian,88.81,,,,,Single-ply,SBD,M
Boys,89.81,DQ,Garret Tolar,Burleson Centennial,85,,,,,Single-ply,SBD,M
Boys,89.81,DQ,Asher Gillaspie,Burleson Centennial,87.45,,,,,Single-ply,SBD,M
Boys,89.81,DQ,Carlton Dirickson,Maypearl,83.46,154.22,113.4,,,Single-ply,SBD,M
Boys,89.81,DQ,Joey Carrabba,Whitney,82.64,181.44,,,,Single-ply,SBD,M
Boys,89.81,DQ,Alec Lara,Venus,87.36,165.56,97.52,,,Single-ply,SBD,M
Boys,89.81,DQ,A. Smith #10,Cedar Hill,88.36,147.42,79.38,,,Single-ply,SBD,M
Boys,89.81,DQ,Aaron Pfleeger,Fairfield,89.63,158.76,77.11,,,Single-ply,SBD,M
Boys,89.81,DQ,Austin Penny,Justin Northwest,83.19,185.97,97.52,,,Single-ply,SBD,M
Boys,89.81,DQ,Ross Penny,Justin Northwest,87.63,190.51,111.13,,,Single-ply,SBD,M
Boys,99.79,DQ,Kenneth Norwood,Italy,89.99,90.72,65.77,,,Single-ply,SBD,M
Boys,89.81,DQ,Lucas Bowen,Grandview,86.64,136.08,,,,Single-ply,SBD,M
Boys,89.81,DQ,Payton Price,Grandview,89.36,136.08,83.91,,,Single-ply,SBD,M
Boys,99.79,1,Chase Wingo,Midlothian,96.62,251.74,158.76,251.74,662.24,Single-ply,SBD,M
Boys,99.79,2,Adam Arredondo,Waxahachie,99.16,272.16,136.08,224.53,632.76,Single-ply,SBD,M
Boys,99.79,3,Hosbaldo Ruiz,Cleburne,98.79,247.21,158.76,215.46,621.42,Single-ply,SBD,M
Boys,99.79,4,Nathaniel Rutherford,Joshua,99.06,242.67,136.08,226.8,605.55,Single-ply,SBD,M
Boys,99.79,5,Eduardo Cruz,Hillsboro,91.99,233.6,133.81,215.46,582.87,Single-ply,SBD,M
Boys,99.79,6,Ace Rurak,Grandview,96.62,238.14,129.27,201.85,569.26,Single-ply,SBD,M
Boys,99.79,7,Darius Watson,Corsicana,91.35,204.12,111.13,215.46,530.7,Single-ply,SBD,M
Boys,99.79,8,Kylie Griffith,Northwest Nelson,96.71,195.04,115.67,210.92,521.63,Single-ply,SBD,M
Boys,99.79,9,Will Barnes,North Forney,97.61,213.19,108.86,185.97,508.02,Single-ply,SBD,M
Boys,99.79,10,Brayan Villa,Grandview,99.43,185.97,131.54,172.37,489.88,Single-ply,SBD,M
Boys,99.79,11,Rogelio Medina,Maypearl,99.79,204.12,104.33,181.44,489.88,Single-ply,SBD,M
Boys,99.79,12,Chris Castro,Midlothian,95.62,188.24,106.59,181.44,476.27,Single-ply,SBD,M
Boys,99.79,13,Tyson Roberts,Joshua,91.35,165.56,113.4,188.24,467.2,Single-ply,SBD,M
Boys,99.79,14,Austin Gonzales,Alvarado,97.79,195.04,104.33,165.56,464.93,Single-ply,SBD,M
Boys,99.79,15,Jimmy Landess,Scurry-Rosser,92.17,174.63,95.25,190.51,460.4,Single-ply,SBD,M
Boys,99.79,16,Joss Duncan,Midlothian,92.35,179.17,88.45,192.78,460.4,Single-ply,SBD,M
Boys,99.79,17,Patrick Dickson,North Forney,95.35,158.76,108.86,170.1,437.72,Single-ply,SBD,M
Boys,99.79,18,Austin Jones,Lancaster,92.71,133.81,99.79,183.7,417.3,Single-ply,SBD,M
Boys,99.79,19,Joe Fallwell,Whitney,95.53,115.67,79.38,142.88,337.93,Single-ply,SBD,M
Boys,99.79,DQ,Jesus Garza,Meridian,98.61,,,,,Single-ply,SBD,M
Boys,99.79,DQ,Jose Diaz,Joshua,93.44,,,,,Single-ply,SBD,M
Boys,99.79,DQ,Ethan Campbell,Grandview,90.45,,,,,Single-ply,SBD,M
Boys,99.79,DQ,Nathan Walker,Burleson Centennial,93.35,,,,,Single-ply,SBD,M
Boys,99.79,DQ,John Carter,Burleson,98.97,226.8,,,,Single-ply,SBD,M
Boys,99.79,DQ,Christian Holt,Burleson,92.35,167.83,,,,Single-ply,SBD,M
Boys,99.79,DQ,Jeremy Wood,Fairfield,95.16,158.76,92.99,,,Single-ply,SBD,M
Boys,99.79,DQ,Cole Beddingfield,Fairfield,92.44,210.92,113.4,,,Single-ply,SBD,M
Boys,99.79,DQ,Guadalupe Silva,Venus,91.81,,,,,Single-ply,SBD,M
Boys,109.77,1,Victor Mejia,Waxahachie,108.14,258.55,147.42,249.48,655.44,Single-ply,SBD,M
Boys,109.77,2,Michael Clift,Venus,101.24,263.08,163.29,210.92,637.3,Single-ply,SBD,M
Boys,109.77,3,Leal Sample,Scurry-Rosser,106.59,222.26,154.22,235.87,612.35,Single-ply,SBD,M
Boys,109.77,4,Michael Padgett,Troy,106.78,240.4,158.76,192.78,591.94,Single-ply,SBD,M
Boys,109.77,5,Javier Alva,Fort Worth North Side,106.05,249.48,115.67,217.72,582.87,Single-ply,SBD,M
Boys,109.77,6,Thomas Hernandez,Troy,104.42,235.87,133.81,192.78,562.45,Single-ply,SBD,M
Boys,109.77,7,Zane Miller,Midlothian,108.23,204.12,138.35,206.38,548.85,Single-ply,SBD,M
Boys,109.77,8,Kimbal Roca,Venus,105.23,219.99,140.61,183.7,544.31,Single-ply,SBD,M
Boys,109.77,9,Lionel Garcia,Eustace,103.69,208.65,124.74,195.04,528.44,Single-ply,SBD,M
Boys,109.77,10,Josh Brown #3,North Crowley,101.51,213.19,120.2,188.24,521.63,Single-ply,SBD,M
Boys,109.77,11,Chauncey Rich,Red Oak Life,103.15,201.85,131.54,188.24,521.63,Single-ply,SBD,M
Boys,109.77,12,Jared Camp,Grandview,105.41,215.46,111.13,188.24,514.83,Single-ply,SBD,M
Boys,109.77,13,Jarrett Gregory,Troy,100.24,206.38,106.59,192.78,505.76,Single-ply,SBD,M
Boys,109.77,14,Kalon Dudley,Midlothian,103.42,183.7,113.4,195.04,492.15,Single-ply,SBD,M
Boys,109.77,15,Chris Robles,Cleburne,106.32,176.9,106.59,192.78,476.27,Single-ply,SBD,M
Boys,109.77,16,Lane Cryer,Scurry-Rosser,106.14,181.44,99.79,181.44,462.66,Single-ply,SBD,M
Boys,124.74,17,Nathan Manure,Corsicana,110,151.95,111.13,158.76,421.84,Single-ply,SBD,M
Boys,109.77,18,Carlos Venegas,Milford,100.43,158.76,92.99,161.03,412.77,Single-ply,SBD,M
Boys,109.77,19,Chris Palmer,Scurry-Rosser,103.24,142.88,68.04,131.54,342.46,Single-ply,SBD,M
Boys,109.77,DQ,Jason Harris,West,107.77,235.87,129.27,,,Single-ply,SBD,M
Boys,109.77,DQ,Dillen Kilpatrick,Fairfield,109.68,294.84,190.51,,,Single-ply,SBD,M
Boys,109.77,DQ,Alejandro Rodriguez,Joshua,100.61,,,,,Single-ply,SBD,M
Boys,109.77,DQ,Tyler Scarborough,Burleson Centennial,108.59,,,,,Single-ply,SBD,M
Boys,109.77,DQ,Joe Kuhn,Burleson Centennial,105.78,,,,,Single-ply,SBD,M
Boys,124.74,1,Matt Gerik,West,113.04,294.84,172.37,226.8,694,Single-ply,SBD,M
Boys,124.74,2,Erik Zavala,Hillsboro,113.4,265.35,140.61,251.74,657.71,Single-ply,SBD,M
Boys,124.74,3,Adrian Zavala,Waxahachie,110.77,215.46,133.81,249.48,598.74,Single-ply,SBD,M
Boys,124.74,4,Justin Self,Northwest Nelson,114.94,231.33,145.15,208.65,585.13,Single-ply,SBD,M
Boys,124.74,5,Da'metrius Webster,Northwest Nelson,112.31,231.33,124.74,204.12,560.19,Single-ply,SBD,M
Boys,124.74,6,Aaron Crosley,Grandview,121.56,201.85,117.93,206.38,526.17,Single-ply,SBD,M
Boys,124.74,7,Armando Martinez,Red Oak,111.95,195.04,124.74,201.85,521.63,Single-ply,SBD,M
Boys,124.74,8,Jeremy Hodowanic,North Forney,118.84,183.7,151.95,181.44,517.1,Single-ply,SBD,M
Boys,124.74,9,Quavon Freeman,North Forney,119.57,204.12,117.93,181.44,503.49,Single-ply,SBD,M
Boys,124.74,10,Alex Velenica,Corsicana,119.66,176.9,115.67,183.7,476.27,Single-ply,SBD,M
Boys,124.74,11,Ceasar Campunzano,Corsicana,112.31,154.22,115.67,165.56,435.45,Single-ply,SBD,M
Boys,124.74,12,Jonathon Seaton,Corsicana,111.77,136.08,86.18,206.38,428.64,Single-ply,SBD,M
Boys,124.74,13,Christian Hill,Lancaster,118.12,120.2,92.99,124.74,337.93,Single-ply,SBD,M
Boys,124.74+,DQ,Markiest Scott,Lancaster,124.83,,,,,Single-ply,SBD,M
Boys,124.74,DQ,Gerald Hatch,Burleson,113.04,,,,,Single-ply,SBD,M
Boys,124.74,DQ,Isaiah Suazo,Burleson Centennial,115.85,,,,,Single-ply,SBD,M
Boys,124.74,DQ,Colton Hostetler,Burleson Centennial,117.3,,,,,Single-ply,SBD,M
Boys,124.74,DQ,Ivan Garciduenas,Burleson Centennial,120.11,,,,,Single-ply,SBD,M
Boys,124.74,DQ,D. Torres,Cedar Hill,118.02,208.65,92.99,,,Single-ply,SBD,M
Boys,124.74+,1,Jermaine Williams,North Forney,140.16,272.16,147.42,265.35,684.92,Single-ply,SBD,M
Boys,124.74+,2,Daniel Ruiz,Corsicana,166.2,244.94,181.44,242.67,669.05,Single-ply,SBD,M
Boys,124.74+,3,Thomas Turner,Waco University,131.09,260.82,154.22,215.46,630.49,Single-ply,SBD,M
Boys,124.74+,4,Robert Brown,North Crowley,157.31,226.8,136.08,238.14,601.01,Single-ply,SBD,M
Boys,124.74+,5,Ryan Burns,Hawley,147.42,215.46,136.08,215.46,566.99,Single-ply,SBD,M
Boys,124.74+,6,Duke Smith,Northwest Nelson,137.35,222.26,136.08,206.38,564.72,Single-ply,SBD,M
Boys,124.74+,7,Jared Sanderson,Midlothian,141.97,242.67,97.52,201.85,542.04,Single-ply,SBD,M
Boys,124.74+,8,Logan Nuss,Alvarado,126.73,215.46,122.47,181.44,519.36,Single-ply,SBD,M
Boys,124.74+,9,Bryce Johnson #1,Alvarado,128.91,204.12,151.95,158.76,514.83,Single-ply,SBD,M
Boys,124.74+,10,Matt Briggs,Justin Northwest,131.09,170.1,122.47,192.78,485.34,Single-ply,SBD,M
Boys,124.74+,11,Mahan Najafabadi,North Crowley,146.42,149.69,124.74,183.7,458.13,Single-ply,SBD,M
Boys,124.74+,DQ,Ellias Williams,Burleson,128.37,,,,,Single-ply,SBD,M
Boys,124.74+,DQ,Josh Collins,Burleson,141.97,,,,,Single-ply,SBD,M
Boys,124.74+,DQ,Ray Winters,Burleson,140.07,,,,,Single-ply,SBD,M
Boys,124.74+,DQ,Daniel Mosely,Burleson Centennial,126.37,,,,,Single-ply,SBD,M
Boys,124.74+,DQ,Hunter Haynes,Fairfield,125.65,210.92,79.38,,,Single-ply,SBD,M
Boys,124.74+,DQ,Jessie Wilson,Whitney,152.86,294.84,,,,Single-ply,SBD,M
Boys,,NS,Dalton Aguilar,Whitney,,,,,,Single-ply,SBD,M
Boys,,NS,Carter Brigman,Waxahachie,,,,,,Single-ply,SBD,M
Boys,,NS,Ryan Robb,Whitney,,,,,,Single-ply,SBD,M
Boys,,NS,Andre Davis,North Forney,,,,,,Single-ply,SBD,M
Boys,,NS,Norris Floyd,North Forney,,,,,,Single-ply,SBD,M
Boys,,NS,Devon Harris,North Forney,,,,,,Single-ply,SBD,M
Boys,,NS,Martin Bruich,Waco Reicher Catholic,,,,,,Single-ply,SBD,M
Boys,,NS,Gabriel Vega,Waco University,,,,,,Single-ply,SBD,M
Boys,,NS,Chriss Woods,Waxahachie,,,,,,Single-ply,SBD,M
Boys,,NS,Dalton Wiethorn,West,,,,,,Single-ply,SBD,M
Boys,,NS,Colt Simmons,West,,,,,,Single-ply,SBD,M
Boys,,NS,Logon Willenborg,West,,,,,,Single-ply,SBD,M
Boys,,NS,Tyler Pustejovsky,West,,,,,,Single-ply,SBD,M
Boys,,NS,Jaden Beck,Troy,,,,,,Single-ply,SBD,M
Boys,,NS,Nic Welsch,Troy,,,,,,Single-ply,SBD,M
Boys,,NS,Spencer Majors,Waco University,,,,,,Single-ply,SBD,M
Boys,,NS,Tielar Richardson,North Crowley,,,,,,Single-ply,SBD,M
Boys,,NS,Hector Perez,Palmer,,,,,,Single-ply,SBD,M
Boys,,NS,Orlando Martinez,Red Oak,,,,,,Single-ply,SBD,M
Boys,,NS,Mary Cruz,Palmer,,,,,,Single-ply,SBD,M
Boys,,NS,Garrett Huff,Scurry-Rosser,,,,,,Single-ply,SBD,M
Boys,,NS,Dalton Hatcher,Scurry-Rosser,,,,,,Single-ply,SBD,M
Boys,,NS,Jayson Day,Scurry-Rosser,,,,,,Single-ply,SBD,M
Boys,,NS,Seth Solis,Troy,,,,,,Single-ply,SBD,M
Boys,,NS,Brian Griffin,Scurry-Rosser,,,,,,Single-ply,SBD,M
Boys,,NS,Jordan McQuistion,Rio Vista,,,,,,Single-ply,SBD,M
Boys,,NS,Mason Walker,Midlothian,,,,,,Single-ply,SBD,M
Boys,,NS,Connor Bristow,Midlothian,,,,,,Single-ply,SBD,M
Boys,,NS,Woody Thompson,Maypearl,,,,,,Single-ply,SBD,M
Boys,,NS,Drake Hendryx,Maypearl,,,,,,Single-ply,SBD,M
Boys,,NS,Matt Roberson,Maypearl,,,,,,Single-ply,SBD,M
Boys,,NS,Adrian Ojeda,Milford,,,,,,Single-ply,SBD,M
Boys,,NS,Miguel Munoz,Milford,,,,,,Single-ply,SBD,M
Boys,,NS,Tim Chambers,North Crowley,,,,,,Single-ply,SBD,M
Boys,,NS,Dez Haynes,North Crowley,,,,,,Single-ply,SBD,M
Boys,,NS,Armando Morones,Ferris,,,,,,Single-ply,SBD,M
Boys,,NS,Jonathon Estrada,Corsicana,,,,,,Single-ply,SBD,M
Boys,,NS,Julio Fantano,Corsicana,,,,,,Single-ply,SBD,M
Boys,,NS,John Hoover,Burleson,,,,,,Single-ply,SBD,M
Boys,,NS,Elias Williams,Burleson,,,,,,Single-ply,SBD,M
Boys,,NS,Brandon Cross,Alvarado,,,,,,Single-ply,SBD,M
Boys,,NS,Seth White,Alvarado,,,,,,Single-ply,SBD,M
Boys,,NS,Steven Gideon,Alvarado,,,,,,Single-ply,SBD,M
Boys,,NS,Silas McClatchey,Alvarado,,,,,,Single-ply,SBD,M
Boys,,NS,Chase Lordi,Cleburne,,,,,,Single-ply,SBD,M
Boys,,NS,Dakota Runnels,Cleburne,,,,,,Single-ply,SBD,M
Boys,,NS,Mario Ponce,Cleburne,,,,,,Single-ply,SBD,M
Boys,,NS,Nathaniel Hudson,Cleburne,,,,,,Single-ply,SBD,M
Boys,,NS,Jorge Hernandez,Cleburne,,,,,,Single-ply,SBD,M
Boys,,NS,Brian Taylor,Lancaster,,,,,,Single-ply,SBD,M
Boys,,NS,Justin Cook,Lancaster,,,,,,Single-ply,SBD,M
Boys,,NS,Reginald Dixon,Lancaster,,,,,,Single-ply,SBD,M
Boys,,NS,Shannon Simpson,Lancaster,,,,,,Single-ply,SBD,M
Boys,,NS,Raiquan Bennett,Lancaster,,,,,,Single-ply,SBD,M
Boys,,NS,Pearce Flemins,Maypearl,,,,,,Single-ply,SBD,M
Boys,,NS,Abraham Beam,Maypearl,,,,,,Single-ply,SBD,M
Boys,,NS,Colton Boyd,Justin Northwest,,,,,,Single-ply,SBD,M
Boys,,NS,Justin Miller,Joshua,,,,,,Single-ply,SBD,M
Boys,,NS,Dayne Maclin,Justin Northwest,,,,,,Single-ply,SBD,M
Boys,,NS,Joe Gonzales,Justin Northwest,,,,,,Single-ply,SBD,M
Boys,,NS,Sir Charles Miles-Frost,Lancaster,,,,,,Single-ply,SBD,M
Boys,,NS,Ahndre Hughes,Lancaster,,,,,,Single-ply,SBD,M
Boys,,NS,Dj Davis,Hawley,,,,,,Single-ply,SBD,M
Boys,,NS,Lane Pickett,Hawley,,,,,,Single-ply,SBD,M
Boys,,NS,Octavia Velasco,Ferris,,,,,,Single-ply,SBD,M
Boys,,NS,Max Driscoll,Godley,,,,,,Single-ply,SBD,M
Boys,,NS,Rafeal Castaneda,Hillsboro,,,,,,Single-ply,SBD,M
Boys,,NS,Shad Newman,Italy,,,,,,Single-ply,SBD,M
Boys,,NS,Kyle Fortenberry,Italy,,,,,,Single-ply,SBD,M
Boys,,NS,Aaron Campbell,Joshua,,,,,,Single-ply,SBD,M
Boys,,NS,Joseph Donnelly,Hawley,,,,,,Single-ply,SBD,M
Boys,,NS,Christian Farrell,Hawley,,,,,,Single-ply,SBD,M
Boys,,NS,Sid Irwin,Burleson Centennial,,,,,,Single-ply,SBD,M
Boys,,NS,Tc Quintana,Burleson Centennial,,,,,,Single-ply,SBD,M
