Name,Age,Sex,Equipment,Division,BodyweightKg,WeightClassKg,Squat1Kg,Squat2Kg,Squat3Kg,Squat4Kg,Best3SquatKg,Bench1Kg,Bench2Kg,Bench3Kg,Best3BenchKg,Deadlift1Kg,Deadlift2Kg,Deadlift3Kg,Deadlift4Kg,Best3DeadliftKg,TotalKg,Place,Team,Event,BirthDate
Angelina Predojevic,15,F,Wraps,F-T1-R,53,56,35,40,45,,45,22.5,27.5,-30,27.5,55,67.5,70,70.5,70,142.5,1,SNP,SBD,
Natalie Hill,15,F,Wraps,F-T1-R,75,75,42.5,52.5,62.5,,62.5,25,32.5,-40,32.5,22.5,77.5,95,,95,190,1,SNP,SBD,
Mya Rowe Ferguson,15,F,Wraps,F-T1-R,116.5,90+,35,40,50,,50,32.5,37.5,47.5,47.5,70,77.5,95,,95,192.5,1,SNP,SBD,
Emily Evans,16,F,Wraps,F-T2-R,53.7,56,30,-35,-40,,30,20,-27.5,-27.5,20,57.5,70,80,,80,130,1,RCSS,SBD,
Hoa Nguyen,17,F,Wraps,F-T2-R,66.7,67.5,55,62.5,70,,70,-30,32.5,-40,32.5,100,112.5,115,,115,217.5,1,Rick Hansen SS,SBD,
Veronica Sanchez,17,F,Wraps,F-T2-R,68.1,75,30,35,40,,40,25,27.5,32.5,32.5,52.5,60,67.5,,67.5,140,1,RCSS,SBD,
Amna Elhassan,16,F,Wraps,F-T2-R,85,90,-52.5,52.5,-70,,52.5,32.5,37.5,42.5,42.5,80,87.5,-92.5,,87.5,182.5,1,Rick Hansen SS,SBD,
Darren Mangal,15,M,Wraps,M-T1-R,68.1,75,-72.5,-72.5,75,,75,65,70,77.5,77.5,77.5,82.5,-97.5,,82.5,235,1,Rick Hansen SS,SBD,
Nicodemus Allan,15,M,Wraps,M-T1-R,95,100,-52.5,60,72.5,,72.5,42.5,55,57.5,57.5,90,117.5,127.5,,127.5,257.5,1,SNP,SBD,
Jake Steinman,15,M,Wraps,M-T1-R,127.5,125+,-112.5,125,137.5,,137.5,80,90,92.5,92.5,110,122.5,145,,145,375,1,SMH,SBD,
Braden Thomas,15,M,Wraps,M-T1-R,135.5,125+,95,117.5,130,,130,60,80,87.5,87.5,95,132.5,-152.5,,132.5,350,2,SNP,SBD,
Paul Toma,16,M,Wraps,M-T2-R,55,56,85,90,-92.5,,90,60,-62.5,62.5,62.5,120,125,,,125,277.5,1,SDCSS,SBD,
Christian Cruz,17,M,Wraps,M-T2-R,59,60,85,92.5,102.5,,102.5,62.5,70,-72.5,70,125,137.5,147.5,150,147.5,320,1,SDCSS,SBD,
Eddy Garcia,16,M,Wraps,M-T2-R,56.8,60,55,70,85,90.5,85,47.5,55,-67.5,55,80,102.5,115,,115,255,2,Huron Heights SS,SBD,
Raaj Dudani,16,M,Wraps,M-T2-R,62,67.5,72.5,85,-92.5,,85,57.5,62.5,-65,62.5,125,140,-152.5,,140,287.5,1,Rick Hansen SS,SBD,
Mitchell Browning,17,M,Wraps,M-T2-R,72.5,75,-160,172.5,182.5,,182.5,-112.5,-115,115,115,197.5,207.5,-215,,207.5,505,1,Huron Heights SS,SBD,
Matthew Weber,17,M,Wraps,M-T2-R,73.5,75,105,117.5,132.5,,132.5,80,90,-95,90,137.5,152.5,170,,170,392.5,2,SMH,SBD,
Anthony Ilie,16,M,Wraps,M-T2-R,70.7,75,85,92.5,-105,,92.5,62.5,67.5,-82.5,67.5,92.5,102.5,120,,120,280,3,SDCSS,SBD,
Tim Siembida,16,M,Wraps,M-T2-R,77.5,82.5,100,110,120,,120,70,77.5,85,85,130,137.5,145,,145,350,1,SMH,SBD,
Dion Grobe,17,M,Wraps,M-T2-R,82.7,90,125,-140,145,,145,92.5,97.5,-102.5,97.5,170,180,-185,,180,422.5,1,SDCSS,SBD,
Ethan Wadel,16,M,Wraps,M-T2-R,89.9,90,70,112.5,117.5,,117.5,70,-80,82.5,82.5,145,165,-180,,165,365,2,RCSS,SBD,
Demetre Koudoumankis,16,M,Wraps,M-T2-R,86.9,90,-85,92.5,105,,105,85,-92.5,-92.5,85,112.5,125,137.5,,137.5,327.5,3,Rick Hansen SS,SBD,
Clement Hartadi,17,M,Wraps,M-T2-R,85,90,52.5,72.5,-110,,72.5,30,52.5,-62.5,52.5,52.5,90,115,,115,240,4,SDCSS,SBD,
Nuri Wennekers,17,M,Wraps,M-T2-R,102.6,110,125,135,150,,150,90,110,-115,110,175,185,190,,190,450,1,Stephen Lewis SS,SBD,
Joshua Rice,18,M,Wraps,M-T3-R,81.7,82.5,165,183,,,183,92.5,107.5,,107.5,205,217.5,227.5,,227.5,518,1,Country Day,SBD,
Sam Weber,18,M,Wraps,M-T3-R,79.4,82.5,102.5,110,122.5,,122.5,80,82.5,-92.5,82.5,140,147.5,162.5,,162.5,367.5,2,SDCSS,SBD,
Parker Boyd,19,M,Wraps,M-T3-R,132.7,125+,227.5,237.5,252.5,,252.5,130,137.5,145,145,265,272.5,-280,,272.5,670,1,RCSS,SBD,
