Name,WeightClassKg,Division,Sex,Best3SquatKg,Best3BenchKg,Best3DeadliftKg,TotalKg,Event,Equipment,Place
E. Butler,60,Natural,M,170,97.5,215,482.5,SBD,Single-ply,1
J. Rod,67.5,Natural,M,195,110,230,535,SBD,Single-ply,1
M. Quinn,67.5,Natural,M,172.5,105,227.5,505,SBD,Single-ply,2
C. Childers,67.5,Natural,M,155,97.5,185,437.5,SBD,Single-ply,3
C. Mays,67.5,Natural,M,,,,,SBD,Single-ply,DQ
M. Butler,75,Natural,M,227.5,125,245,597.5,SBD,Single-ply,1
S. Scott,75,Natural,M,195,127.5,220,542.5,SBD,Single-ply,2
T. Kelting,75,Natural,M,170,120,210,500,SBD,Single-ply,3
S. Terry,82.5,Natural,M,272.5,150,250,672.5,SBD,Single-ply,1
B. Lewis,82.5,Natural,M,252.5,157.5,240,650,SBD,Single-ply,2
S. Woods,82.5,Natural,M,215,152.5,267.5,635,SBD,Single-ply,3
B. Boyd,82.5,Natural,M,217.5,140,260,617.5,SBD,Single-ply,4
R. Harrison,82.5,Natural,M,200,157.5,212.5,570,SBD,Single-ply,5
J. Messiah,82.5,Natural,M,217.5,125,217.5,560,SBD,Single-ply,6
C. Parham,82.5,Natural,M,182.5,107.5,210,500,SBD,Single-ply,7
Mike Magee,90,Natural,M,307.5,175,290,772.5,SBD,Single-ply,1
D. Scott,90,Natural,M,250,155,267.5,672.5,SBD,Single-ply,2
C. Brooks,90,Natural,M,220,145,230,595,SBD,Single-ply,3
C. Hulslander,90,Natural,M,217.5,145,207.5,570,SBD,Single-ply,4
R. Taptto,90,Natural,M,220,120,217.5,557.5,SBD,Single-ply,5
J. Flowers,100,Natural,M,282.5,147.5,242.5,672.5,SBD,Single-ply,1
J. Buben,100,Natural,M,260,145,262.5,667.5,SBD,Single-ply,2
D. Wilbur,125,Natural,M,205,125,210,540,SBD,Single-ply,1
A. Thomas,125,Natural,M,,,,,SBD,Single-ply,DQ
A. Napal,52,Open,F,115,67.5,137.5,320,SBD,Single-ply,1
L. Mitchell,56,Open,F,85,57.5,105,247.5,SBD,Single-ply,1
K. Stathos,60,Open,F,107.5,47.5,120,275,SBD,Single-ply,1
J. Knott,67.5,Below Class II,M,175,130,192.5,497.5,SBD,Single-ply,1
L. Schwartz,67.5,Below Class II,M,180,130,167.5,477.5,SBD,Single-ply,2
G. Childers,67.5,Below Class II,M,155,97.5,185,437.5,SBD,Single-ply,3
E. Vaughn,75,Below Class II,M,222.5,157.5,227.5,607.5,SBD,Single-ply,1
J. Detwieler,75,Below Class II,M,215,132.5,210,557.5,SBD,Single-ply,2
M. Seiler,75,Below Class II,M,182.5,147.5,197.5,527.5,SBD,Single-ply,3
T. Kelting,75,Below Class II,M,170,120,210,500,SBD,Single-ply,4
K. Price,82.5,Below Class II,M,260,140,242.5,642.5,SBD,Single-ply,1
D. Presgrove,82.5,Below Class II,M,235,132.5,227.5,595,SBD,Single-ply,2
J. McMurtey,82.5,Below Class II,M,145,105,170,420,SBD,Single-ply,3
R. Poccino,90,Below Class II,M,210,142.5,237.5,590,SBD,Single-ply,1
J. Crenshaw,90,Below Class II,M,205,140,235,580,SBD,Single-ply,2
C. Hulslander,90,Below Class II,M,217.5,145,207.5,570,SBD,Single-ply,3
A. Quinn,90,Below Class II,M,227.5,142.5,182.5,552.5,SBD,Single-ply,4
J. Toland,90,Below Class II,M,210,135,,,SBD,Single-ply,DQ
T. Kreigh,100,Below Class II,M,230,155,275,660,SBD,Single-ply,1
D. Fisher,110,Below Class II,M,317.5,202.5,265,785,SBD,Single-ply,1
H. Bailey,110,Below Class II,M,247.5,147.5,262.5,657.5,SBD,Single-ply,2
R. Ritter,110,Below Class II,M,220,162.5,237.5,620,SBD,Single-ply,3
J. Slayton,125,Below Class II,M,250,157.5,267.5,675,SBD,Single-ply,1
M. Dills,125,Below Class II,M,237.5,142.5,242.5,622.5,SBD,Single-ply,2
D. Jones,82.5,Masters,M,290,132.5,260,682.5,SBD,Single-ply,1
R. Little,82.5,Masters,M,217.5,160,215,592.5,SBD,Single-ply,2
J. Farnam,82.5,Masters,M,197.5,,,,SBD,Single-ply,DQ
B. Atkinson,100,Masters,M,162.5,137.5,235,535,SBD,Single-ply,1
R. Ritter,110,Masters,M,220,162.5,237.5,620,SBD,Single-ply,1
A. Warner,110,Masters,M,190,120,242.5,552.5,SBD,Single-ply,2
B. Blevins,60,Open,M,190,110,227.5,527.5,SBD,Single-ply,1
D. Black,60,Open,M,150,115,190,455,SBD,Single-ply,2
G. Childers,67.5,Open,M,155,97.5,185,437.5,SBD,Single-ply,1
G. Mays,67.5,Open,M,,,,,SBD,Single-ply,DQ
J. Todd,67.5,Open,M,,,,,SBD,Single-ply,DQ
Rickey Dale Crain,75,Open,M,332.5,182.5,310,825,SBD,Single-ply,1
E. Vaughn,75,Open,M,222.5,157.5,227.5,607.5,SBD,Single-ply,2
S. Auld,82.5,Open,M,307.5,147.5,287.5,742.5,SBD,Single-ply,1
D. Jones,82.5,Open,M,290,132.5,260,682.5,SBD,Single-ply,2
K. Price,82.5,Open,M,260,140,242.5,642.5,SBD,Single-ply,3
M. Baker,90,Open,M,320,202.5,292.5,815,SBD,Single-ply,1
D. Berry,100,Open,M,370,185,320,875,SBD,Single-ply,1
G. Evans,100,Open,M,312.5,195,290,797.5,SBD,Single-ply,2
D. Willingham,100,Open,M,312.5,187.5,277.5,777.5,SBD,Single-ply,3
M. Tolbert,100,Open,M,287.5,195,262.5,745,SBD,Single-ply,4
M. Bossa,100,Open,M,,,,,SBD,Single-ply,DQ
Danny Burton,110,Open,M,365,205,295,865,SBD,Single-ply,1
R. Cantrell,110,Open,M,305,195,310,810,SBD,Single-ply,2
Steve Rodenberg,110,Open,M,290,195,295,780,SBD,Single-ply,3
B. Blake,110,Open,M,285,182.5,285,752.5,SBD,Single-ply,4
K. Burton,110,Open,M,262.5,170,272.5,705,SBD,Single-ply,5
Dennis Brooks,125,Open,M,385,220,352.5,957.5,SBD,Single-ply,1
M. Dills,125,Open,M,237.5,142.5,242.5,622.5,SBD,Single-ply,2
K. Ingram,125+,Open,M,265,127.5,237.5,630,SBD,Single-ply,1
B. Hawkins,52,Teen,M,90,55,117.5,262.5,SBD,Single-ply,1
E. Witt,60,Teen,M,165,95,165,425,SBD,Single-ply,1
R. Webb,60,Teen,M,142.5,100,175,417.5,SBD,Single-ply,2
T. Hoynh,60,Teen,M,112.5,75,140,327.5,SBD,Single-ply,3
D. Holloway,67.5,Teen,M,115,65,130,310,SBD,Single-ply,1
C. Stout Jr,67.5,Teen,M,,,,,SBD,Single-ply,DQ
T. Silver,75,Teen,M,195,120,205,520,SBD,Single-ply,1
C. Smith,75,Teen,M,195,112.5,180,487.5,SBD,Single-ply,2
J. Jordan,82.5,Teen,M,222.5,127.5,235,585,SBD,Single-ply,1
J. Stuart,82.5,Teen,M,,,,,SBD,Single-ply,DQ
K. Wickliffe,82.5,Teen,M,,,,,SBD,Single-ply,DQ
S. Kissinger,90,Teen,M,252.5,175,267.5,695,SBD,Single-ply,1
T. Looney,90,Teen,M,250,137.5,242.5,630,SBD,Single-ply,2
B. Briggs,90,Teen,M,170,120,227.5,517.5,SBD,Single-ply,3
S. Tolbert,90,Teen,M,185,110,192.5,487.5,SBD,Single-ply,4
E. Thompson,90,Teen,M,162.5,112.5,192.5,467.5,SBD,Single-ply,5
S. Grimes,100,Teen,M,320,185,267.5,772.5,SBD,Single-ply,1
J. Rauh,100,Teen,M,175,107.5,200,482.5,SBD,Single-ply,2
J. Silver,100,Teen,M,117.5,70,135,322.5,SBD,Single-ply,3
R. Sissney,125,Teen,M,200,142.5,202.5,545,SBD,Single-ply,1
J. Chermack,125,Teen,M,,,,,SBD,Single-ply,DQ
Kevin Fertic,125+,Teen,M,275,220,277.5,772.5,SBD,Single-ply,1
