Division,WeightClassKg,Place,Name,Team,BodyweightKg,Best3SquatKg,Best3BenchKg,Best3DeadliftKg,TotalKg,Equipment,Event,Sex
Boys,55.79,1,Alex Wright,Killeen Harker Heights,51.94,147.42,86.18,154.22,387.82,Single-ply,SBD,M
Boys,51.71,2,Gabe Senegal,Little River Academy,51.62,92.99,77.11,142.88,312.98,Single-ply,SBD,M
Boys,51.71,3,Tanner Blackwell,Gatesville,51.71,115.67,65.77,120.2,301.64,Single-ply,SBD,M
Boys,55.79,4,Aaron Terry,College Station A&M Cons,51.8,106.59,58.97,131.54,297.1,Single-ply,SBD,M
Boys,51.71,5,Clayton Moore,Granger,49.26,90.72,54.43,104.33,249.48,Single-ply,SBD,M
Boys,51.71,6,Bryan Martinez,Taylor,44.91,92.99,38.56,92.99,224.53,Single-ply,SBD,M
Boys,51.71,7,Bj Byers,Little River Academy,50.98,72.57,52.16,95.25,219.99,Single-ply,SBD,M
Boys,51.71,8,Gunner Gardner,Granger,45.45,68.04,38.56,81.65,188.24,Single-ply,SBD,M
Boys,55.79,1,Michael McIntire,Taylor,55.79,183.7,102.06,154.22,439.98,Single-ply,SBD,M
Boys,55.79,2,Codie Hall,Taylor,55.7,151.95,65.77,151.95,369.68,Single-ply,SBD,M
Boys,55.79,3,Josh McCraw,Gatesville,55.16,136.08,77.11,136.08,349.27,Single-ply,SBD,M
Boys,55.79,4,Jeremy Gamel,Pflugerville Hendrickson,55.61,124.74,61.23,142.88,328.85,Single-ply,SBD,M
Boys,59.87,5,Brandon Negus,Taylor,55.97,115.67,65.77,142.88,324.32,Single-ply,SBD,M
Boys,55.79,6,Eric Bond,Bastrop,55.52,106.59,70.31,120.2,297.1,Single-ply,SBD,M
Boys,55.79,DQ,Jae Lim,Killeen Harker Heights,55.79,,,,,Single-ply,SBD,M
Boys,55.79,DQ,Adrian Armstrong,Killeen Harker Heights,55.79,,,,,Single-ply,SBD,M
Boys,59.87,1,Zerrick Merchant,College Station A&M Cons,59.87,156.49,95.25,181.44,433.18,Single-ply,SBD,M
Boys,59.87,2,David Salazar,Taylor,59.87,149.69,83.91,163.29,396.89,Single-ply,SBD,M
Boys,67.13,3,Lorenzo Lizardo,Granger,60.06,142.88,90.72,124.74,358.34,Single-ply,SBD,M
Boys,59.87,4,Max Dayton,Bastrop,59.87,104.33,65.77,133.81,303.91,Single-ply,SBD,M
Boys,59.87,5,Jesse Gagno,Austin Bowie,56.52,63.5,56.7,95.25,215.46,Single-ply,SBD,M
Boys,59.87,6,Izaac Leal,Thrall,57.15,70.31,52.16,88.45,210.92,Single-ply,SBD,M
Boys,59.87,DQ,Andrew Peterson,Bastrop,59.51,,,,,Single-ply,SBD,M
Boys,59.87,DQ,Dominic Matthews,Killeen Shoemaker,58.06,,,,,Single-ply,SBD,M
Boys,59.87,DQ,Steven Cruz,Pflugerville Hendrickson,59.87,,,,,Single-ply,SBD,M
Boys,74.84,1,Simon Martinez,Taylor,67.31,224.53,136.08,208.65,569.26,Single-ply,SBD,M
Boys,67.13,2,Josefas Martinez,Round Rock,65.5,204.12,106.59,185.97,496.68,Single-ply,SBD,M
Boys,67.13,3,William Robinson,Round Rock,64.77,185.97,102.06,183.7,471.74,Single-ply,SBD,M
Boys,74.84,4,Andrew Aleman,Granger,67.31,181.44,97.52,172.37,451.32,Single-ply,SBD,M
Boys,67.13,5,Riley Martinez,College Station A&M Cons,66.22,170.1,95.25,167.83,433.18,Single-ply,SBD,M
Boys,74.84,6,Royal Lucas,Taylor,67.22,161.03,88.45,183.7,433.18,Single-ply,SBD,M
Boys,67.13,7,Marcus Reed,Bastrop,65.86,154.22,99.79,174.63,428.64,Single-ply,SBD,M
Boys,67.13,8,Rodney Ross,Taylor,66.59,161.03,83.91,165.56,410.5,Single-ply,SBD,M
Boys,67.13,9,Greg Haynes,Killeen Harker Heights,63.14,158.76,81.65,167.83,408.23,Single-ply,SBD,M
Boys,67.13,10,Jonathon Flores,Taylor,67.13,170.1,90.72,147.42,408.23,Single-ply,SBD,M
Boys,74.84,11,Taurean Lawson,Bryan Rudder,67.22,142.88,102.06,149.69,394.63,Single-ply,SBD,M
Boys,74.84,12,Trevor Jones,Dripping Springs,67.22,129.27,88.45,170.1,387.82,Single-ply,SBD,M
Boys,67.13,13,Emilio Olivarez,Elgin,62.32,147.42,79.38,154.22,381.02,Single-ply,SBD,M
Boys,67.13,14,Marquel Davis,Manor,66.32,122.47,83.91,174.63,381.02,Single-ply,SBD,M
Boys,67.13,15,Javier Armador,Bastrop,66.13,147.42,79.38,149.69,376.48,Single-ply,SBD,M
Boys,67.13,16,Jarod Cummings,Thrall,66.95,136.08,74.84,163.29,374.21,Single-ply,SBD,M
Boys,67.13,17,Mareck Garcia,Austin Bowie,62.41,140.61,77.11,151.95,369.68,Single-ply,SBD,M
Boys,74.84,18,Quinton Baker,Manor,67.31,127.01,81.65,154.22,362.87,Single-ply,SBD,M
Boys,67.13,19,Luke Wells,Pflugerville Hendrickson,65.95,129.27,72.57,151.95,353.8,Single-ply,SBD,M
Boys,67.13,20,Steven Reyes,Taylor,67.13,115.67,79.38,145.15,340.19,Single-ply,SBD,M
Boys,67.13,21,Michael Pena,Elgin,63.82,117.93,83.91,136.08,337.93,Single-ply,SBD,M
Boys,67.13,22,Trevon Pradia,Manor,64.5,108.86,70.31,138.35,317.51,Single-ply,SBD,M
Boys,67.13,23,Jay Anderson,Granger,65.77,120.2,68.04,129.27,317.51,Single-ply,SBD,M
Boys,67.13,24,Kevin Reed,Marble Falls,66.5,117.93,72.57,127.01,317.51,Single-ply,SBD,M
Boys,74.84,25,Justin Stautz,Thrall,67.31,108.86,70.31,129.27,308.44,Single-ply,SBD,M
Boys,67.13,26,Kyle Adair,Dripping Springs,64.05,111.13,61.23,129.27,301.64,Single-ply,SBD,M
Boys,67.13,27,Shaquille Roberts,Manor,60.69,95.25,65.77,113.4,274.42,Single-ply,SBD,M
Boys,67.13,28,Tanner Nelson,Bastrop,61.05,108.86,52.16,113.4,274.42,Single-ply,SBD,M
Boys,67.13,29,Bryson Davis,Manor,61.69,95.25,45.36,127.01,267.62,Single-ply,SBD,M
Boys,67.13,DQ,Pedro Juarez,Granger,64.5,,,,,Single-ply,SBD,M
Boys,67.13,DQ,Brandon Gonzalez,Bastrop,67.04,,,,,Single-ply,SBD,M
Boys,67.13,DQ,Cj Bills,Bryan Rudder,65.5,124.74,,,,Single-ply,SBD,M
Boys,67.13,DQ,Marvin Jackson,Killeen Harker Heights,67.13,,,,,Single-ply,SBD,M
Boys,67.13,DQ,Andre McShan,Killeen Shoemaker,66.68,,,,,Single-ply,SBD,M
Boys,67.13,DQ,Felix Morales,Killeen Shoemaker,64.41,,,,,Single-ply,SBD,M
Boys,67.13,DQ,Tyler Lanny,Killeen Harker Heights,67.13,,,,,Single-ply,SBD,M
Boys,67.13,DQ,Chris Brogden,Thrall,67.13,,,,,Single-ply,SBD,M
Boys,74.84,1,Cedrick McCan,College Station A&M Cons,72.57,192.78,106.59,219.99,519.36,Single-ply,SBD,M
Boys,74.84,2,Omar Pereyra,Dripping Springs,73.75,179.17,111.13,195.04,485.34,Single-ply,SBD,M
Boys,74.84,3,Greg Wnek,Elgin,74.03,174.63,99.79,206.38,480.81,Single-ply,SBD,M
Boys,74.84,4,Mike Jones #15,Elgin,74.03,190.51,104.33,183.7,478.54,Single-ply,SBD,M
Boys,74.84,5,Kalen Fontenette,Pflugerville Hendrickson,74.12,176.9,102.06,170.1,449.06,Single-ply,SBD,M
Boys,74.84,6,Jonathan Hernandez,Taylor,73.94,161.03,129.27,142.88,433.18,Single-ply,SBD,M
Boys,74.84,7,Romel Watkins,Pflugerville Hendrickson,74.03,165.56,92.99,165.56,424.11,Single-ply,SBD,M
Boys,74.84,8,David Burns,Dripping Springs,73.48,142.88,83.91,142.88,369.68,Single-ply,SBD,M
Boys,74.84,9,Sergio Vargas,Bryan Rudder,74.39,136.08,81.65,151.95,369.68,Single-ply,SBD,M
Boys,74.84,10,Travis Semmel,Gatesville,69.94,136.08,79.38,136.08,351.53,Single-ply,SBD,M
Boys,74.84,DQ,Dylan Barbiaux,Granger,72.57,,,,,Single-ply,SBD,M
Boys,74.84,DQ,Josh Arraiza,Marble Falls,74.84,,,,,Single-ply,SBD,M
Boys,74.84,DQ,Chris Ramos,Killeen Shoemaker,72.57,,,,,Single-ply,SBD,M
Boys,74.84,DQ,Aaron Beal,Killeen Shoemaker,73.48,,,,,Single-ply,SBD,M
Boys,74.84,DQ,Tim Hollingshed,Killeen Shoemaker,73.48,,,,,Single-ply,SBD,M
Boys,74.84,DQ,Canyon Murrah,Granger,70.76,,,,,Single-ply,SBD,M
Boys,74.84,DQ,Carlos Perez #6,Taylor,74.84,,,,,Single-ply,SBD,M
Boys,82.1,1,Brandon Fisher,Round Rock,79.24,274.42,136.08,240.4,650.91,Single-ply,SBD,M
Boys,82.1,2,Brandon Stautz,Thrall,76.48,222.26,151.95,199.58,573.79,Single-ply,SBD,M
Boys,82.1,3,Marcel Houston,Killeen Harker Heights,80.47,195.04,102.06,204.12,501.22,Single-ply,SBD,M
Boys,82.1,4,Joe Aleman,Round Rock,82.1,208.65,117.93,174.63,501.22,Single-ply,SBD,M
Boys,82.1,5,Dustin McLearen,Gatesville,79.92,170.1,99.79,192.78,462.66,Single-ply,SBD,M
Boys,82.1,6,Ruben Ortega,Marble Falls,77.56,167.83,102.06,181.44,451.32,Single-ply,SBD,M
Boys,82.1,7,Daniel Greene,Pflugerville Hendrickson,81.1,165.56,79.38,174.63,419.57,Single-ply,SBD,M
Boys,82.1,8,Jp Gonzales,Taylor,80.29,142.88,90.72,181.44,415.04,Single-ply,SBD,M
Boys,82.1,9,Garrett Hoover,Pflugerville Hendrickson,80.47,151.95,99.79,147.42,399.16,Single-ply,SBD,M
Boys,82.1,10,Crockett Savage,Marble Falls,79.2,140.61,99.79,154.22,394.63,Single-ply,SBD,M
Boys,82.1,11,Eric Washington,Bryan Rudder,76.66,156.49,79.38,156.49,392.36,Single-ply,SBD,M
Boys,82.1,12,Ryan Mercado,Austin Bowie,82.1,131.54,83.91,158.76,374.21,Single-ply,SBD,M
Boys,82.1,13,Joey Willis,Manor,75.84,147.42,74.84,147.42,369.68,Single-ply,SBD,M
Boys,82.1,14,Tye Woodlock,Gatesville,81.28,129.27,72.57,115.67,317.51,Single-ply,SBD,M
Boys,82.1,DQ,Carone Lloyd,Bryan Rudder,80.1,147.42,,,,Single-ply,SBD,M
Boys,82.1,DQ,Frankie Alvarez,Austin Bowie,79.83,188.24,,,,Single-ply,SBD,M
Boys,82.1,DQ,Eric Vinten,Bastrop,75.66,138.35,,,,Single-ply,SBD,M
Boys,82.1,DQ,Tucker Moon,Little River Academy,80.65,58.97,,,,Single-ply,SBD,M
Boys,82.1,DQ,Lee Young,Little River Academy,80.83,,,,,Single-ply,SBD,M
Boys,82.1,DQ,Vincent Fuller,Killeen Shoemaker,82.1,,,,,Single-ply,SBD,M
Boys,82.1,DQ,Trai Ewings,Killeen Shoemaker,78.02,,,,,Single-ply,SBD,M
Boys,89.81,1,Chris McFarlin,Taylor,83.01,254.01,151.95,235.87,641.83,Single-ply,SBD,M
Boys,89.81,2,Dallas Glass,Elgin,88.9,238.14,147.42,242.67,628.23,Single-ply,SBD,M
Boys,89.81,3,Leo Castro,Elgin,87.18,219.99,142.88,244.94,607.81,Single-ply,SBD,M
Boys,89.81,4,Andrew Mitchell,Marble Falls,88.63,226.8,136.08,233.6,596.47,Single-ply,SBD,M
Boys,89.81,5,Cj Foster,Killeen Harker Heights,83.01,219.99,124.74,,344.73,Single-ply,SB,M
Boys,89.81,DQ,Chris Ceazer,College Station A&M Cons,83.19,,,,,Single-ply,SBD,M
Boys,89.81,7,David Levias,College Station A&M Cons,85.64,190.51,120.2,195.04,505.76,Single-ply,SBD,M
Boys,89.81,8,Wayne Lum,Bastrop,88.27,208.65,111.13,183.7,503.49,Single-ply,SBD,M
Boys,99.79,9,Alex Bogan,Taylor,89.99,188.24,108.86,190.51,487.61,Single-ply,SBD,M
Boys,89.81,10,Kaleb Syring,Dripping Springs,86.77,156.49,106.59,201.85,464.93,Single-ply,SBD,M
Boys,89.81,11,Kevin Abercrombie,Little River Academy,88.72,181.44,102.06,181.44,464.93,Single-ply,SBD,M
Boys,89.81,12,Dominique Green,Manor,87.91,142.88,90.72,183.7,417.3,Single-ply,SBD,M
Boys,89.81,13,Kevin Thornton,Pflugerville Hendrickson,83.37,133.81,72.57,163.29,369.68,Single-ply,SBD,M
Boys,89.81,14,Everett Holloway,Pflugerville Hendrickson,85.64,133.81,88.45,147.42,369.68,Single-ply,SBD,M
Boys,89.81,15,Chandler Mabray,Marble Falls,88.36,136.08,70.31,142.88,349.27,Single-ply,SBD,M
Boys,89.81,16,Ben Bateman,Dripping Springs,83.87,117.93,74.84,117.93,310.71,Single-ply,SBD,M
Boys,89.81,17,Bobby Reed,Gatesville,84.37,90.72,70.31,147.42,308.44,Single-ply,SBD,M
Boys,89.81,DQ,Tycom Wright,Taylor,86.18,,,,,Single-ply,SBD,M
Boys,89.81,DQ,Philip Fitzgerald,Round Rock,85.82,,,,,Single-ply,SBD,M
Boys,89.81,DQ,Alex Cruz,Granger,86.36,181.44,113.4,,,Single-ply,SBD,M
Boys,89.81,DQ,Steven Kittle,Dripping Springs,87.63,,,,,Single-ply,SBD,M
Boys,89.81,DQ,Chris Rodriguez,Bryan Rudder,83.78,,,,,Single-ply,SBD,M
Boys,99.79,DQ,Steven Stewart,Little River Academy,89.9,204.12,,,,Single-ply,SBD,M
Boys,89.81,DQ,Jose Jaimes,Pflugerville Hendrickson,89.81,,,,,Single-ply,SBD,M
Boys,99.79,1,Kelbie Stifflemire,Taylor,95.25,267.62,165.56,226.8,659.98,Single-ply,SBD,M
Boys,99.79,2,Logan Bradshaw,Round Rock,96.8,265.35,136.08,238.14,639.57,Single-ply,SBD,M
Boys,99.79,3,Randall Jones,Elgin,90.81,204.12,129.27,226.8,560.19,Single-ply,SBD,M
Boys,99.79,4,Clinton Banks,College Station A&M Cons,94.08,226.8,117.93,210.92,555.65,Single-ply,SBD,M
Boys,99.79,5,Austin Cash,Elgin,91.58,210.92,113.4,226.8,551.11,Single-ply,SBD,M
Boys,99.79,6,Allah Hicks,Bastrop,96.16,204.12,142.88,192.78,539.77,Single-ply,SBD,M
Boys,99.79,7,Matt Cohan,Bryan Rudder,92.8,181.44,113.4,226.8,521.63,Single-ply,SBD,M
Boys,99.79,8,Matt Meader,Gatesville,93.53,190.51,122.47,206.38,519.36,Single-ply,SBD,M
Boys,99.79,9,Hayden Bell,Elgin,91.53,210.92,108.86,192.78,512.56,Single-ply,SBD,M
Boys,99.79,10,Corben Marroquin,Round Rock,98.7,213.19,102.06,192.78,508.02,Single-ply,SBD,M
Boys,99.79,11,Jacob Gonzales,Granger,95.44,174.63,106.59,199.58,480.81,Single-ply,SBD,M
Boys,99.79,12,Terrence Hall,Manor,98.07,170.1,102.06,183.7,455.86,Single-ply,SBD,M
Boys,99.79,13,Zach Dees,Killeen Harker Heights,91.17,156.49,102.06,190.51,449.06,Single-ply,SBD,M
Boys,99.79,14,Taylor Gregg,Pflugerville Hendrickson,98.61,165.56,86.18,181.44,433.18,Single-ply,SBD,M
Boys,109.77,15,DeAndrea Wheeler,Manor,99.88,165.56,111.13,142.88,419.57,Single-ply,SBD,M
Boys,99.79,16,Adrian Conner,Pflugerville Hendrickson,93.39,127.01,77.11,142.88,347,Single-ply,SBD,M
Boys,99.79,17,Vincent Campuzano,Marble Falls,97.61,115.67,83.91,142.88,342.46,Single-ply,SBD,M
Boys,99.79,18,Ryan Jarosek,Thrall,92.44,120.2,63.5,136.08,319.78,Single-ply,SBD,M
Boys,99.79,19,Cody Carter,Thrall,99.56,108.86,61.23,113.4,283.5,Single-ply,SBD,M
Boys,109.77,DQ,Shane Carter,Pflugerville Hendrickson,100.02,,,,,Single-ply,SBD,M
Boys,99.79,DQ,Edward Barrera,Taylor,98.88,,,,,Single-ply,SBD,M
Boys,99.79,DQ,Xavier Gadlin,Manor,94.89,,,,,Single-ply,SBD,M
Boys,99.79,DQ,Colton Spurlock,Marble Falls,90.72,,,,,Single-ply,SBD,M
Boys,99.79,DQ,Tyler Moon,Little River Academy,99.79,,,,,Single-ply,SBD,M
Boys,99.79,DQ,Victor Irokansi,Pflugerville Hendrickson,99.79,,,,,Single-ply,SBD,M
Boys,99.79,DQ,Aaron Hillburn,Marble Falls,93.89,,,,,Single-ply,SBD,M
Boys,99.79,DQ,Chris Reaves,Marble Falls,91.63,,,,,Single-ply,SBD,M
Boys,99.79,DQ,Devon Moore,Killeen Harker Heights,99.79,,,,,Single-ply,SBD,M
Boys,99.79,DQ,Jose Lerma,Bastrop,99.79,,,,,Single-ply,SBD,M
Boys,109.77,1,Colby Kaasch,Round Rock,108.05,249.48,142.88,217.72,610.08,Single-ply,SBD,M
Boys,109.77,2,Charles Nguyen,Killeen Harker Heights,108.05,240.4,120.2,206.38,566.99,Single-ply,SBD,M
Boys,109.77,3,Dillon Smith,College Station A&M Cons,106.59,231.33,97.52,215.46,544.31,Single-ply,SBD,M
Boys,109.77,4,Ronnie Boatright,Marble Falls,107.14,208.65,120.2,206.38,535.24,Single-ply,SBD,M
Boys,109.77,5,Vincent Martinez,Austin Bowie,105.69,206.38,122.47,199.58,528.44,Single-ply,SBD,M
Boys,109.77,6,Andrew Turnage,Austin Bowie,107.05,210.92,99.79,208.65,519.36,Single-ply,SBD,M
Boys,109.77,7,Urias Martinez,Bastrop,108.41,195.04,117.93,190.51,503.49,Single-ply,SBD,M
Boys,109.77,8,Cody Sisemore,Round Rock,109.77,188.24,106.59,195.04,489.88,Single-ply,SBD,M
Boys,109.77,9,Nick Kosic,Bastrop,103.24,161.03,108.86,172.37,442.25,Single-ply,SBD,M
Boys,109.77,10,Anthony Rivera,Bastrop,105.96,136.08,70.31,151.95,358.34,Single-ply,SBD,M
Boys,109.77,DQ,Keith Orcutt,Little River Academy,109.32,149.69,,,,Single-ply,SBD,M
Boys,109.77,DQ,Dominique Steptoe,Round Rock,102.83,231.33,,,,Single-ply,SBD,M
Boys,109.77,DQ,Dillon Gilmore,Little River Academy,109.77,,,,,Single-ply,SBD,M
Boys,109.77,DQ,Diomonic Crawford,Killeen Shoemaker,109.77,,,,,Single-ply,SBD,M
Boys,124.74,1,Jj Bynum,College Station A&M Cons,119.93,260.82,149.69,244.94,655.44,Single-ply,SBD,M
Boys,124.74,2,Caden Walker,College Station A&M Cons,114.44,229.06,172.37,213.19,614.62,Single-ply,SBD,M
Boys,124.74,3,Nick Cardenas,Austin Bowie,114.31,210.92,108.86,199.58,519.36,Single-ply,SBD,M
Boys,124.74,4,Jacob Shanks,Elgin,124.56,192.78,108.86,215.46,517.1,Single-ply,SBD,M
Boys,124.74,5,Colton Ridley,Gatesville,112.22,204.12,129.27,167.83,501.22,Single-ply,SBD,M
Boys,124.74,6,Carlos Lopez,Manor,112.22,183.7,113.4,183.7,480.81,Single-ply,SBD,M
Boys,124.74,7,Michael Buya,Marble Falls,113.94,165.56,95.25,147.42,408.23,Single-ply,SBD,M
Boys,124.74,8,Junior Quiroz,Gatesville,114.31,145.15,86.18,145.15,376.48,Single-ply,SBD,M
Boys,124.74,9,Justin Burgan,Gatesville,122.88,136.08,90.72,149.69,376.48,Single-ply,SBD,M
Boys,124.74,10,Michael Friga,Dripping Springs,113.22,142.88,77.11,136.08,356.07,Single-ply,SBD,M
Boys,124.74,DQ,Nathan Short,Marble Falls,118.84,,,,,Single-ply,SBD,M
Boys,124.74,DQ,Eric Bland,Killeen Harker Heights,112.04,265.35,,,,Single-ply,SBD,M
Boys,124.74,DQ,Tyrone Newson,Killeen Shoemaker,123.38,,,,,Single-ply,SBD,M
Boys,124.74,DQ,Dominic Chirco,Killeen Shoemaker,114.31,,,,,Single-ply,SBD,M
Boys,124.74,DQ,Travis Sparks,Marble Falls,112.04,,,,,Single-ply,SBD,M
Boys,124.74,DQ,Ryan Atkinson,Marble Falls,115.67,,,,,Single-ply,SBD,M
Boys,124.74,DQ,Angel Munoz,Thrall,124.74,,,,,Single-ply,SBD,M
Boys,124.74+,1,Matt Wilson,Austin Bowie,135.62,272.16,124.74,233.6,630.49,Single-ply,SBD,M
Boys,124.74+,2,DeVontae Robinson,Pflugerville Hendrickson,131.36,240.4,151.95,215.46,607.81,Single-ply,SBD,M
Boys,124.74+,3,Alex Fitzgerald,Round Rock,129.55,235.87,163.29,195.04,594.21,Single-ply,SBD,M
Boys,124.74+,4,Wyatt Smith,College Station A&M Cons,127.73,235.87,156.49,199.58,591.94,Single-ply,SBD,M
Boys,124.74+,5,Cyril Lemon,Marble Falls,144.51,242.67,115.67,233.6,591.94,Single-ply,SBD,M
Boys,124.74+,6,Justin O'Neal,Manor,125.19,183.7,102.06,183.7,469.47,Single-ply,SBD,M
Boys,124.74+,7,Quentin Freeman,Bastrop,135.53,158.76,86.18,129.27,374.21,Single-ply,SBD,M
Boys,124.74+,DQ,Austin Pando,Bastrop,165.65,208.65,120.2,,,Single-ply,SBD,M
Boys,124.74+,DQ,Josh Kapchinsky,Bryan Rudder,163.38,249.48,142.88,,,Single-ply,SBD,M
Boys,124.74+,DQ,Tj Ervin,Manor,133.81,183.7,102.06,,,Single-ply,SBD,M
Boys,124.74+,DQ,Brian Cain,Thrall,134.63,222.26,117.93,,,Single-ply,SBD,M
Boys,124.74+,DQ,Angel Ortiz,Marble Falls,133.81,,,,,Single-ply,SBD,M
Boys,124.74+,DQ,Dalton Terry,Little River Academy,130.63,,,,,Single-ply,SBD,M
