Division,WeightClassKg,Place,Name,Team,BodyweightKg,Best3SquatKg,Best3BenchKg,Best3DeadliftKg,TotalKg,Equipment,Event,Sex
Boys,51.71,1,Joseph Woodyard,Abilene,51.35,72.57,54.43,102.06,229.06,Single-ply,SBD,M
Boys,51.71,2,JJ Galvan,Abilene,51.71,72.57,52.16,99.79,224.53,Single-ply,SBD,M
Boys,51.71,DQ,Zachary Kerley,Abilene Cooper,44.91,,,,,Single-ply,SBD,M
Boys,55.79,1,Canaan Charleston,Clyde,54.25,138.35,79.38,131.54,349.27,Single-ply,SBD,M
Boys,55.79,2,Kaleb Chacon,Merkel,55.79,117.93,72.57,136.08,326.59,Single-ply,SBD,M
Boys,55.79,3,Jacob Renfro,Abilene,55.79,102.06,68.04,120.2,290.3,Single-ply,SBD,M
Boys,55.79,4,Don Bridges,Tuscola Jim Ned,55.7,88.45,52.16,115.67,256.28,Single-ply,SBD,M
Boys,55.79,DQ,Emilio Fernandez,Abilene Cooper,53.52,,,,,Single-ply,SBD,M
Boys,55.79,DQ,Christian Martin,Abilene Cooper,54.88,102.06,,,,Single-ply,SBD,M
Boys,59.87,1,Johnny Donnelly,Hawley,58.97,183.7,99.79,192.78,476.27,Single-ply,SBD,M
Boys,59.87,2,Lleyton Frazier,Tuscola Jim Ned,57.61,133.81,86.18,156.49,376.48,Single-ply,SBD,M
Boys,59.87,3,Riley Perry,Tuscola Jim Ned,58.79,138.35,92.99,145.15,376.48,Single-ply,SBD,M
Boys,59.87,4,Adam Hathaway,Merkel,59.87,115.67,61.23,136.08,312.98,Single-ply,SBD,M
Boys,59.87,5,Nathan Embila,Abilene,58.42,113.4,68.04,117.93,299.37,Single-ply,SBD,M
Boys,59.87,6,Austin Tobar,Abilene Cooper,59.87,108.86,72.57,111.13,292.57,Single-ply,SBD,M
Boys,59.87,7,Blue Reyes,Abilene,59.74,99.79,70.31,120.2,290.3,Single-ply,SBD,M
Boys,59.87,8,Jayton Pimentel,Clyde,58.51,108.86,63.5,102.06,274.42,Single-ply,SBD,M
Boys,59.87,9,Damion Petrillo,Clyde,57.52,92.99,68.04,108.86,269.89,Single-ply,SBD,M
Boys,59.87,DQ,Daelin Campos,Abilene Cooper,57.15,,,,,Single-ply,SBD,M
Boys,59.87,DQ,Michael Torres,Merkel,59.51,106.59,,,,Single-ply,SBD,M
Boys,67.13,1,Jesus Menjivar,Abilene Cooper,63.96,158.76,92.99,170.1,421.84,Single-ply,SBD,M
Boys,67.13,2,Joe Flores,Abilene Cooper,67.13,142.88,83.91,163.29,390.09,Single-ply,SBD,M
Boys,67.13,3,Clayton Sparks,Merkel,65.32,142.88,70.31,147.42,360.61,Single-ply,SBD,M
Boys,67.13,4,Tyler Wilkerson,Clyde,65.77,129.27,79.38,108.86,317.51,Single-ply,SBD,M
Boys,67.13,5,Nick Massey,Merkel,63.96,115.67,72.57,127.01,315.25,Single-ply,SBD,M
Boys,67.13,6,Kirkland Leverett,Abilene,62.05,122.47,65.77,122.47,310.71,Single-ply,SBD,M
Boys,67.13,7,Joe Angel Torres,Abilene,64.95,122.47,70.31,115.67,308.44,Single-ply,SBD,M
Boys,67.13,8,Trevor Wilkerson,Clyde,66.04,127.01,72.57,102.06,301.64,Single-ply,SBD,M
Boys,67.13,9,Mark Leyva,Merkel,60.96,90.72,52.16,124.74,267.62,Single-ply,SBD,M
Boys,67.13,10,Truett Wilkerson,Clyde,65.68,97.52,56.7,111.13,265.35,Single-ply,SBD,M
Boys,67.13,DQ,Rob Young,Tuscola Jim Ned,65.05,147.42,,,,Single-ply,SBD,M
Boys,74.84,1,Rj Hoffman,Clyde,71.58,165.56,90.72,165.56,421.84,Single-ply,SBD,M
Boys,74.84,2,Braden Sigler,Merkel,74.84,142.88,102.06,161.03,405.97,Single-ply,SBD,M
Boys,74.84,3,Blayz Ingle,Clyde,70.67,163.29,81.65,151.95,396.89,Single-ply,SBD,M
Boys,74.84,4,Adam Keidl,Clyde,70.03,120.2,54.43,115.67,290.3,Single-ply,SBD,M
Boys,74.84,5,Eli Batko,Hawley,70.94,56.7,47.63,102.06,206.38,Single-ply,SBD,M
Boys,74.84,DQ,Phonzo Dotson,Abilene,73.94,,,,,Single-ply,SBD,M
Boys,74.84,DQ,Anthony Batrez,Abilene Cooper,68.95,,,,,Single-ply,SBD,M
Boys,74.84,DQ,Dylon Davis,Abilene Cooper,71.67,,,,,Single-ply,SBD,M
Boys,74.84,DQ,Hal Morrison,Hawley,68.13,,,,,Single-ply,SBD,M
Boys,82.1,1,Emile Niyonkuru,Abilene Cooper,77.11,183.7,102.06,190.51,476.27,Single-ply,SBD,M
Boys,82.1,2,Michael Bartlett,Abilene,76.84,170.1,88.45,183.7,442.25,Single-ply,SBD,M
Boys,82.1,3,Zack Yost,Clyde,75.3,158.76,92.99,172.37,424.11,Single-ply,SBD,M
Boys,82.1,4,Xavier Carrillo,Abilene,80.74,163.29,86.18,170.1,419.57,Single-ply,SBD,M
Boys,82.1,5,Warren Pike,Merkel,77.84,156.49,65.77,181.44,403.7,Single-ply,SBD,M
Boys,82.1,6,George Hernandez,Abilene,76.48,151.95,90.72,154.22,396.89,Single-ply,SBD,M
Boys,82.1,7,Robin Tacker,Anson,77.56,102.06,68.04,117.93,288.03,Single-ply,SBD,M
Boys,82.1,8,Dawson Cannon,Clyde,77.2,92.99,63.5,104.33,260.82,Single-ply,SBD,M
Boys,82.1,9,Kobe Martinez,Hawley,76.02,52.16,61.23,90.72,204.12,Single-ply,SBD,M
Boys,82.1,DQ,Elijah Moser,Anson,80.29,,,,,Single-ply,SBD,M
Boys,89.81,1,Donovan Gomez,Clyde,84.64,249.48,124.74,217.72,591.94,Single-ply,SBD,M
Boys,89.81,2,Devin Romero,Abilene,88.09,233.6,115.67,238.14,587.4,Single-ply,SBD,M
Boys,89.81,3,Jacob Turner,Tuscola Jim Ned,89.54,170.1,106.59,199.58,476.27,Single-ply,SBD,M
Boys,89.81,4,Tommy Allmand,Abilene Cooper,85.73,174.63,120.2,165.56,460.4,Single-ply,SBD,M
Boys,89.81,5,Colton Marshall,Hawley,85.82,172.37,106.59,158.76,437.72,Single-ply,SBD,M
Boys,89.81,6,Athen Fish,Clyde,85.46,154.22,95.25,161.03,410.5,Single-ply,SBD,M
Boys,89.81,7,Kanen Herd,Merkel,89.09,124.74,83.91,165.56,374.21,Single-ply,SBD,M
Boys,89.81,8,Will Berry,Abilene,88.9,142.88,83.91,124.74,351.53,Single-ply,SBD,M
Boys,89.81,9,Kyle St John,Anson,88.09,124.74,74.84,133.81,333.39,Single-ply,SBD,M
Boys,89.81,DQ,Morgan Porter,Clyde,89.81,,,,,Single-ply,SBD,M
Boys,89.81,DQ,Jacob Devere,Hawley,86.18,,,,,Single-ply,SBD,M
Boys,89.81,DQ,Arthur Mueillo,Tuscola Jim Ned,89.81,,,,,Single-ply,SBD,M
Boys,99.79,1,Tanner Schnoor,Hawley,97.25,249.48,122.47,249.48,621.42,Single-ply,SBD,M
Boys,99.79,2,Griffin Cooke,Abilene,91.72,183.7,102.06,183.7,469.47,Single-ply,SBD,M
Boys,99.79,3,Harley Ford,Abilene,95.16,183.7,106.59,174.63,464.93,Single-ply,SBD,M
Boys,99.79,4,John Wheeler,Tuscola Jim Ned,94.71,172.37,111.13,176.9,460.4,Single-ply,SBD,M
Boys,99.79,5,Xavier Graves,Abilene,97.43,181.44,102.06,170.1,453.59,Single-ply,SBD,M
Boys,99.79,6,Xavier Jenkins,Abilene Cooper,90.72,158.76,99.79,181.44,439.98,Single-ply,SBD,M
Boys,99.79,7,Kutter McDowell,Clyde,92.08,174.63,104.33,161.03,439.98,Single-ply,SBD,M
Boys,99.79,8,Wyatt Southerland,Abilene,92.35,124.74,68.04,115.67,308.44,Single-ply,SBD,M
Boys,99.79,9,Gustavo Velasquez,Clyde,91.72,102.06,52.16,108.86,263.08,Single-ply,SBD,M
Boys,99.79,DQ,Donnie Brooks,Merkel,99.79,,,,,Single-ply,SBD,M
Boys,109.77,1,Brandon Padilla,Anson,106.41,260.82,131.54,224.53,616.89,Single-ply,SBD,M
Boys,109.77,2,Zack Thompson,Abilene,106.96,215.46,145.15,204.12,564.72,Single-ply,SBD,M
Boys,109.77,3,Colton Grimes,Abilene Cooper,102.97,192.78,115.67,188.24,496.68,Single-ply,SBD,M
Boys,109.77,4,Kolter Willeford,Hawley,106.87,210.92,111.13,170.1,492.15,Single-ply,SBD,M
Boys,109.77,5,Jaxon Smith,Abilene,107.23,192.78,111.13,158.76,462.66,Single-ply,SBD,M
Boys,109.77,6,Triston Patterson,Tuscola Jim Ned,100.88,158.76,102.06,181.44,442.25,Single-ply,SBD,M
Boys,109.77,7,Kade Heatherly,Abilene Cooper,102.51,165.56,92.99,181.44,439.98,Single-ply,SBD,M
Boys,109.77,8,Stedham Buchanan,Clyde,109.59,183.7,102.06,149.69,435.45,Single-ply,SBD,M
Boys,109.77,9,Kade Miller,Tuscola Jim Ned,101.06,142.88,86.18,156.49,385.55,Single-ply,SBD,M
Boys,109.77,10,Thaddeus Hazelwood,Hawley,109.41,113.4,70.31,142.88,326.59,Single-ply,SBD,M
Boys,109.77,DQ,Austin Schoonmaker,Clyde,109.77,,,,,Single-ply,SBD,M
Boys,109.77,DQ,Lucas Gomez,Abilene,107.5,179.17,102.06,,,Single-ply,SBD,M
Boys,124.74,1,Israel DelaCruz,Anson,110.77,206.38,117.93,197.31,521.63,Single-ply,SBD,M
Boys,124.74,2,Bo Thompson,Hawley,113.94,165.56,142.88,204.12,512.56,Single-ply,SBD,M
Boys,124.74,3,Thomas Squyres,Abilene Cooper,120.2,190.51,142.88,174.63,508.02,Single-ply,SBD,M
Boys,124.74,4,Justin Smith,Abilene Cooper,113.85,188.24,102.06,192.78,483.08,Single-ply,SBD,M
Boys,124.74,5,Eddie Hernandez,Anson,115.94,197.31,90.72,192.78,480.81,Single-ply,SBD,M
Boys,124.74,6,CJ Ugalde,Merkel,116.39,190.51,111.13,165.56,467.2,Single-ply,SBD,M
Boys,124.74,7,Lucio Ramirez,Abilene,112.31,204.12,102.06,154.22,460.4,Single-ply,SBD,M
Boys,124.74,8,Matthew Roberts,Abilene,121.56,147.42,74.84,142.88,365.14,Single-ply,SBD,M
Boys,124.74,DQ,Michaelin Toney,Abilene Cooper,111.13,,,,,Single-ply,SBD,M
Boys,124.74,DQ,David Galvan,Anson,123.38,,,,,Single-ply,SBD,M
Boys,124.74,DQ,Anthony Arellano,Abilene Cooper,116.57,,,,,Single-ply,SBD,M
Boys,124.74,DQ,Cole Pendleton,Tuscola Jim Ned,123.38,,,,,Single-ply,SBD,M
Boys,124.74,DQ,Dakota Nichols,Hawley,122.2,124.74,,,,Single-ply,SBD,M
Boys,124.74+,1,Devon Cosby,Abilene Cooper,125.65,201.85,124.74,199.58,526.17,Single-ply,SBD,M
Boys,124.74+,2,Ricardo Rios,Abilene Cooper,136.98,215.46,122.47,183.7,521.63,Single-ply,SBD,M
Boys,124.74+,3,Gage McVey,Abilene Cooper,129.27,195.04,117.93,174.63,487.61,Single-ply,SBD,M
Boys,124.74+,4,Jaron Castillo,Anson,132.81,201.85,106.59,174.63,483.08,Single-ply,SBD,M
Boys,124.74+,5,Javier Santana,Abilene,131,183.7,92.99,142.88,419.57,Single-ply,SBD,M
Boys,124.74+,6,Jonathan Presley,Abilene Cooper,150.59,158.76,65.77,147.42,371.95,Single-ply,SBD,M
Boys,124.74+,DQ,Khalil Spivey,Abilene,125.28,,,,,Single-ply,SBD,M
Boys,124.74+,DQ,David Schuman,Merkel,127.01,,,,,Single-ply,SBD,M
