Division,WeightClassKg,Place,Name,Team,BodyweightKg,Best3SquatKg,Best3BenchKg,Best3DeadliftKg,TotalKg,Equipment,Event,Sex
Boys,51.71,1,Alfredo Barron,Splendora,51.35,156.49,79.38,158.76,394.63,Single-ply,SBD,M
Boys,51.71,2,Jacob Cavness,Santa Fe,51.71,102.06,70.31,99.79,272.16,Single-ply,SBD,M
Boys,51.71,3,Tyler Carlson Jr,New Caney,49.71,70.31,43.09,92.99,206.38,Single-ply,SBD,M
Boys,51.71,4,Rojae Kizzee,Trinity,49.9,68.04,43.09,92.99,204.12,Single-ply,SBD,M
Boys,51.71,5,Walker Windt,Shepherd,51.71,70.31,34.02,81.65,185.97,Single-ply,SBD,M
Boys,51.71,DQ,Seaen Nance,Galveston Ball,51.71,,,,,Single-ply,SBD,M
Boys,51.71,DQ,Kristian Franklin,La Marque,51.71,,,,,Single-ply,SBD,M
Boys,51.71,DQ,Kole Joiner,La Marque,51.71,,,,,Single-ply,SBD,M
Boys,55.79,1,Ethan Torres,New Caney,55.79,127.01,70.31,122.47,319.78,Single-ply,SBD,M
Boys,55.79,2,Doriyan Allen,New Caney Porter,52.34,102.06,72.57,115.67,290.3,Single-ply,SBD,M
Boys,55.79,3,Jace Boehm,Splendora,51.98,83.91,65.77,106.59,256.28,Single-ply,SBD,M
Boys,55.79,DQ,Miguel Torres,Galveston Ball,55.79,,,,,Single-ply,SBD,M
Boys,59.87,1,Lane Goodwin,Splendora,59.33,145.15,86.18,158.76,390.09,Single-ply,SBD,M
Boys,59.87,2,Jacob Krumrey,New Caney,59.87,131.54,88.45,133.81,353.8,Single-ply,SBD,M
Boys,59.87,3,Juan Chavez,New Caney,59.87,127.01,74.84,117.93,319.78,Single-ply,SBD,M
Boys,59.87,4,Casey Avallaneda,Splendora,59.33,106.59,74.84,120.2,301.64,Single-ply,SBD,M
Boys,59.87,5,Joshua Krumrey,New Caney,59.87,102.06,63.5,113.4,278.96,Single-ply,SBD,M
Boys,59.87,6,Ethan Gursee,Livingston,58.06,92.99,52.16,113.4,258.55,Single-ply,SBD,M
Boys,59.87,7,Dremar Washington,Beaumont Ozen,59.87,79.38,,129.27,208.65,Single-ply,SD,M
Boys,59.87,8,Trent Valentine,Splendora,59.69,79.38,,99.79,179.17,Single-ply,SD,M
Boys,59.87,DQ,Sebastion Fleming,Galveston Ball,59.87,,,,,Single-ply,SBD,M
Boys,59.87,DQ,Juwan McCarroll,Galveston Ball,59.87,,,,,Single-ply,SBD,M
Boys,59.87,DQ,Clayton Coogler,Shepherd,59.87,161.03,83.91,,,Single-ply,SBD,M
Boys,67.13,1,Dj Stewart,Crosby,67.13,181.44,92.99,181.44,455.86,Single-ply,SBD,M
Boys,67.13,2,Erin Esquirel,Conroe Caney Creek,67.13,145.15,83.91,147.42,376.48,Single-ply,SBD,M
Boys,67.13,3,Enoc Villagomez,Conroe Caney Creek,67.13,120.2,74.84,124.74,319.78,Single-ply,SBD,M
Boys,67.13,DQ,Trent Ramber,Livingston,67.13,,,,,Single-ply,SBD,M
Boys,67.13,DQ,Aj Walker,Livingston,67.13,,,,,Single-ply,SBD,M
Boys,67.13,DQ,Russell Pickney,La Marque,67.13,,,,,Single-ply,SBD,M
Boys,67.13,DQ,Justin Legg,Livingston,64.23,,,,,Single-ply,SBD,M
Boys,67.13,DQ,Cameron Thomas,Shepherd,63.14,104.33,,,,Single-ply,SBD,M
Boys,67.13,DQ,Will Whitaker,Shepherd,67.13,,,,,Single-ply,SBD,M
Boys,74.84,1,Parker Hay,Trinity,74.84,224.53,151.95,215.46,591.94,Single-ply,SBD,M
Boys,74.84,2,James Harrison,Shepherd,74.84,204.12,108.86,190.51,503.49,Single-ply,SBD,M
Boys,74.84,3,Adrian Blanton,Conroe Caney Creek,74.84,183.7,115.67,170.1,469.47,Single-ply,SBD,M
Boys,74.84,4,Jacob Duncan,Conroe Caney Creek,74.84,181.44,95.25,176.9,453.59,Single-ply,SBD,M
Boys,74.84,5,Mark Brockhoeft,Conroe Caney Creek,74.84,151.95,92.99,192.78,437.72,Single-ply,SBD,M
Boys,74.84,6,Joel Dees,Trinity,74.84,147.42,97.52,170.1,415.04,Single-ply,SBD,M
Boys,74.84,7,Dounel Esconde,New Caney Porter,74.84,163.29,81.65,165.56,410.5,Single-ply,SBD,M
Boys,74.84,8,Spencer Holleman,New Caney Porter,68.86,172.37,97.52,136.08,405.97,Single-ply,SBD,M
Boys,74.84,9,Caleb Pickens,New Caney Porter,74.84,154.22,92.99,142.88,390.09,Single-ply,SBD,M
Boys,74.84,10,Wai Kaurig,Galveston Ball,74.84,102.06,68.04,174.63,344.73,Single-ply,SBD,M
Boys,74.84,11,Michael Goodson,Shepherd,70.13,129.27,72.57,138.35,340.19,Single-ply,SBD,M
Boys,74.84,12,Bradley Thomas,Beaumont Ozen,71.76,124.74,63.5,147.42,335.66,Single-ply,SBD,M
Boys,74.84,13,Andrew Hernandez,Splendora,70.49,92.99,88.45,136.08,317.51,Single-ply,SBD,M
Boys,74.84,14,Wyatt Bledsoe,Huffman Hargrave,74.84,83.91,61.23,127.01,272.16,Single-ply,SBD,M
Boys,74.84,15,Jamod Davis,Galveston Ball,74.84,147.42,,,147.42,Single-ply,S,M
Boys,74.84,DQ,Logan Carson,Livingston,74.84,,,,,Single-ply,S,M
Boys,74.84,DQ,Thomas Paprocki,New Caney Porter,74.84,170.1,,,,Single-ply,S,M
Boys,82.1,1,Andy Garcia,Trinity,82.1,204.12,129.27,210.92,544.31,Single-ply,SBD,M
Boys,82.1,2,Jonathan Sims,Crosby,82.1,185.97,92.99,188.24,467.2,Single-ply,SBD,M
Boys,82.1,3,Micah Legg,Livingston,79.2,183.7,102.06,158.76,444.52,Single-ply,SBD,M
Boys,82.1,4,Daniel Vasquez,Shepherd,81.19,149.69,99.79,154.22,403.7,Single-ply,SBD,M
Boys,82.1,DQ,Sebastion Maldonado,Trinity,82.1,,,,,Single-ply,SBD,M
Boys,82.1,DQ,Greg Nason,Huffman Hargrave,82.1,,,,,Single-ply,SBD,M
Boys,82.1,DQ,Larry Magee,La Marque,82.1,,,,,Single-ply,SBD,M
Boys,82.1,DQ,Leonel Munoz,Galveston Ball,82.1,,,,,Single-ply,SBD,M
Boys,82.1,DQ,Dominic Wilson,Livingston,82.1,179.17,,,,Single-ply,SBD,M
Boys,89.81,1,Treyvaun Crawford,Trinity,89.81,233.6,147.42,256.28,637.3,Single-ply,SBD,M
Boys,89.81,2,Trey Keel,Splendora,89.54,249.48,138.35,226.8,614.62,Single-ply,SBD,M
Boys,89.81,3,Gage Slaughter,Santa Fe,89.81,199.58,122.47,197.31,519.36,Single-ply,SBD,M
Boys,89.81,4,Chris Garcia,Conroe Caney Creek,89.81,181.44,106.59,208.65,496.68,Single-ply,SBD,M
Boys,89.81,5,Sam Jones,New Caney,88.54,181.44,117.93,181.44,480.81,Single-ply,SBD,M
Boys,89.81,6,Jace Shrader,Shepherd,89.09,170.1,102.06,163.29,435.45,Single-ply,SBD,M
Boys,89.81,7,Tim Camp,Crosby,89.81,147.42,90.72,181.44,419.57,Single-ply,SBD,M
Boys,89.81,8,Antonio Botello,Santa Fe,89.81,158.76,97.52,156.49,412.77,Single-ply,SBD,M
Boys,89.81,9,Joshua Flores,Conroe Caney Creek,89.81,151.95,102.06,149.69,403.7,Single-ply,SBD,M
Boys,89.81,10,Gabriel Winters,Beaumont Ozen,84.55,151.95,77.11,172.37,401.43,Single-ply,SBD,M
Boys,89.81,11,Joey Gibbs,Santa Fe,89.81,156.49,74.84,151.95,383.29,Single-ply,SBD,M
Boys,89.81,12,Carson Herbert,Galveston Ball,89.81,154.22,83.91,142.88,381.02,Single-ply,SBD,M
Boys,89.81,13,Collin Rhodes,Splendora,86,124.74,86.18,138.35,349.27,Single-ply,SBD,M
Boys,89.81,14,Ladarius Forney,Beaumont Ozen,85.09,90.72,56.7,115.67,263.08,Single-ply,SBD,M
Boys,89.81,DQ,Beau McCrary,Huffman Hargrave,89.81,,,,,Single-ply,SBD,M
Boys,89.81,DQ,Jacobe Wagner,La Marque,89.81,,,,,Single-ply,SBD,M
Boys,89.81,DQ,Keyshon Daniels,La Marque,89.81,,,,,Single-ply,SBD,M
Boys,89.81,DQ,Will Broussard,Livingston,89.81,,,,,Single-ply,SBD,M
Boys,89.81,DQ,Sean Crabtree,Trinity,89.81,183.7,,,,Single-ply,SBD,M
Boys,89.81,DQ,Donald Daniels,Livingston,84.37,156.49,102.06,,,Single-ply,SBD,M
Boys,89.81,DQ,Deryk Villareal,Huffman Hargrave,89.81,190.51,117.93,,,Single-ply,SBD,M
Boys,99.79,1,Brandon Diaz,Crosby,97.16,272.16,151.95,235.87,659.98,Single-ply,SBD,M
Boys,99.79,2,Dakota Piper,Livingston,98.7,251.74,170.1,235.87,657.71,Single-ply,SBD,M
Boys,99.79,3,Gabe Garcia,Conroe Caney Creek,99.79,240.4,149.69,235.87,625.96,Single-ply,SBD,M
Boys,99.79,4,Michael Taylor,Splendora,93.71,215.46,165.56,226.8,607.81,Single-ply,SBD,M
Boys,99.79,5,Garrett King,Trinity,99.79,219.99,124.74,224.53,569.26,Single-ply,SBD,M
Boys,99.79,6,Brandon Phillips,Trinity,99.79,204.12,151.95,204.12,560.19,Single-ply,SBD,M
Boys,99.79,7,Zyhon Bell,New Caney Porter,99.79,217.72,127.01,183.7,528.44,Single-ply,SBD,M
Boys,99.79,8,Ethan Robins,Conroe Caney Creek,99.79,244.94,102.06,142.88,489.88,Single-ply,SBD,M
Boys,99.79,9,Jordan Lewis,New Caney Porter,99.79,226.8,111.13,142.88,480.81,Single-ply,SBD,M
Boys,99.79,10,Hunter Bailey,Crosby,99.79,192.78,97.52,183.7,474,Single-ply,SBD,M
Boys,99.79,11,Colton Scott,Santa Fe,99.79,181.44,106.59,181.44,469.47,Single-ply,SBD,M
Boys,99.79,12,Kaleb Wisko,Santa Fe,99.79,174.63,104.33,170.1,449.06,Single-ply,SBD,M
Boys,99.79,13,Chris Cole,Crosby,99.79,170.1,106.59,158.76,435.45,Single-ply,SBD,M
Boys,99.79,14,Eduardo Maury,Beaumont Ozen,99.79,145.15,86.18,204.12,435.45,Single-ply,SBD,M
Boys,99.79,15,Kevin Jernigen,Splendora,99.52,151.95,108.86,170.1,430.91,Single-ply,SBD,M
Boys,99.79,16,Aaron Foster,Crosby,99.79,158.76,90.72,158.76,408.23,Single-ply,SBD,M
Boys,99.79,DQ,Jamall Edward,Beaumont Ozen,99.79,,,,,Single-ply,SBD,M
Boys,99.79,DQ,Claude Conner,Beaumont Ozen,99.79,,,,,Single-ply,SBD,M
Boys,99.79,DQ,Taylor Young,Beaumont Ozen,99.79,,,,,Single-ply,SBD,M
Boys,99.79,DQ,Avian Cruces,La Marque,99.79,,,,,Single-ply,SBD,M
Boys,99.79,DQ,Zach Pitts,Huffman Hargrave,92.53,138.35,,,,Single-ply,SBD,M
Boys,109.77,1,Tyler Ray,Santa Fe,109.77,274.42,163.29,240.4,678.12,Single-ply,SBD,M
Boys,109.77,2,Caleb Richardson,New Caney,100.24,240.4,142.88,231.33,614.62,Single-ply,SBD,M
Boys,109.77,3,Michael McVay,Santa Fe,109.77,219.99,136.08,192.78,548.85,Single-ply,SBD,M
Boys,109.77,4,Devorriay Anderson,Trinity,109.77,208.65,102.06,222.26,532.97,Single-ply,SBD,M
Boys,109.77,5,Luke Sterling,Crosby,109.77,204.12,113.4,181.44,498.95,Single-ply,SBD,M
Boys,109.77,6,Neeairus Withers,Beaumont Ozen,109.77,185.97,117.93,190.51,494.42,Single-ply,SBD,M
Boys,109.77,7,Alex Genera,New Caney,109.77,181.44,127.01,181.44,489.88,Single-ply,SBD,M
Boys,109.77,8,Shelton Munger,New Caney Porter,109.77,197.31,117.93,154.22,469.47,Single-ply,SBD,M
Boys,109.77,9,Daniel Spangler,New Caney Porter,109.77,183.7,115.67,156.49,455.86,Single-ply,SBD,M
Boys,109.77,10,Tyler Thomas,Crosby,102.78,158.76,95.25,158.76,412.77,Single-ply,SBD,M
Boys,109.77,11,Isaiah Garcia,Shepherd,102.33,190.51,117.93,,308.44,Single-ply,SB,M
Boys,109.77,DQ,Christian McArther,Santa Fe,109.77,,,,,Single-ply,SB,M
Boys,109.77,DQ,Darius Smith,Beaumont Ozen,109.77,,,,,Single-ply,SB,M
Boys,109.77,DQ,Tyler Williams,Huffman Hargrave,109.77,,,,,Single-ply,SB,M
Boys,109.77,DQ,Zach Gray,Huffman Hargrave,109.77,,,,,Single-ply,SB,M
Boys,109.77,DQ,Hunter Breaux,Huffman Hargrave,109.77,,,,,Single-ply,SB,M
Boys,109.77,DQ,Zyon Brooks,La Marque,109.77,,,,,Single-ply,SB,M
Boys,124.74,1,Nathaniel Sandoval,Conroe Caney Creek,124.74,272.16,172.37,204.12,648.64,Single-ply,SBD,M
Boys,124.74,2,Gio Garcia,Trinity,124.74,204.12,158.76,174.63,537.51,Single-ply,SBD,M
Boys,124.74,3,Clayton Martinez,Shepherd,124.74,206.38,104.33,222.26,532.97,Single-ply,SBD,M
Boys,124.74,4,Tyler Talavera,New Caney Porter,124.74,215.46,129.27,188.24,532.97,Single-ply,SBD,M
Boys,124.74,5,Gus Davis,Huffman Hargrave,124.74,195.04,129.27,204.12,528.44,Single-ply,SBD,M
Boys,124.74,6,Sean Dillon,Galveston Ball,119.29,185.97,133.81,188.24,508.02,Single-ply,SBD,M
Boys,124.74,7,Cruz Barcenas,Huffman Hargrave,124.74,170.1,113.4,204.12,487.61,Single-ply,SBD,M
Boys,124.74,8,Patrick Charbonneau,Crosby,124.74,158.76,127.01,185.97,471.74,Single-ply,SBD,M
Boys,124.74,9,Trenton Mikes,Santa Fe,124.1,183.7,102.06,181.44,467.2,Single-ply,SBD,M
Boys,124.74,10,Justin Capps,Shepherd,124.74,170.1,106.59,170.1,446.79,Single-ply,SBD,M
Boys,124.74,DQ,Donte Moore,La Marque,124.74,,,,,Single-ply,SBD,M
Boys,124.74,DQ,Kenneth Cobb,La Marque,124.74,,,,,Single-ply,SBD,M
Boys,124.74,DQ,CJ Knighton,Livingston,124.74,,,,,Single-ply,SBD,M
Boys,124.74+,1,Zach Taylor,Shepherd,127.01,301.64,183.7,240.4,725.75,Single-ply,SBD,M
Boys,124.74+,2,Jerome Harmon,Beaumont Ozen,132,226.8,136.08,190.51,553.38,Single-ply,SBD,M
Boys,124.74+,3,Tre'Veon Hitchens,New Caney Porter,133.54,226.8,124.74,190.51,542.04,Single-ply,SBD,M
Boys,124.74+,4,Benjamin Buruca,New Caney,127.01,226.8,102.06,201.85,530.7,Single-ply,SBD,M
Boys,124.74+,5,Cameron Morris,Livingston,127.01,142.88,102.06,142.88,387.82,Single-ply,SBD,M
Boys,124.74+,DQ,Michael Flores,Conroe Caney Creek,127.01,215.46,122.47,,,Single-ply,SBD,M
Boys,124.74+,DQ,Cj Thomas,Livingston,133.63,165.56,92.99,,,Single-ply,SBD,M
