Place,Name,CyrillicName,Country,BodyweightKg,Squat1Kg,Squat2Kg,Squat3Kg,Bench1Kg,Bench2Kg,Bench3Kg,Deadlift1Kg,Deadlift2Kg,Deadlift3Kg,TotalKg,WeightClassKg,Division,Sex,Event,Equipment,Best3SquatKg,Best3BenchKg,Best3DeadliftKg,BirthYear
1,Gennadiy Popov,Геннадій Попов,Ukraine,87.9,220,235,-245,-152.5,152.5,160,180,-200,-200,575,90,Pro Teen 18-19,M,SBD,Multi-ply,235,160,180,1994
1,Anton Popov,Антон Попов,Ukraine,72.3,180,-190,-195,-140,140,-150,180,-195,-200,500,75,Pro Juniors 20-23,M,SBD,Multi-ply,180,140,180,1989
1,Sergiy Sokolovskiy,Сергій Соколовський,Ukraine,82.4,260,275,,140,150,-157.5,270,290,-305,715,82.5,Pro Open,M,SBD,Multi-ply,275,150,290,1976
2,Sergiy Lasitsin,Сергій Ласіцин,Ukraine,81.6,-255,260,272.5,175,-182.5,-182.5,237.5,-250,250,697.5,82.5,Pro Open,M,SBD,Multi-ply,272.5,175,250,1989
3,Igor Andrusik,Ігор Андрусик,Ukraine,81.9,220,235,242.5,165,170,-175,220,-230,,632.5,82.5,Pro Open,M,SBD,Multi-ply,242.5,170,220,1988
1,Volodimir Grammatik,Володимир Грамматик,Ukraine,89.8,310,-325,,200,210,215,280,-300,300,825,90,Pro Open,M,SBD,Multi-ply,310,215,300,1982
1,Sergiy Palienko,Сергій Палієнко,Ukraine,92.4,230,-245,-245,160,-175,175,240,255,-265,660,100,Pro Open,M,SBD,Multi-ply,230,175,255,1987
2,Dmitro Illyashenko,Дмитро Ілляшенко,Ukraine,95.7,225,240,255,-165,165,-172.5,215,-230,-242.5,635,100,Pro Open,M,SBD,Multi-ply,255,165,215,1984
1,Sergiy Sokolovskiy,Сергій Соколовський,Ukraine,82.4,260,275,,140,150,-157.5,270,290,-305,715,82.5,Pro Submasters 33-39,M,SBD,Multi-ply,275,150,290,1976
1,Yuriy Maligin,Юрій Малигін,Ukraine,105.9,200,-220,,-140,-140,140,180,200,220,560,110,Pro Masters 45-49,M,SBD,Multi-ply,200,140,220,1967
1,Volodimir Lebedev,Володимир Лебєдєв,Ukraine,104.4,-275,275,300,165,175,,240,260,,735,110,Pro Masters 50-54,M,SBD,Multi-ply,300,175,260,1961
1,Anatoliy Bolyukh,Анатолій Болюх,Ukraine,94.9,240,250,260,150,160,-170,200,215,230,650,100,Pro Masters 60-64,M,SBD,Multi-ply,260,160,230,1950
1,Georgiy Yuldashev,Георгій Юлдашев,Ukraine,59,-125,125,135,75,-80,80,120,-130,-130,335,60,Pro Teen 13-15,M,SBD,Wraps,135,80,120,1998
DQ,Maksim Karasov,Максим Карасьов,Ukraine,73,-150,-150,-150,,,,,,,,75,Pro Teen 13-15,M,SBD,Wraps,,,,1997
1,Igor Shapoval,Ігор Шаповал,Moldova,99,220,-230,230,160,170,180,240,255,-260,665,100,Pro Teen 18-19,M,SBD,Wraps,230,180,255,1989
1,Oleksandr Miroshnichenko,Олександр Мирошніченко,Ukraine,67.2,150,160,-172.5,105,110,-115,180,-185,-185,450,67.5,Pro Juniors 20-23,M,SBD,Wraps,160,110,180,1992
1,Evgen Zarvigorov,Євген Зарвигоров,Ukraine,89.9,-220,220,225,145,150,-160,225,240,-260,615,90,Pro Juniors 20-23,M,SBD,Wraps,225,150,240,1991
2,Dmitro Gavrilyuk,Дмитро Гаврилюк,Ukraine,87.1,200,-215,-215,145,150,155,160,185,-200,540,90,Pro Juniors 20-23,M,SBD,Wraps,200,155,185,1989
1,Gleb Filin,Глеб Филин,Moldova,100,215,230,-240,147.5,155,-157.5,215,230,-240,615,100,Pro Juniors 20-23,M,SBD,Wraps,230,155,230,1989
DQ,Evgen Nastenko,Євген Настенко,Ukraine,,,,,,,,,,,,110,Pro Juniors 20-23,M,SBD,Wraps,,,,1991
1,Artur Lamekin,Артур Ламєкін,Ukraine,123.6,240,250,-260,-170,170,-177.5,250,270,280,700,125,Pro Juniors 20-23,M,SBD,Wraps,250,170,280,1990
2,Pavel Strizhak,Павел Стрижак,Moldova,120,230,240,-250,170,180,185,240,260,-272.5,685,125,Pro Juniors 20-23,M,SBD,Wraps,240,185,260,1991
1,Konstantin Bykov,Константин Быков,Russia,74,155,-165,-165,105,110,,140,-150,150,415,75,Pro Open,M,SBD,Wraps,155,110,150,1989
1,Kostyantin Velichko,Костянтин Величко,Ukraine,81.5,270,285,-295,155,160,165,260,270,280,730,82.5,Pro Open,M,SBD,Wraps,285,165,280,1986
2,Artur Dubinin,Артур Дубінін,Ukraine,80,200,220,-240,140,150,-160,240,-245,,610,82.5,Pro Open,M,SBD,Wraps,220,150,240,1987
3,Volodimir Kovalenko,Володимир Коваленко,Ukraine,78.7,180,-200,-200,120,130,-137.5,200,220,230,540,82.5,Pro Open,M,SBD,Wraps,180,130,230,1985
4,Vyacheslav Lazarenko,Вячеслав Лазаренко,Ukraine,79.9,-190,190,-200,130,140,-150,190,210,-222.5,540,82.5,Pro Open,M,SBD,Wraps,190,140,210,1978
DQ,Pavlo Kovalchuk,Павло Ковальчук,Ukraine,81.4,215,225,-235,150,162.5,-167.5,-265,-265,-265,,82.5,Pro Open,M,SBD,Wraps,225,162.5,,1988
1,Boris Stashuk,Борис Сташук,Ukraine,90,260,275,290,180,190,-195,260,280,290,770,90,Pro Open,M,SBD,Wraps,290,190,290,1985
2,Evgen Leushin,Євген Леушин,Ukraine,89.5,240,-270,270,150,160,-180,270,300,-310,730,90,Pro Open,M,SBD,Wraps,270,160,300,1988
3,Volodimir Starchenko,Володимир Старченко,Ukraine,90,245,250,,147.5,152.5,-157.5,245,255,,657.5,90,Pro Open,M,SBD,Wraps,250,152.5,255,1975
4,Vyacheslav Zdorovenko,Вячеслав Здоровенко,Ukraine,86.7,230,-240,240,145,150,-152.5,250,-257.5,,640,90,Pro Open,M,SBD,Wraps,240,150,250,1983
1,Evgeniy Blinkov,Евгений Блинков,Russia,95,267.5,282.5,-295,167.5,-175,,275,-295,,725,100,Pro Open,M,SBD,Wraps,282.5,167.5,275,1987
2,Mikola Matvienko,Микола Матвієнко,Ukraine,98.7,230,240,250,170,180,,240,250,255,685,100,Pro Open,M,SBD,Wraps,250,180,255,1984
3,Oleksiy Fedorenko,Олексій Федоренко,Ukraine,94.7,235,245,255,152.5,160,165,235,245,-260,665,100,Pro Open,M,SBD,Wraps,255,165,245,1986
4,Vagif Akhmadzade Orkhan,,Azerbaijan,97.7,220,-230,230,160,170,-175,260,-275,-275,660,100,Pro Open,M,SBD,Wraps,230,170,260,1988
5,Vitaliy Savelev,Віталій Савельєв,Ukraine,98.6,-200,-210,210,145,152.5,160,210,240,-260,610,100,Pro Open,M,SBD,Wraps,210,160,240,1979
6,Vitaliy Prishchenko,Віталій Прищенко,Ukraine,99.3,-200,-210,210,150,-155,,180,195,220,580,100,Pro Open,M,SBD,Wraps,210,150,220,1988
7,Yuriy Dolomanzhi,Юрий Доломанжи,Moldova,93.5,-210,210,220,120,125,-130,215,225,-235,570,100,Pro Open,M,SBD,Wraps,220,125,225,1984
1,Konstyantin Muntyan,Констянтин Мунтян,Ukraine,109.6,250,265,275,180,190,-200,257.5,272.5,285,750,110,Pro Open,M,SBD,Wraps,275,190,285,1978
2,Mikhaylo Kozelchuk,Михайло Козельчук,Ukraine,106.8,240,260,-272.5,180,192.5,200,240,260,-290,720,110,Pro Open,M,SBD,Wraps,260,200,260,1988
3,Denis Chebruchan,Денис Чебручан,Transnistria,107.9,230,250,-270,155,165,-175,230,260,277.5,692.5,110,Pro Open,M,SBD,Wraps,250,165,277.5,1988
4,Vladislav Migida,Владислав Мігіда,Ukraine,103.9,230,240,250,170,175,180,230,250,260,690,110,Pro Open,M,SBD,Wraps,250,180,260,1988
5,Konstantin Vradiy,Константин Врадий,Moldova,105.4,180,200,210,140,-150,-150,220,235,250,600,110,Pro Open,M,SBD,Wraps,210,140,250,1983
1,Vasiliy Mazur,Василий Мазур,Moldova,119.1,270,295,-305,-210,210,-220,310,-325,-325,815,125,Pro Open,M,SBD,Wraps,295,210,310,1984
2,Artur Lamekin,Артур Ламєкін,Ukraine,123.6,240,250,-260,-170,170,-177.5,250,270,280,700,125,Pro Open,M,SBD,Wraps,250,170,280,1990
1,Andriy Grin,Андрій Гринь,Ukraine,130.9,310,-325,332.5,205,-212.5,-212.5,280,300,310,847.5,140,Pro Open,M,SBD,Wraps,332.5,205,310,1968
1,Mikhail Chekushkin,Михаил Чекушкин,Transnistria,146.4,270,300,330,140,150,160,230,250,-260,740,155,Pro Open,M,SBD,Wraps,330,160,250,1961
1,Volodimir Starchenko,Володимир Старченко,Ukraine,90,245,250,,147.5,152.5,-157.5,245,255,,657.5,90,Pro Submasters 33-39,M,SBD,Wraps,250,152.5,255,1975
2,Oleksandr Onishchenko,Олександр Оніщенко,Ukraine,90,170,190,200,180,190,-200,180,-200,210,600,90,Pro Submasters 33-39,M,SBD,Wraps,200,190,210,1980
1,Vitaliy Savelev,Віталій Савельєв,Ukraine,98.6,-200,-210,210,145,152.5,160,210,240,-260,610,100,Pro Submasters 33-39,M,SBD,Wraps,210,160,240,1979
1,Vadim Smolyak,Вадим Смоляк,Moldova,104.9,240,260,280,155,-165,165,230,250,,695,110,Pro Masters 40-44,M,SBD,Wraps,280,165,250,1969
1,Genadiy Kuzmenko,Генадій Кузьменко,Ukraine,122.7,235,250,-260,80,95,107.5,285,300,-317.5,657.5,125,Pro Masters 40-44,M,SBD,Wraps,250,107.5,300,1972
2,Oleksandr Shendrik,Олександр Шендрик,Ukraine,110.8,200,215,230,135,140,-150,210,220,230,600,125,Pro Masters 40-44,M,SBD,Wraps,230,140,230,1972
1,Andriy Grin,Андрій Гринь,Ukraine,130.9,310,-325,332.5,205,-212.5,-212.5,280,300,310,847.5,140,Pro Masters 40-44,M,SBD,Wraps,332.5,205,310,1968
1,Dmitro Kabakov,Дмитро Кабаков,Ukraine,86.5,175,190,-200,120,125,127.5,170,180,182.5,500,90,Pro Masters 45-49,M,SBD,Wraps,190,127.5,182.5,1963
1,Vitaliy Beloborodov,Виталий Белобородов,Moldova,107.5,-220,-230,230,170,175,177.5,240,252.5,-255,660,110,Pro Masters 45-49,M,SBD,Wraps,230,177.5,252.5,1968
2,Yuriy Maligin,Юрій Малигін,Ukraine,105.9,160,180,200,120,127.5,135,170,190,-210,525,110,Pro Masters 45-49,M,SBD,Wraps,200,135,190,1967
1,Volodimir Lebedev,Володимир Лебєдєв,Ukraine,104.4,225,240,260,125,132.5,-135,225,-257.5,257.5,650,110,Pro Masters 50-54,M,SBD,Wraps,260,132.5,257.5,1961
1,Mikhail Chekushkin,Михаил Чекушкин,Transnistria,146.4,270,300,330,140,150,160,230,250,-260,740,155,Pro Masters 50-54,M,SBD,Wraps,330,160,250,1961
1,Sergiy Denisov,Сергій Денисов,Ukraine,99.1,175,-195,195,130,137.5,-142.5,175,-195,195,527.5,100,Pro Masters 55-59,M,SBD,Wraps,195,137.5,195,1956
1,Vitaliy Prishchenko,Віталій Прищенко,Ukraine,99.3,-200,-210,210,150,-155,,180,195,220,580,100,Pro Military/Fire/Police,M,SBD,Wraps,210,150,220,1988
1,Mikhaylo Kozelchuk,Михайло Козельчук,Ukraine,106.8,240,260,-272.5,180,192.5,200,240,260,-290,720,110,Pro Military/Fire/Police,M,SBD,Wraps,260,200,260,1988
2,Denis Chebruchan,Денис Чебручан,Transnistria,107.9,230,250,-270,155,165,-175,230,260,277.5,692.5,110,Pro Military/Fire/Police,M,SBD,Wraps,250,165,277.5,1988
1,Dmitro Putin,Дмитро Путін,Ukraine,122.2,260,280,290,130,140,150,270,290,300,740,125,Pro Military/Fire/Police,M,SBD,Wraps,290,150,300,1988
1,Mikhail Chekushkin,Михаил Чекушкин,Transnistria,146.4,270,300,330,140,150,160,230,250,-260,740,155,Pro Military/Fire/Police,M,SBD,Wraps,330,160,250,1961
1,Lyudmila Tsvetkova,Людмила Цветкова,Ukraine,55.4,105,115,-125,52.5,57.5,60,115,132.5,-142.5,307.5,56,Pro Masters 50-54,F,SBD,Wraps,115,60,132.5,1961
DQ,Rena Aliyeva,,Azerbaijan,55.3,,,,,,,,,,,56,Pro Open,F,SBD,Wraps,,,,1977
DQ,Sara Abbasova,,Azerbaijan,57,,,,,,,,,,,60,Pro Open,F,SBD,Wraps,,,,1983
1,Yuliya Gamurar,Юлія Гамурар,Ukraine,61.2,85,92.5,100,50,60,-62.5,77.5,-90,90,250,67.5,Pro Teen 13-15,F,SBD,Wraps,100,60,90,1998
1,Anna Pavlovskaya,Анна Павловская,Russia,48,-85,-85,85,50,-55,-55,-80,80,87.5,222.5,48,Pro Teen 16-17,F,SBD,Wraps,85,50,87.5,1997
1,Irina Galabir,Ірина Галабір,Ukraine,51.2,70,-77.5,80,40,42.5,-45,80,87.5,-90,210,52,Pro Teen 16-17,F,SBD,Wraps,80,42.5,87.5,1995
1,Valeriya Pozdnyakova,Валерия Позднякова,Ukraine,48,95,105,-110,50,55,-57.5,105,-110,,265,48,Pro Juniors 20-23,F,SBD,Wraps,105,55,105,1991
DQ,Yuliya Shvetsova,Юлія Швецова,Ukraine,44.2,-50,-55,-60,,,,,,,,48,Pro Open,F,SBD,Wraps,,,,1989
1,Nataliya Mileeva,Наталя Мілеєва,Ukraine,55,102.5,110,112.5,65,70,-72.5,132.5,140,-142.5,322.5,56,Pro Open,F,SBD,Wraps,112.5,70,140,1981
1,Irina Kirichenko,Ірина Кириченко,Ukraine,59.7,87.5,92.5,-95,47.5,50,,77.5,-92.5,,220,60,Pro Open,F,SBD,Wraps,92.5,50,77.5,1984
1,Tetyana Nemley,Тетяна Немлей,Ukraine,63,-100,100,-115,42.5,45,47.5,90,95,100,247.5,67.5,Pro Open,F,SBD,Wraps,100,47.5,100,1986
1,Olga Demakova,Ольга Демакова,Ukraine,71.6,90,105,-110,55,60,62.5,95,-105,105,272.5,75,Pro Open,F,SBD,Wraps,105,62.5,105,1978
1,Svitlana Dyagileva,Світлана Дягілева,Ukraine,57.5,90,95,100,50,55,-57.5,105,112.5,-115,267.5,60,Pro Submasters 33-39,F,SBD,Wraps,100,55,112.5,1977
2,Olga Morozova,Ольга Морозова,Ukraine,59.6,85,-90,-90,40,42.5,-45,85,90,-92.5,217.5,60,Pro Submasters 33-39,F,SBD,Wraps,85,42.5,90,1976
1,Olga Demakova,Ольга Демакова,Ukraine,71.6,90,105,-110,55,60,62.5,95,-105,105,272.5,75,Pro Submasters 33-39,F,SBD,Wraps,105,62.5,105,1978
1,Oksana Muzika,Оксана Музика,Ukraine,67.2,60,70,,60,62.5,-67.5,70,,,202.5,67.5,Pro Masters 40-44,F,SBD,Wraps,70,62.5,70,1969
1,Lyudmila Ishchenko,Людмила Іщенко,Ukraine,73.3,-110,110,-125,55,60,-65,110,125,130,300,75,Pro Masters 50-54,F,SBD,Wraps,110,60,130,1961
1,Nataliya Tsukanova,Наталія Цуканова,Ukraine,78,130,140,150,75,-82.5,82.5,130,140,150,382.5,82.5,Pro Masters 55-59,F,SBD,Wraps,150,82.5,150,1956
1,Dmitro Zaets,Дмитро Заєць,Ukraine,33.1,62.5,67.5,72.5,30,35,,77.5,87.5,-95,195,44,Amateur Children 10,M,SBD,Wraps,72.5,35,87.5,2002
1,Mikita Kravets,Микита Кравець,Ukraine,46.9,107.5,115,120,55,57.5,-60,92.5,102.5,-110,280,48,Amateur Teen 13-15,M,SBD,Wraps,120,57.5,102.5,2000
1,Oleksandr Davidenko,Олександр Давиденко,Ukraine,60,90,100,-105,60,-70,-70,-130,137.5,145,305,60,Amateur Teen 13-15,M,SBD,Wraps,100,60,145,1997
1,Yaroslav Tarasenko,Ярослав Тарасенко,Ukraine,67.3,-130,140,145,75,-85,-85,140,150,160,380,67.5,Amateur Teen 13-15,M,SBD,Wraps,145,75,160,1997
2,Dmitro Nastekhin,Дмитро Настехін,Ukraine,67.2,120,127.5,132.5,77.5,85,-87.5,110,125,130,347.5,67.5,Amateur Teen 13-15,M,SBD,Wraps,132.5,85,130,1997
3,Vladislav Sklyarov,Владислав Скляров,Ukraine,63.4,95,105,115,77.5,85,,95,,,295,67.5,Amateur Teen 13-15,M,SBD,Wraps,115,85,95,1998
1,Igor Lisenko,Ігор Лисенко,Ukraine,80.4,-120,120,-130,50,55,-62.5,110,120,-130,295,82.5,Amateur Teen 13-15,M,SBD,Wraps,120,55,120,2000
1,Dmitro Grigorev,Дмитро Григорьєв,Ukraine,89,155,162.5,170,-87.5,87.5,97.5,140,155,162.5,430,90,Amateur Teen 13-15,M,SBD,Wraps,170,97.5,162.5,1997
1,Aleksandr Semerenko,Александр Семеренко,Transnistria,57.6,125,140,-145,95,102.5,105,140,-147.5,-147.5,385,60,Amateur Teen 16-17,M,SBD,Wraps,140,105,140,1996
2,Volodimir Sherstyuk,Володимир Шерстюк,Ukraine,60,100,-115,-120,55,60,-65,130,140,-150,300,60,Amateur Teen 16-17,M,SBD,Wraps,100,60,140,1996
1,Vitaliy Muzika,Віталій Музика,Ukraine,67.2,140,155,-170,100,107.5,110,200,215,-225,480,67.5,Amateur Teen 16-17,M,SBD,Wraps,155,110,215,1995
2,Glib Somkin,Гліб Сьомкін,Ukraine,67.2,-150,160,170,90,100,-105,170,180,-190,450,67.5,Amateur Teen 16-17,M,SBD,Wraps,170,100,180,1995
1,Devid Friga,Девід Фріга,Ukraine,73,-160,170,-180,110,115,-120,170,190,200,485,75,Amateur Teen 16-17,M,SBD,Wraps,170,115,200,1996
DQ,Yaroslav Skakunov,Ярослав Скакунов,Ukraine,78,-140,-150,,,,,,,,,82.5,Amateur Teen 16-17,M,SBD,Wraps,,,,1995
1,Andriy Karaban,Андрій Карабан,Ukraine,87.3,160,170,-175,110,120,-125,210,220,225,515,90,Amateur Teen 16-17,M,SBD,Wraps,170,120,225,1997
1,Vladislav Gurtovenko,Владислав Гуртовенко,Ukraine,108.9,195,210,221,130,137.5,-142.5,182.5,190,202.5,561,110,Amateur Teen 16-17,M,SBD,Wraps,221,137.5,202.5,1995
1,Maksim Markevich,Максим Маркевич,Ukraine,66.5,140,-150,-155,85,92.5,-97.5,150,162.5,172.5,405,67.5,Amateur Teen 18-19,M,SBD,Wraps,140,92.5,172.5,1994
2,Daniel Popa,Даниель Попа,Moldova,67,135,150,-165,95,100,105,145,-157.5,-157.5,400,67.5,Amateur Teen 18-19,M,SBD,Wraps,150,105,145,1993
1,Vladimir Podgornyy,Владимир Подгорный,Moldova,73.9,175,182.5,190,117.5,122.5,-127.5,205,215,-225,527.5,75,Amateur Teen 18-19,M,SBD,Wraps,190,122.5,215,1993
1,Yuriy Masloyan,Юрій Маслоян,Ukraine,81.4,210,-220,220,122.5,130,132.5,180,200,-207.5,552.5,82.5,Amateur Teen 18-19,M,SBD,Wraps,220,132.5,200,1994
1,Oleg Omelyanenko,Олег Омельяненко,Ukraine,99.3,-170,170,-185,130,140,-145,170,190,-215,500,100,Amateur Teen 18-19,M,SBD,Wraps,170,140,190,1993
1,Dmitro Nekhaenko,Дмитро Нехаєнко,Ukraine,73.8,150,160,170,110,-115,115,150,-170,-170,435,75,Amateur Juniors 20-23,M,SBD,Wraps,170,115,150,1991
1,Maksim Mosinov,Максим Мосінов,Ukraine,89.7,195,202.5,-207.5,140,147.5,150,220,230,240,592.5,90,Amateur Juniors 20-23,M,SBD,Wraps,202.5,150,240,1991
1,Andriy Shchetinin,Андрій Щетінін,Ukraine,91.1,230,240,-245,135,145,147.5,250,262.5,270,657.5,100,Amateur Juniors 20-23,M,SBD,Wraps,240,147.5,270,1990
2,Aleksandr Danilchenko,Александр Данильченко,Moldova,94.8,165,-185,-200,140,150,-155,200,220,-235,535,100,Amateur Juniors 20-23,M,SBD,Wraps,165,150,220,1990
3,Danilo Udovik,Данило Удовик,Ukraine,93.9,162.5,-170,170,105,-110,110,170,-180,-180,450,100,Amateur Juniors 20-23,M,SBD,Wraps,170,110,170,1992
1,Vitaliy Muzika,Віталій Музика,Ukraine,67.2,140,155,-170,100,107.5,110,200,215,-225,480,67.5,Amateur Open,M,SBD,Wraps,155,110,215,1995
2,Sergiy Toporen,Сергій Топорен,Ukraine,67.3,135,-150,-165,100,105,-110,120,135,,375,67.5,Amateur Open,M,SBD,Wraps,135,105,135,1987
1,Sergiy Koblitskiy,Сергій Коблицький,Ukraine,72.9,-195,200,212.5,140,145,-150,210,230,242.5,600,75,Amateur Open,M,SBD,Wraps,212.5,145,242.5,1987
2,Andriy Besedin,Андрій Беседін,Ukraine,74,170,-185,190,120,127.5,-132.5,185,197.5,210,527.5,75,Amateur Open,M,SBD,Wraps,190,127.5,210,1984
3,Vasil Pashkevich,Василь Пашкевич,Ukraine,74.3,172.5,177.5,185,147.5,152.5,155,175,182.5,187.5,527.5,75,Amateur Open,M,SBD,Wraps,185,155,187.5,1988
4,Mikola Semikin,Микола Семікін,Ukraine,72,150,160,-170,122.5,127.5,-132.5,-170,170,-185,457.5,75,Amateur Open,M,SBD,Wraps,160,127.5,170,1986
1,Vyacheslav Perekhrest,Вячеслав Перехрест,Ukraine,81.7,180,190,-200,145,-152.5,-152.5,207.5,215,,550,82.5,Amateur Open,M,SBD,Wraps,190,145,215,1984
2,Viktor Shulyak,Віктор Шуляк,Ukraine,82.5,180,-190,190,135,140,-145,200,210,220,550,82.5,Amateur Open,M,SBD,Wraps,190,140,220,1965
3,Viktor Sokolovskiy,Виктор Соколовский,Moldova,80.2,180,-190,-190,-125,-125,125,200,-215,-215,505,82.5,Amateur Open,M,SBD,Wraps,180,125,200,1976
DQ,Igor Zhuk #1,Игорь Жук,Ukraine,81.7,-210,-210,-210,,,,,,,,82.5,Amateur Open,M,SBD,Wraps,,,,1988
1,Vagif Akhmadzade Camal,,Azerbaijan,97.9,-190,-190,190,120,125,130,210,220,-222.5,540,100,Amateur Open,M,SBD,Wraps,190,130,220,1984
2,Oleg Eletskiy,Олег Єлецький,Ukraine,99.7,185,195,-205,107.5,115,-120,200,220,-232.5,530,100,Amateur Open,M,SBD,Wraps,195,115,220,1980
1,Vitaliy Alekseev,Віталій Алексеєв,Ukraine,109,-240,-240,240,160,170,180,280,300,,720,110,Amateur Open,M,SBD,Wraps,240,180,300,1988
2,Sergiy Bessel,Сергій Бессель,Ukraine,107.5,240,252.5,-260,167.5,-172.5,172.5,240,255,262.5,687.5,110,Amateur Open,M,SBD,Wraps,252.5,172.5,262.5,1984
3,Ruslan Rudiy,Руслан Рудий,Ukraine,110,-250,250,-270,145,152.5,155,245,260,-285,665,110,Amateur Open,M,SBD,Wraps,250,155,260,1978
4,Artem Prisyazhniy,Артем Присяжний,Ukraine,106.9,225,-240,-240,-155,155,-160,265,-275,-285,645,110,Amateur Open,M,SBD,Wraps,225,155,265,1981
5,Yuriy Shinkaruk,Юрій Шинкарук,Ukraine,106.7,180,200,220,150,160,165,180,210,,595,110,Amateur Open,M,SBD,Wraps,220,165,210,1976
1,Andrey Shmorgun,Андрей Шморгун,Russia,124.8,235,250,255,175,185,190,250,270,-277.5,715,125,Amateur Open,M,SBD,Wraps,255,190,270,1984
1,Sergiy Yakubishin,Сергій Якубишин,Ukraine,92.4,150,160,170,100,110,,150,,,430,100,Amateur Submasters 33-39,M,SBD,Wraps,170,110,150,1978
1,Yuriy Shinkaruk,Юрій Шинкарук,Ukraine,106.7,180,200,220,150,160,165,180,210,,595,110,Amateur Submasters 33-39,M,SBD,Wraps,220,165,210,1976
1,Viktor Shulyak,Віктор Шуляк,Ukraine,82.5,180,-190,190,135,140,-145,200,210,220,550,82.5,Amateur Masters 45-49,M,SBD,Wraps,190,140,220,1965
1,Oleksiy Sheychenko,Олексій Шейченко,Ukraine,90.1,130,150,-160,100,105,-107.5,160,175,180,435,100,Amateur Masters 45-49,M,SBD,Wraps,150,105,180,1965
1,Sergiy Kolesnik,Сергей Колесник,Ukraine,97.8,180,190,200,130,140,145,190,205,215,560,100,Amateur Masters 50-54,M,SBD,Wraps,200,145,215,1963
1,Yuriy Khanov,Юрій Ханов,Ukraine,106,-190,-190,190,110,120,125,180,200,-210,515,110,Amateur Masters 50-54,M,SBD,Wraps,190,125,200,1963
1,Volodimir Vasilenko,Володимир Василенко,Ukraine,76.2,100,110,120,60,65,67.5,130,145,152.5,340,82.5,Amateur Masters 65-69,M,SBD,Wraps,120,67.5,152.5,1943
1,Vasil Pashkevich,Василь Пашкевич,Ukraine,74.3,172.5,177.5,185,147.5,152.5,155,175,182.5,187.5,527.5,75,Amateur Military/Fire/Police,M,SBD,Wraps,185,155,187.5,1988
DQ,Illya Korobov,Ілля Коробов,Ukraine,82.4,-190,-190,-190,,,,,,,,82.5,Amateur Military/Fire/Police,M,SBD,Wraps,,,,1993
1,Vyacheslav Glushpenko,Вячеслав Глушпенко,Ukraine,89.1,-200,205,-210,130,-135,-135,225,235,-240,570,90,Amateur Military/Fire/Police,M,SBD,Wraps,205,130,235,1980
1,Olena Koroeva,Олена Короєва,Ukraine,59.7,-125,125,130,65,-67.5,67.5,115,122.5,-127.5,320,60,Amateur Open,F,SBD,Wraps,130,67.5,122.5,1983
1,Andriy Dyatlov,Андрій Дятлов,Ukraine,82.5,280,-300,-305,190,200,207.5,245,-260,,732.5,82.5,Amateur Open,M,SBD,Wraps,280,207.5,245,1985
1,Roman Saliy,Роман Салій,Ukraine,90,280,300,310,160,-180,-180,260,270,280,750,90,Amateur Open,M,SBD,Wraps,310,160,280,1980
1,Andriy Dyatlov,Андрій Дятлов,Ukraine,82.5,280,-300,-305,190,200,207.5,245,-260,,732.5,82.5,Amateur Military/Fire/Police,M,SBD,Wraps,280,207.5,245,1985
1,Elizaveta Chernikova,Єлизавета Чернікова,Ukraine,43.2,,,,37.5,-45,-45,,,,37.5,44,Amateur Teen 13-15,F,B,Raw,,37.5,,1999
1,Yuliya Gamurar,Юлія Гамурар,Ukraine,61.2,,,,52.5,57.5,-62.5,,,,57.5,67.5,Amateur Teen 13-15,F,B,Raw,,57.5,,1998
1,Anna Pavlovskaya,Анна Павловская,Russia,48,,,,50,-52.5,-55,,,,50,48,Amateur Teen 16-17,F,B,Raw,,50,,1997
1,Alona Mazurenko,Альона Мазуренко,Ukraine,50.5,,,,30,35,40,,,,40,52,Amateur Teen 16-17,F,B,Raw,,40,,1996
1,Diana Korobova,Діана Коробова,Ukraine,59,,,,50,-55,-55,,,,50,60,Amateur Teen 18-19,F,B,Raw,,50,,1994
1,Irina Zadikiyan,Ірина Задікіян,Ukraine,42,,,,30,32.5,-35,,,,32.5,44,Amateur Open,F,B,Raw,,32.5,,1983
1,Olena Pshenichna,Олена Пшенична,Ukraine,47.2,,,,42.5,47.5,-50,,,,47.5,48,Amateur Open,F,B,Raw,,47.5,,1977
2,Anna Savon,Анна Савон,Ukraine,47.1,,,,-42.5,42.5,-45,,,,42.5,48,Amateur Open,F,B,Raw,,42.5,,1986
1,Olena Tarasova,Олена Тарасова,Ukraine,52,,,,52.5,-57.5,57.5,,,,57.5,52,Amateur Open,F,B,Raw,,57.5,,1984
2,Olga Fiskun,Ольга Фискун,Moldova,49.2,,,,-50,-50,50,,,,50,52,Amateur Open,F,B,Raw,,50,,1987
1,Mariya Markovich,Марія Маркович,Ukraine,55.3,,,,45,50,-52.5,,,,50,56,Amateur Open,F,B,Raw,,50,,1985
2,Olga Sinitska,Ольга Синицька,Ukraine,52.5,,,,45,-50,-50,,,,45,56,Amateur Open,F,B,Raw,,45,,1989
DQ,Marina Durova,Марина Дурова,Ukraine,54.7,,,,-72.5,-72.5,-72.5,,,,,56,Amateur Open,F,B,Raw,,,,1984
1,Mariya Galiga,Марія Галига,Ukraine,56.2,,,,35,-37.5,-37.5,,,,35,60,Amateur Open,F,B,Raw,,35,,1981
1,Tetyana Dudnik,Тетяна Дудник,Ukraine,74.6,,,,75,-82.5,-82.5,,,,75,75,Amateur Open,F,B,Raw,,75,,1983
2,Tetyana Dzhevinska,Тетяна Джевінська,Ukraine,74.5,,,,60,-62.5,-62.5,,,,60,75,Amateur Open,F,B,Raw,,60,,1984
1,Svitlana Klochkova,Світлана Клочкова,Ukraine,51.2,,,,37.5,-40,-40,,,,37.5,52,Amateur Masters 40-44,F,B,Raw,,37.5,,1968
1,Oksana Muzika,Оксана Музика,Ukraine,67.2,,,,62.5,-70,,,,,62.5,67.5,Amateur Masters 40-44,F,B,Raw,,62.5,,1969
1,Irina Tikhonova,Ірина Тіхонова,Ukraine,70.7,,,,60,-65,,,,,60,75,Amateur Masters 40-44,F,B,Raw,,60,,1970
1,Maksim Yakushchenko,Максим Якущенко,Ukraine,63,,,,75,80,82.5,,,,82.5,67.5,Amateur Children 11-12,M,B,Raw,,82.5,,2000
1,Dmitriy Kokhanskiy,Дмитрий Коханский,Transnistria,51.6,,,,45,50,-55,,,,50,52,Amateur Teen 13-15,M,B,Raw,,50,,1997
1,Dmitriy Kamennyy,Дмитрий Каменный,Transnistria,52.5,,,,75,80,-85,,,,80,56,Amateur Teen 13-15,M,B,Raw,,80,,1997
2,Evgeniy Zadorozhnyuk,Евгений Задорожнюк,Transnistria,55,,,,52.5,-57.5,57.5,,,,57.5,56,Amateur Teen 13-15,M,B,Raw,,57.5,,1997
1,Yaroslav Pushkar,Ярослав Пушкарь,Ukraine,59.9,,,,-100,100,-105,,,,100,60,Amateur Teen 13-15,M,B,Raw,,100,,1997
1,Vyacheslav Chigrin,Вячеслав Чигрин,Ukraine,61.2,,,,70,75,-80,,,,75,67.5,Amateur Teen 13-15,M,B,Raw,,75,,1997
1,Evgen Vishnevskiy,Євген Вишневський,Ukraine,55.5,,,,85,90,-92.5,,,,90,56,Amateur Teen 16-17,M,B,Raw,,90,,1995
1,Dmitro Shchotka,Дмитро Щотка,Ukraine,60,,,,70,77.5,-80,,,,77.5,60,Amateur Teen 16-17,M,B,Raw,,77.5,,1997
DQ,Aleksandr Semerenko,Александр Семеренко,Transnistria,57.6,,,,-105,-105,-105,,,,,60,Amateur Teen 16-17,M,B,Raw,,,,1996
1,Dmitro Chadov,Дмитро Чадов,Ukraine,64.9,,,,90,95,100,,,,100,67.5,Amateur Teen 16-17,M,B,Raw,,100,,1996
DD,Volodimir Kolisnik,Володимир Колісник,Ukraine,67.5,,,,120,132.5,137.5,,,,,67.5,Amateur Teen 16-17,M,B,Raw,,137.5,,1997
1,Ivan Tyutyunnik,Іван Тютюнник,Ukraine,88.1,,,,135,-140,-140,,,,135,90,Amateur Teen 16-17,M,B,Raw,,135,,1995
2,Oleksandr Stetsenko,Олександр Стеценко,Ukraine,82.7,,,,90,100,102.5,,,,102.5,90,Amateur Teen 16-17,M,B,Raw,,102.5,,1996
1,Sergiy Perezhilov,Сергій Пережилов,Ukraine,123.5,,,,90,100,110,,,,110,125,Amateur Teen 16-17,M,B,Raw,,110,,1997
1,Pavlo Perevozchikov,Павло Перевозчиков,Ukraine,59.6,,,,107.5,115,-117.5,,,,115,60,Amateur Teen 18-19,M,B,Raw,,115,,1994
1,Daniel Popa,Даниель Попа,Moldova,67,,,,100,105,-110,,,,105,67.5,Amateur Teen 18-19,M,B,Raw,,105,,1993
1,Ivan Romanchuk,Иван Романчук,Transnistria,74.7,,,,130,135,140,,,,140,75,Amateur Teen 18-19,M,B,Raw,,140,,1995
2,Sergiy Dreshpak,Сергій Дрешпак,Ukraine,71,,,,120,130,-137.5,,,,130,75,Amateur Teen 18-19,M,B,Raw,,130,,1994
3,Ivan Gritsyuk,Іван Грицюк,Ukraine,74.7,,,,120,130,-137.5,,,,130,75,Amateur Teen 18-19,M,B,Raw,,130,,1994
4,Artem Galoyan,Артем Галоян,Ukraine,74.1,,,,80,90,-100,,,,90,75,Amateur Teen 18-19,M,B,Raw,,90,,1994
1,Stepan Malik,Степан Малик,Ukraine,78.8,,,,120,132.5,137.5,,,,137.5,82.5,Amateur Teen 18-19,M,B,Raw,,137.5,,1995
2,Vyacheslav Yakubchak,В'ячеслав Якубчак,Ukraine,80.8,,,,125,-130,-132.5,,,,125,82.5,Amateur Teen 18-19,M,B,Raw,,125,,1995
1,Evgen Kliminyuk,Євген Климинюк,Ukraine,51.2,,,,100,107.5,-110,,,,107.5,52,Amateur Juniors 20-23,M,B,Raw,,107.5,,1989
1,Evgen Begalyuk,Євген Бегалюк,Ukraine,74,,,,135,-145,-145,,,,135,75,Amateur Juniors 20-23,M,B,Raw,,135,,1992
2,Dmitro Nikolaenko,Дмитро Ніколаєнко,Ukraine,74.2,,,,115,-125,132.5,,,,132.5,75,Amateur Juniors 20-23,M,B,Raw,,132.5,,1989
3,Sergiy Lyashko,Сергій Ляшко,Ukraine,72.5,,,,130,-135,-135,,,,130,75,Amateur Juniors 20-23,M,B,Raw,,130,,1990
1,Valeriy Khorechko,Валерій Хоречко,Ukraine,80,,,,170,177.5,-185,,,,177.5,82.5,Amateur Juniors 20-23,M,B,Raw,,177.5,,1992
2,Sergiy Marushkin,Сергій Марушкін,Ukraine,81.7,,,,115,120,-125,,,,120,82.5,Amateur Juniors 20-23,M,B,Raw,,120,,1992
3,Petr Zavrichko,Петр Завричко,Transnistria,76,,,,-110,110,-120,,,,110,82.5,Amateur Juniors 20-23,M,B,Raw,,110,,1993
1,Evgen Moiseev,Євген Моісєєв,Ukraine,87,,,,170,-175,-175,,,,170,90,Amateur Juniors 20-23,M,B,Raw,,170,,1991
1,Volodimir Lyashko,Володимир Ляшко,Ukraine,108.9,,,,145,-155,-155,,,,145,110,Amateur Juniors 20-23,M,B,Raw,,145,,1990
1,Dmitriy Kamennyy,Дмитрий Каменный,Transnistria,52.5,,,,75,80,-85,,,,80,56,Amateur Open,M,B,Raw,,80,,1997
1,Aleksandr Miroshnichenko,Олександр Мирошніченко,Moldova,59.6,,,,120,-125,127.5,,,,127.5,60,Amateur Open,M,B,Raw,,127.5,,1987
1,Dmitriy Teplyakov,Дмитрий Тепляков,Russia,66.5,,,,125,130,-135,,,,130,67.5,Amateur Open,M,B,Raw,,130,,1974
2,Evgen Klochkov,Євген Клочков,Ukraine,67.3,,,,-95,95,-102.5,,,,95,67.5,Amateur Open,M,B,Raw,,95,,1989
1,Volodimir Veduta,Володимир Ведута,Ukraine,73.6,,,,140,145,-150,,,,145,75,Amateur Open,M,B,Raw,,145,,1981
2,Sergey Konkov,Сергей Коньков,Russia,73.5,,,,130,140,-150,,,,140,75,Amateur Open,M,B,Raw,,140,,1953
3,Igor Savin,Ігор Савін,Ukraine,73.8,,,,130,137.5,-142.5,,,,137.5,75,Amateur Open,M,B,Raw,,137.5,,1987
4,Konstantin Volchinskiy,Константин Волчинский,Transnistria,73.2,,,,120,-130,-130,,,,120,75,Amateur Open,M,B,Raw,,120,,1964
5,Sergiy Kazantsev,Сергій Казанцев,Ukraine,73.6,,,,105,110,115,,,,115,75,Amateur Open,M,B,Raw,,115,,1981
1,Oleg Slyusar,Олег Слюсар,Ukraine,90,,,,180,185,191,,,,191,90,Amateur Open,M,B,Raw,,191,,1972
2,Evgen Moiseev,Євген Моісєєв,Ukraine,87,,,,170,-175,-175,,,,170,90,Amateur Open,M,B,Raw,,170,,1991
3,Sergiy Velikodniy,Сергій Великодний,Ukraine,86.8,,,,150,157.5,-160,,,,157.5,90,Amateur Open,M,B,Raw,,157.5,,1981
DD,Dawid Kijewski,,Poland,87.9,,,,165,175,-180,,,,,90,Amateur Open,M,B,Raw,,175,,1988
1,Volodimir Ukhach,Володимир Ухач,Ukraine,99,,,,175,185,190,,,,190,100,Amateur Open,M,B,Raw,,190,,1960
2,Andrey Smirnov,Андрей Смирнов,Russia,97.1,,,,155,-165,165,,,,165,100,Amateur Open,M,B,Raw,,165,,1979
3,Oleksiy Krivets,Олексій Кривець,Ukraine,99,,,,155,-167.5,-167.5,,,,155,100,Amateur Open,M,B,Raw,,155,,1983
4,Vasil Moroz,Василь Мороз,Ukraine,93.7,,,,120,130,132.5,,,,132.5,100,Amateur Open,M,B,Raw,,132.5,,1980
1,Dmitriy Tenetko,Дмитрий Тенетко,Russia,109.9,,,,215,220,-227.5,,,,220,110,Amateur Open,M,B,Raw,,220,,1975
1,Sergey Bobchikhin,Сергей Бобчихин,Russia,120.9,,,,200,210,-215,,,,210,125,Amateur Open,M,B,Raw,,210,,1975
2,V'Yacheslav Chmelov,В'Ячеслав Чмельов,Ukraine,120.3,,,,200,-207.5,-210,,,,200,125,Amateur Open,M,B,Raw,,200,,1988
3,Igor Tikhomirov,Игорь Тихомиров,Russia,122.8,,,,165,170,175,,,,175,125,Amateur Open,M,B,Raw,,175,,1976
1,Dmitriy Teplyakov,Дмитрий Тепляков,Russia,66.5,,,,125,130,-135,,,,130,67.5,Amateur Submasters 33-39,M,B,Raw,,130,,1974
1,Andriy Gorbik,Андрій Горбик,Ukraine,82.4,,,,140,-150,-150,,,,140,82.5,Amateur Submasters 33-39,M,B,Raw,,140,,1979
1,Vadim Penkov,Вадим Пеньков,Ukraine,88.9,,,,150,160,-170,,,,160,90,Amateur Submasters 33-39,M,B,Raw,,160,,1973
1,Vasil Moroz,Василь Мороз,Ukraine,93.7,,,,120,130,132.5,,,,132.5,100,Amateur Submasters 33-39,M,B,Raw,,132.5,,1980
1,Igor Tikhomirov,Игорь Тихомиров,Russia,122.8,,,,165,170,175,,,,175,125,Amateur Submasters 33-39,M,B,Raw,,175,,1976
1,Oleg Slyusar,Олег Слюсар,Ukraine,90,,,,180,185,191,,,,191,90,Amateur Masters 40-44,M,B,Raw,,191,,1972
1,Evgeniy Krashanovskiy,Євгеній Крашановський,Ukraine,99.4,,,,-175,175,180,,,,180,100,Amateur Masters 40-44,M,B,Raw,,180,,1970
2,Oleg Ryabokon,Олег Рябоконь,Russia,94.1,,,,167.5,-172.5,-175,,,,167.5,100,Amateur Masters 40-44,M,B,Raw,,167.5,,1970
1,Ruslan Pilipchuk,Руслан Пилипчук,Ukraine,100.3,,,,152.5,157.5,-160,,,,157.5,110,Amateur Masters 40-44,M,B,Raw,,157.5,,1970
2,Dmitro Grigorev,Дмитро Григорьєв,Ukraine,108.4,,,,-150,150,-160,,,,150,110,Amateur Masters 40-44,M,B,Raw,,150,,1971
1,Konstantin Volchinskiy,Константин Волчинский,Transnistria,73.2,,,,120,-130,-130,,,,120,75,Amateur Masters 45-49,M,B,Raw,,120,,1964
1,Igor Marunich,Ігор Марунич,Russia,81.8,,,,150,-157.5,-157.5,,,,150,82.5,Amateur Masters 45-49,M,B,Raw,,150,,1967
DQ,Gasan Garumov,Гасан Гарумов,Ukraine,81.3,,,,-90,-90,-90,,,,,82.5,Amateur Masters 45-49,M,B,Raw,,,,1963
1,Pavlo Gavrilyuk,Павло Гаврилюк,Ukraine,96.9,,,,130,-137.5,140,,,,140,100,Amateur Masters 45-49,M,B,Raw,,140,,1963
1,Volodimir Ukhach,Володимир Ухач,Ukraine,99,,,,175,185,190,,,,190,100,Amateur Masters 50-54,M,B,Raw,,190,,1960
1,Igor Zvezdin,Игорь Звездин,Russia,112.5,,,,100,110,115,,,,115,125,Amateur Masters 50-54,M,B,Raw,,115,,1958
1,Oleksiy Panskiy,Олексій Панський,Ukraine,98.7,,,,-105,105,-107.5,,,,105,100,Amateur Masters 55-59,M,B,Raw,,105,,1956
1,Andriy Laytan,Андрій Лайтан,Ukraine,123,,,,120,130,-137.5,,,,130,125,Amateur Masters 55-59,M,B,Raw,,130,,1957
1,Sergey Konkov,Сергей Коньков,Russia,73.5,,,,130,140,-150,,,,140,75,Amateur Masters 60-64,M,B,Raw,,140,,1953
1,Sergiy Marushkin,Сергій Марушкін,Ukraine,81.7,,,,115,120,-125,,,,120,82.5,Amateur Military/Fire/Police,M,B,Raw,,120,,1992
1,Oleksandr Mityagin,Олександр Мітягін,Ukraine,90,,,,150,-157.5,-157.5,,,,150,90,Amateur Military/Fire/Police,M,B,Raw,,150,,1979
1,Oleksiy Mityagin,Олексій Мітягін,Ukraine,118,,,,150,162.5,-182.5,,,,162.5,125,Amateur Military/Fire/Police,M,B,Raw,,162.5,,1978
1,Vitaliy Gayday,Віталій Гайдай,Ukraine,70,,,,130,135,137.5,,,,137.5,75,Amateur Teen 18-19,M,B,Multi-ply,,137.5,,1994
1,Andriy Denisov,Андрій Денисов,Ukraine,64.1,,,,-130,130,-140,,,,130,67.5,Amateur Juniors 20-23,M,B,Multi-ply,,130,,1989
1,Andriy Dyatlov,Андрій Дятлов,Ukraine,82.5,,,,190,200,,,,,200,82.5,Amateur Open,M,B,Multi-ply,,200,,1985
1,Cergiy Makeenko,Сергій Макеєнко,Ukraine,89.4,,,,185,-190,190,,,,190,90,Amateur Open,M,B,Multi-ply,,190,,1964
1,Sergiy Sidorchuk,Сергій Сидорчук,Ukraine,92.3,,,,170,-180,180,,,,180,100,Amateur Open,M,B,Multi-ply,,180,,1981
1,Valeriy Kurochkin,Валерий Курочкин,Russia,102.8,,,,255,265,-275,,,,265,110,Amateur Open,M,B,Multi-ply,,265,,1978
1,Aleksey Ventsov,Алексей Венцов,Russia,112.7,,,,220,230,240,,,,240,125,Amateur Open,M,B,Multi-ply,,240,,1981
1,Svitlana Dyagileva,Світлана Дягілева,Ukraine,57.5,,,,-60,60,-72.5,,,,60,60,Amateur Submasters 33-39,F,B,Multi-ply,,60,,1977
1,Sergiy Makeenko,Сергій Макеєнко,Ukraine,89.4,,,,185,-190,190,,,,190,90,Amateur Masters 45-49,M,B,Multi-ply,,190,,1964
1,Andriy Denisov,Андрій Денисов,Ukraine,64.1,,,,-130,130,-140,,,,130,67.5,Amateur Military/Fire/Police,M,B,Multi-ply,,130,,1989
1,Andriy Dyatlov,Андрій Дятлов,Ukraine,82.5,,,,190,200,,,,,200,82.5,Amateur Military/Fire/Police,M,B,Multi-ply,,200,,1985
1,Anna Kurkurina,Анна Куркуріна,Ukraine,73.7,,,,120,130,135,,,,135,75,Pro Open,F,B,Raw,,135,,1966
1,Nataliya Penkova,Наталія Пенькова,Ukraine,62.6,,,,35,-40,,,,,35,67.5,Pro Masters 45-49,F,B,Raw,,35,,1965
1,Lyudmila Tsvetkova,Людмила Цветкова,Ukraine,55.4,,,,52.5,57.5,-60,,,,57.5,56,Pro Masters 50-54,F,B,Raw,,57.5,,1961
1,Dmitro Bodrov,Дмитро Бодров,Ukraine,46.7,,,,-30,30,-32.5,,,,30,48,Pro Children 11-12,M,B,Raw,,30,,2000
1,Vladislav Bondarenko,Владислав Бондаренко,Ukraine,38.1,,,,50,-55,-55,,,,50,44,Pro Teen 13-15,M,B,Raw,,50,,1999
1,Petr Chekushkin,Петр Чекушкин,Transnistria,62.4,,,,-95,95,-100,,,,95,67.5,Pro Teen 13-15,M,B,Raw,,95,,1997
1,Anton Yablokov,Антон Яблоков,Moldova,66.9,,,,87.5,92.5,-97.5,,,,92.5,67.5,Pro Teen 18-19,M,B,Raw,,92.5,,1994
1,Eldar Gasanov,Ельдар Гасанов,Ukraine,80.8,,,,125,135,140,,,,140,82.5,Pro Teen 18-19,M,B,Raw,,140,,1993
1,Mikita Kolomiza,Микита Коломиза,Ukraine,85.2,,,,115,125,130,,,,130,90,Pro Teen 18-19,M,B,Raw,,130,,1994
1,Yuriy Grudko,Юрій Грудко,Ukraine,75.1,,,,120,130,135,,,,135,82.5,Pro Juniors 20-23,M,B,Raw,,135,,1990
2,Oleksiy Rubinov,Олексій Рубінов,Ukraine,78.7,,,,110,120,-132.5,,,,120,82.5,Pro Juniors 20-23,M,B,Raw,,120,,1992
1,Sergiy Derevyaga,Сергій Дерев'Яга,Ukraine,88.1,,,,170,177.5,182.5,,,,182.5,90,Pro Juniors 20-23,M,B,Raw,,182.5,,1992
1,Oleksandr Kostenko,Олександр Костенко,Ukraine,98.4,,,,190,201,-205,,,,201,100,Pro Juniors 20-23,M,B,Raw,,201,,1989
2,Danilo Ryasniy,Данило Рясний,Ukraine,91.5,,,,150,160,165,,,,165,100,Pro Juniors 20-23,M,B,Raw,,165,,1992
3,Nikita Zotov,Никита Зотов,Russia,94.9,,,,165,-175,-175,,,,165,100,Pro Juniors 20-23,M,B,Raw,,165,,1989
4,Andriy Potapenko,Андрій Потапенко,Ukraine,100,,,,150,160,-167.5,,,,160,100,Pro Juniors 20-23,M,B,Raw,,160,,1992
1,Stanislav Tron,Станіслав Тронь,Ukraine,102.4,,,,160,167.5,-172.5,,,,167.5,110,Pro Juniors 20-23,M,B,Raw,,167.5,,1989
1,Erik Gazaryan,Ерік Газарян,Ukraine,64.5,,,,115,120,-122.5,,,,120,67.5,Pro Open,M,B,Raw,,120,,1987
1,Konstantin Zhigulin,Константин Жигулин,Russia,75,,,,155,162.5,165,,,,165,75,Pro Open,M,B,Raw,,165,,1987
2,Dmitro Cherkay,Дмитро Черкай,Ukraine,73.5,,,,155,160,-162.5,,,,160,75,Pro Open,M,B,Raw,,160,,1985
3,Vladislav Severin,Владислав Северин,Ukraine,74.7,,,,155,-160,-160,,,,155,75,Pro Open,M,B,Raw,,155,,1985
DQ,Viktor Papushoy,Виктор Папушой,Russia,73.6,,,,-155,-155,-155,,,,,75,Pro Open,M,B,Raw,,,,1953
DQ,Artur Belous,Артур Белоус,Russia,73.7,,,,-180,-180,-180,,,,,75,Pro Open,M,B,Raw,,,,1985
DQ,Sergiy Melnik,Сергій Мельник,Ukraine,75,,,,-160,-160,-160,,,,,75,Pro Open,M,B,Raw,,,,1982
1,Aleksandr Rassokhin,Александр Рассохин,Russia,82,,,,170,180,-185,,,,180,82.5,Pro Open,M,B,Raw,,180,,1985
2,Andriy Grinishin,Андрій Гринішин,Ukraine,81.9,,,,160,167.5,170,,,,170,82.5,Pro Open,M,B,Raw,,170,,1981
3,Vadim Bilan,Вадим Білан,Ukraine,81.5,,,,160,-165,-167.5,,,,160,82.5,Pro Open,M,B,Raw,,160,,1987
4,Vladimir Belyaev,Владимир Беляев,Russia,82.3,,,,150,-170,-170,,,,150,82.5,Pro Open,M,B,Raw,,150,,1981
1,Aleksandr Shcherbakov,Александр Щербаков,Moldova,89.6,,,,210,215,225,,,,225,90,Pro Open,M,B,Raw,,225,,1966
2,Patryk Szypuła,,Poland,89.3,,,,200,-205,205,,,,205,90,Pro Open,M,B,Raw,,205,,1979
3,Yuriy Zelenyuk,Юрій Зеленюк,Ukraine,90,,,,190,197.5,-202.5,,,,197.5,90,Pro Open,M,B,Raw,,197.5,,1979
4,Yuriy Yaroslavskiy,Юрій Ярославський,Ukraine,90,,,,180,-190,-197.5,,,,180,90,Pro Open,M,B,Raw,,180,,1962
1,Denys Onufriyenko,Денис Онуфрієнко,Ukraine,97.6,,,,225,-232.5,-232.5,,,,225,100,Pro Open,M,B,Raw,,225,,1987
2,Evgen Aleksienko,Євген Алексієнко,Ukraine,99.3,,,,200,-205,,,,,200,100,Pro Open,M,B,Raw,,200,,1976
3,Andriy Lyudkevich,Андрій Людкевич,Ukraine,99.4,,,,-180,180,190,,,,190,100,Pro Open,M,B,Raw,,190,,1985
4,Vadim Grachov,Вадим Грачов,Ukraine,96.7,,,,170,-185,-185,,,,170,100,Pro Open,M,B,Raw,,170,,1988
DQ,Vadim Beredukh,Вадим Бередух,Ukraine,95.8,,,,-185,-185,-185,,,,,100,Pro Open,M,B,Raw,,,,1988
DQ,Vagif Akhmadzade Orkhan,,Azerbaijan,97.7,,,,-160,-175,-182.5,,,,,100,Pro Open,M,B,Raw,,,,1988
DQ,Igor Vinyarskiy,Ігор Вінярський,Ukraine,99.3,,,,,,,,,,,100,Pro Open,M,B,Raw,,,,1983
1,Yakov Granov,Яков Гранов,Russia,109.6,,,,222.5,235,,,,,235,110,Pro Open,M,B,Raw,,235,,1987
2,Oleg Palamarchuk,Олег Паламарчук,Ukraine,110,,,,210,-217.5,-217.5,,,,210,110,Pro Open,M,B,Raw,,210,,1972
3,Maksim Gruzdyuk,Максим Груздюк,Ukraine,109.7,,,,192.5,207.5,-217.5,,,,207.5,110,Pro Open,M,B,Raw,,207.5,,1986
4,Vadim Venglyuk,Вадим Венглюк,Ukraine,103,,,,192.5,200,-207.5,,,,200,110,Pro Open,M,B,Raw,,200,,1987
5,Aleksandr Klimovich,Александр Климович,Russia,105.6,,,,185,190,-195,,,,190,110,Pro Open,M,B,Raw,,190,,1975
6,Andriy Vinnik,Андрій Вінник,Ukraine,105.7,,,,190,-197.5,-197.5,,,,190,110,Pro Open,M,B,Raw,,190,,1983
DQ,Pavlo Melnik,Павло Мельник,Ukraine,108,,,,,,,,,,,110,Pro Open,M,B,Raw,,,,1985
DQ,Ibraim Ibraimov,,Azerbaijan,108,,,,,,,,,,,110,Pro Open,M,B,Raw,,,,1981
1,Ilya Kalininskiy,Илья Калининский,Russia,114.2,,,,-210,-230,230,,,,230,125,Pro Open,M,B,Raw,,230,,1989
2,Miroslav Reshetnikov,Мирослав Решетніков,Ukraine,111,,,,200,210,-220,,,,210,125,Pro Open,M,B,Raw,,210,,1988
3,Rostislav Shulga,Ростислав Шульга,Ukraine,110.5,,,,-200,200,-205,,,,200,125,Pro Open,M,B,Raw,,200,,1979
4,Dmitro Zhvaviy,Дмитро Жвавий,Ukraine,114.3,,,,195,-205,-205,,,,195,125,Pro Open,M,B,Raw,,195,,1978
5,Evgen Zadorozhniy,Євген Задорожний,Ukraine,115.9,,,,130,140,-145,,,,140,125,Pro Open,M,B,Raw,,140,,1984
1,Oleksandr Shvab,Олександр Шваб,Ukraine,126.8,,,,142.5,,,,,,142.5,140,Pro Open,M,B,Raw,,142.5,,1976
1,Yuriy Zelenyuk,Юрій Зеленюк,Ukraine,90,,,,190,197.5,-202.5,,,,197.5,90,Pro Submasters 33-39,M,B,Raw,,197.5,,1979
2,Nikolay Smirnyy,Николай Смирный,Transnistria,86.3,,,,150,157.5,160,,,,160,90,Pro Submasters 33-39,M,B,Raw,,160,,1975
1,Sergiy Sorokin,Сергій Сорокін,Ukraine,97.1,,,,130,-135,-135,,,,130,100,Pro Submasters 33-39,M,B,Raw,,130,,1979
1,Aleksandr Klimovich,Александр Климович,Russia,105.6,,,,185,190,-195,,,,190,110,Pro Submasters 33-39,M,B,Raw,,190,,1975
1,Dmitro Zhvaviy,Дмитро Жвавий,Ukraine,114.3,,,,195,-205,-205,,,,195,125,Pro Submasters 33-39,M,B,Raw,,195,,1978
1,Rostislav Bondarenko,Ростислав Бондаренко,Ukraine,86.5,,,,170,-175,,,,,170,90,Pro Masters 40-44,M,B,Raw,,170,,1972
2,Roman Perevyazko,Роман Перевязко,Ukraine,89.1,,,,-120,-120,120,,,,120,90,Pro Masters 40-44,M,B,Raw,,120,,1968
DQ,Vadim Chekhanyuk,Вадим Чеханюк,Ukraine,86.9,,,,-160,-160,-160,,,,,90,Pro Masters 40-44,M,B,Raw,,,,1970
1,Temur Yuldashev,Темур Юлдашев,Ukraine,99.2,,,,185,-192.5,-192.5,,,,185,100,Pro Masters 40-44,M,B,Raw,,185,,1969
2,Pavlo Kipnyak,Павло Кіпняк,Ukraine,99.4,,,,145,-150,-150,,,,145,100,Pro Masters 40-44,M,B,Raw,,145,,1969
3,Ruslan Evloev,Руслан Євлоєв,Ukraine,93.6,,,,-130,135,-155,,,,135,100,Pro Masters 40-44,M,B,Raw,,135,,1970
1,Oleg Palamarchuk,Олег Паламарчук,Ukraine,110,,,,210,-217.5,-217.5,,,,210,110,Pro Masters 40-44,M,B,Raw,,210,,1972
1,Mikhaylo Pitinov,Михайло Пітінов,Ukraine,119.8,,,,140,-155,-155,,,,140,125,Pro Masters 40-44,M,B,Raw,,140,,1971
1,Igor Chumak,Ігор Чумак,Ukraine,74,,,,-115,115,125,,,,125,75,Pro Masters 45-49,M,B,Raw,,125,,1965
1,Igor Paraskeva,Игорь Параскева,Moldova,81,,,,120,-130,140,,,,140,82.5,Pro Masters 45-49,M,B,Raw,,140,,1964
1,Igor Lyutnitskiy,Ігор Лютницький,Ukraine,105,,,,105,-110,-112.5,,,,105,110,Pro Masters 45-49,M,B,Raw,,105,,1965
1,Andriy Gimbarov,Андрій Гімбаров,Ukraine,110.5,,,,155,165,-172.5,,,,165,125,Pro Masters 45-49,M,B,Raw,,165,,1966
1,Oleksandr Kalkutin,Олександр Калкутін,Ukraine,132.4,,,,180,-190,-190,,,,180,140,Pro Masters 45-49,M,B,Raw,,180,,1965
1,Igor Oshurkevich,Ігор Ошуркевич,Ukraine,73.3,,,,-80,90,-100,,,,90,75,Pro Masters 50-54,M,B,Raw,,90,,1962
1,Yuriy Osadchenko,Юрій Осадченко,Ukraine,81.6,,,,155,160,-165,,,,160,82.5,Pro Masters 50-54,M,B,Raw,,160,,1961
2,Dmitro Cherevatenko,Дмитро Череватенко,Ukraine,81.7,,,,105,112.5,-120,,,,112.5,82.5,Pro Masters 50-54,M,B,Raw,,112.5,,1960
1,Yuriy Yaroslavskiy,Юрій Ярославський,Ukraine,90,,,,180,-190,-197.5,,,,180,90,Pro Masters 50-54,M,B,Raw,,180,,1962
1,Mikhaylo Geenko,Михайло Геєнко,Ukraine,107.4,,,,155,-160,160,,,,160,110,Pro Masters 50-54,M,B,Raw,,160,,1963
1,Oleksiy Khromenkov,Олексій Хроменков,Ukraine,98,,,,127.5,135,140.5,,,,140,100,Pro Masters 55-59,M,B,Raw,,140.5,,1957
2,Sergiy Denisov,Сергій Денисов,Ukraine,99.1,,,,130,137.5,-142.5,,,,137.5,100,Pro Masters 55-59,M,B,Raw,,137.5,,1956
1,Volodimir Lizurchik,Володимир Лізурчик,Ukraine,107.4,,,,-170,175,-182.5,,,,175,110,Pro Masters 55-59,M,B,Raw,,175,,1958
DQ,Viktor Papushoy,Виктор Папушой,Russia,73.6,,,,-155,-155,-155,,,,,75,Pro Masters 60-64,M,B,Raw,,,,1953
1,Viktor Glushenko,Віктор Глушенко,Ukraine,66.2,,,,95,105,-110,,,,105,67.5,Pro Masters 70-74,M,B,Raw,,105,,1942
1,Vyacheslav Tsiganok,Вячеслав Циганок,Ukraine,97.7,,,,-130,130,-138,,,,130,100,Pro Masters 70-74,M,B,Raw,,130,,1938
1,Konstyantin Grabovskiy,Констянтин Грабовський,Ukraine,89,,,,200,-205,-205,,,,200,90,Pro Military/Fire/Police,M,B,Raw,,200,,1976
1,Oleksandr Onishchenko,Олександр Оніщенко,Ukraine,93.5,,,,190,-200,-200,,,,190,100,Pro Military/Fire/Police,M,B,Raw,,190,,1980
1,Vladislav Bondarenko,Владислав Бондаренко,Ukraine,38.1,,,,-55,55,-60,,,,55,44,Pro Teen 13-15,M,B,Multi-ply,,55,,1999
1,Sergiy Pavlenko,Сергій Павленко,Ukraine,72.3,,,,110,-120,120,,,,120,75,Pro Teen 16-17,M,B,Multi-ply,,120,,1995
1,Mikita Kolomiza,Микита Коломиза,Ukraine,85.2,,,,150,-160,-160,,,,150,90,Pro Teen 18-19,M,B,Multi-ply,,150,,1994
1,Oleksiy Rubinov,Олексій Рубінов,Ukraine,78.7,,,,-130,130,-145,,,,130,82.5,Pro Juniors 20-23,M,B,Multi-ply,,130,,1992
1,Sergiy Derevyaga,Сергій Дерев'Яга,Ukraine,88.1,,,,200,210,215,,,,215,90,Pro Juniors 20-23,M,B,Multi-ply,,215,,1992
1,Dmitriy Duskryadchenko,Дмитрий Дускрядченко,Russia,94,,,,175,-185,,,,,175,100,Pro Juniors 20-23,M,B,Multi-ply,,175,,1991
DQ,Volodimir Galiga,Володимир Галига,Ukraine,87.1,,,,-230,-230,-230,,,,,90,Pro Open,M,B,Multi-ply,,,,1983
1,Maksim Kaydan,Максим Кайдан,Ukraine,94.9,,,,230,-240,250,,,,250,100,Pro Open,M,B,Multi-ply,,250,,1985
2,Oleksiy Andriyanov,Олексій Андріянов,Ukraine,99.3,,,,-220,220,-230.5,,,,220,100,Pro Open,M,B,Multi-ply,,220,,1987
DQ,Efim Stepatskiy,Єфим Степацький,Ukraine,99.8,,,,-250,-250,-250,,,,,100,Pro Open,M,B,Multi-ply,,,,1987
1,Sergiy Borishanskiy,Сергій Боришанський,Ukraine,107.9,,,,220,-230,230,,,,230,110,Pro Open,M,B,Multi-ply,,230,,1977
2,Sergiy Shumskiy,Сергій Шумський,Ukraine,108,,,,155,165,-175,,,,165,110,Pro Open,M,B,Multi-ply,,165,,1985
DQ,Volodimir Labenskiy,Володимир Лабенський,Ukraine,104.3,,,,-210,-210,-210,,,,,110,Pro Open,M,B,Multi-ply,,,,1983
1,Aleksey Krasavin,Алексей Красавин,Russia,112.2,,,,-295,295,-307.5,,,,295,125,Pro Open,M,B,Multi-ply,,295,,1980
2,Viktor Fursov,Виктор Фурсов,Russia,113.2,,,,-270,270,-290,,,,270,125,Pro Open,M,B,Multi-ply,,270,,1974
1,Oleksandr Shvab,Олександр Шваб,Ukraine,126.8,,,,170,,,,,,170,140,Pro Open,M,B,Multi-ply,,170,,1976
1,Evgeniy Gornostaev,Евгений Горностаев,Russia,98.2,,,,220,-232.5,-232.5,,,,220,100,Pro Submasters 33-39,M,B,Multi-ply,,220,,1979
1,Sergiy Borishanskiy,Сергій Боришанський,Ukraine,107.9,,,,210,-230,230,,,,230,110,Pro Submasters 33-39,M,B,Multi-ply,,230,,1977
DQ,Volodimir Samusev,Володимир Самусев,Ukraine,112,,,,,,,,,,,125,Pro Submasters 33-39,M,B,Multi-ply,,,,1976
DQ,Rostislav Bondarenko,Ростислав Бондаренко,Ukraine,86.5,,,,-200,-200,-200,,,,,90,Pro Masters 40-44,M,B,Multi-ply,,,,1972
1,Vladislav Fesun,Владислав Фесун,Ukraine,109.9,,,,215,,,,,,215,110,Pro Masters 45-49,M,B,Multi-ply,,215,,1967
DQ,Yuriy Maligin,Юрій Малигін,Ukraine,105.9,,,,-170,-170,-170,,,,,110,Pro Masters 45-49,M,B,Multi-ply,,,,1967
DQ,Andriy Gimbarov,Андрій Гімбаров,Ukraine,110.5,,,,-210,-210,-210,,,,,125,Pro Masters 45-49,M,B,Multi-ply,,,,1966
1,Vyacheslav Tsiganok,Вячеслав Циганок,Ukraine,97.7,,,,150,-160,-170,,,,150,100,Pro Masters 70-74,M,B,Multi-ply,,150,,1938
