Place,Name,BirthYear,Country,BodyweightKg,Squat1Kg,Squat2Kg,Squat3Kg,Best3SquatKg,Bench1Kg,Bench2Kg,Bench3Kg,Best3BenchKg,Deadlift1Kg,Deadlift2Kg,Deadlift3Kg,Best3DeadliftKg,TotalKg,WeightClassKg,Division,Event,Sex,Equipment
1,Sergey Fedosienko,1982,Russia,51.6,230,240,250,250,155,165,-172.5,165,210,230,240,240,655,52,Open,SBD,M,Single-ply
2,Dariusz Wszoła,1978,Poland,51.6,200,210,-220,210,130,140,-145,140,180,190,195,195,545,52,Open,SBD,M,Single-ply
3,Patrick Constantine,1969,UK,51.9,170,180,-185,180,95,100,-105,100,200,215,225,225,505,52,Open,SBD,M,Single-ply
1,Konstantin Pavlov,1973,Russia,56,-220,220,230,230,165,175,180,180,200,210,-215,210,620,56,Open,SBD,M,Single-ply
2,Thomas Wulffeld,1969,Sweden,55.8,172.5,182.5,187.5,187.5,95,100,-105,100,202.5,212.5,220,220,507.5,56,Open,SBD,M,Single-ply
3,Morten Rasmussen,1978,Denmark,55.8,150,-175,-185,150,110,-117.5,-117.5,110,150,170,-182.5,170,430,56,Open,SBD,M,Single-ply
1,Mikhail Andryukhin,1970,Russia,60,240,255,270,270,150,160,-167.5,160,210,225,-235,225,655,60,Open,SBD,M,Single-ply
2,Sławomir Śledź,1976,Poland,59.6,230,-240,240,240,150,160,-165,160,210,220,-230,220,620,60,Open,SBD,M,Single-ply
3,Kostadin Bahchevanov,1977,Bulgaria,59.7,-220,220,-230,220,135,-145,145,145,225,235,-240,235,600,60,Open,SBD,M,Single-ply
4,Etienne-Serge Lited,1979,France,58.6,215,220,,220,125,130,-132.5,130,220,230,-235,230,580,60,Open,SBD,M,Single-ply
5,Nisse Forsman,1977,Sweden,59.4,200,-210,210,210,-140,140,-145,140,200,210,-215,210,560,60,Open,SBD,M,Single-ply
6,Jürgen Nemeth,1972,Austria,56.4,-180,-195,195,195,110,-115,-115,110,200,215,225,225,530,60,Open,SBD,M,Single-ply
1,Jarosław Olech,1974,Poland,66.6,300,-315,315,315,170,-177.5,-177.5,170,285,300,,300,785,67.5,Open,SBD,M,Single-ply
2,Evgeniy Dolgov,1976,Russia,67.3,-270,-270,270,270,-182.5,182.5,187.5,187.5,270,280,290,290,747.5,67.5,Open,SBD,M,Single-ply
3,Hassan El Belghiti,1975,France,67.5,-250,250,-260,250,142.5,147.5,-150,147.5,280,-295,300,300,697.5,67.5,Open,SBD,M,Single-ply
4,Paweł Pracownik,1973,Poland,67.1,230,-240,240,240,-195,195,-200,195,260,-265,-265,260,695,67.5,Open,SBD,M,Single-ply
5,Phil Richard,1971,UK,67.4,260,280,-287.5,280,170,-175,175,175,227.5,-237.5,240,240,695,67.5,Open,SBD,M,Single-ply
6,Vitaliy Teteutsa,1967,Ukraine,67,250,260,-267.5,260,-175,175,185,185,225,235,-250,235,680,67.5,Open,SBD,M,Single-ply
7,Karel Jiroušek,1979,Czechia,66.9,227.5,242.5,250,250,-130,130,135,135,240,255,-265,255,640,67.5,Open,SBD,M,Single-ply
8,Peep Päll,1970,Estonia,67.1,215,225,-230,225,-135,-137.5,137.5,137.5,235,247.5,255,255,617.5,67.5,Open,SBD,M,Single-ply
9,Karel Ruso,1965,Czechia,67.3,230,-240,240,240,110,115,-117.5,115,-220,220,235,235,590,67.5,Open,SBD,M,Single-ply
DQ,Amit Selberg,1976,Sweden,67,265,-277.5,277.5,277.5,-175,-177.5,-177.5,,,,,,,67.5,Open,SBD,M,Single-ply
DQ,Anton Mihok,1957,Slovenia,67.4,-250,-250,-250,,,,,,,,,,,67.5,Open,SBD,M,Single-ply
1,Oleksandr Borysov,1980,Ukraine,74.7,290,-300,-300,290,180,185,-190,185,290,300,-305,300,775,75,Open,SBD,M,Single-ply
2,Jacek Spychała,1978,Poland,74.9,285,295,-300,295,170,-180,180,180,285,-295,297.5,297.5,772.5,75,Open,SBD,M,Single-ply
3,Roberto Sacco,1975,Italy,74,270,290,300,300,170,180,-185,180,290,-300,-300,290,770,75,Open,SBD,M,Single-ply
4,Andriv Ivzhenko,1977,Ukraine,74.9,295,302.5,-310,302.5,170,177.5,-182.5,177.5,270,282.5,-287.5,282.5,762.5,75,Open,SBD,M,Single-ply
5,Robert Michailov,1977,Bulgaria,74.2,250,-270,270,270,170,180,-190,180,280,300,-322.5,300,750,75,Open,SBD,M,Single-ply
6,Dainius Juodgudis,1971,Lithuania,74,250,270,-282.5,270,160,170,-177.5,170,250,265,270,270,710,75,Open,SBD,M,Single-ply
7,Todor Vasilev,1978,Bulgaria,74.2,250,270,280,280,-150,150,-162.5,150,265,275,-282.5,275,705,75,Open,SBD,M,Single-ply
8,Richard Lettner,1974,Austria,67.9,240,250,255,255,150,155,160,160,250,-262.5,-262.5,250,665,75,Open,SBD,M,Single-ply
9,Dušan Švarcbach,1975,Czechia,74.1,210,225,230,230,140,145,147.5,147.5,245,260,267.5,267.5,645,75,Open,SBD,M,Single-ply
10,Erik Rasmussen,1962,Denmark,75,200,225,,225,-172.5,172.5,-182.5,172.5,200,220,,220,617.5,75,Open,SBD,M,Single-ply
11,Thomas Andersen,1979,Denmark,69.6,180,,,180,170,-175,-175,170,180,220,232.5,232.5,582.5,75,Open,SBD,M,Single-ply
12,Gerhard Anton Mayer,1962,Austria,74.6,210,220,227.5,227.5,135,140,-145,140,200,210,-215,210,577.5,75,Open,SBD,M,Single-ply
1,Viktor Furazhkin,1969,Russia,80.3,320,330,335,335,210,220,230,230,310,320,-325,320,885,82.5,Open,SBD,M,Single-ply
2,Jan Wegiera,1965,Poland,82.5,300,315,325,325,240,250,-255,250,280,290,-312.5,290,865,82.5,Open,SBD,M,Single-ply
3,Pavel Ozerov,1980,Russia,79.5,302.5,317.5,-322.5,317.5,210,-220,-220,210,290,-300,-300,290,817.5,82.5,Open,SBD,M,Single-ply
4,Milen Christov,1973,Bulgaria,82.5,305,-310,-310,305,175,180,185,185,315,-320,,315,805,82.5,Open,SBD,M,Single-ply
5,Sergiy Pevnev,1978,Ukraine,82.3,280,287.5,295,295,205,212.5,-217.5,212.5,280,292.5,-297.5,292.5,800,82.5,Open,SBD,M,Single-ply
6,Frédéric Gandner,1969,France,82.4,280,295,-300,295,180,190,192.5,192.5,290,305,-317.5,305,792.5,82.5,Open,SBD,M,Single-ply
7,Marcel Lindholm,1982,Finland,81.9,295,302.5,307.5,307.5,-170,170,-175,170,290,-300,-300,290,767.5,82.5,Open,SBD,M,Single-ply
8,Jaswinder Singh,1964,UK,82.4,-275,285,-290,285,190,197.5,-200,197.5,275,-285,285,285,767.5,82.5,Open,SBD,M,Single-ply
9,Gerhard Grossbeck,1976,Austria,82.1,280,290,,290,190,200,-205,200,260,-270,,260,750,82.5,Open,SBD,M,Single-ply
10,Alexander Nikolov,1979,Bulgaria,81.8,280,-290,-290,280,180,187.5,-192.5,187.5,280,-285,-285,280,747.5,82.5,Open,SBD,M,Single-ply
11,Petr Krošlák,1967,Czechia,81.8,-265,265,270,270,155,162.5,167.5,167.5,270,280,285,285,722.5,82.5,Open,SBD,M,Single-ply
12,Helmut Möth,1970,Austria,81.5,220,230,235,235,137.5,-142.5,-142.5,137.5,230,240,-242.5,240,612.5,82.5,Open,SBD,M,Single-ply
DQ,Margus Silbaum,1976,Estonia,82,260,-270,,260,160,-170,170,170,-300,-300,-300,,,82.5,Open,SBD,M,Single-ply
1,Andrey Tarasenko,1975,Russia,89.9,330,350,-360,350,230,250,260.5,260.5,310,335,-345,335,945,90,Open,SBD,M,Single-ply
2,Michał Wilk,1981,Poland,89.7,345,-355,-360,345,-225,225,235,235,290,-300,-300,290,870,90,Open,SBD,M,Single-ply
3,Daniele Ghirardi,1969,Italy,89.3,300,320,330,330,200,-210,-210,200,330,-350,-350,330,860,90,Open,SBD,M,Single-ply
4,Petr Theuser,1961,Czechia,89.9,330,345,352.5,352.5,190,205,-212.5,205,300,-310,-310,300,857.5,90,Open,SBD,M,Single-ply
5,Patrik Turesson,1974,Sweden,88.3,320,-340,-340,320,-205,-205,205,205,300,315,-335,315,840,90,Open,SBD,M,Single-ply
6,Pjotr van den Hoek,1972,Netherlands,89.9,-285,285,-295,285,200,207.5,210,210,290,-297.5,-297.5,290,785,90,Open,SBD,M,Single-ply
7,Marco Sura,1978,Germany,86.3,300,-310,310,310,-170,-170,170,170,260,275,285,285,765,90,Open,SBD,M,Single-ply
8,Herv Recule,1973,France,89.8,265,280,-287.5,280,175,185,-190,185,275,300,-312.5,300,765,90,Open,SBD,M,Single-ply
9,Arunas Ranonis,1975,Lithuania,86,250,270,-280,270,180,190,195,195,240,250,260,260,725,90,Open,SBD,M,Single-ply
10,Michael Jensen,1980,Denmark,89.5,260,-280,-280,260,-160,160,-167.5,160,250,-265,-265,250,670,90,Open,SBD,M,Single-ply
DQ,Fredrik Green,1974,Sweden,89.1,-290,-290,-290,,,,,,,,,,,90,Open,SBD,M,Single-ply
1,Maxim Barkhatov,1981,Russia,99.9,350,365,375,375,250,262.5,267.5,267.5,340,355,365,365,1007.5,100,Open,SBD,M,Single-ply
2,Anibal Manuel Coimbra Marques,1972,Luxembourg,97.2,325,335,340,340,210,215,220,220,322.5,332.5,340,340,900,100,Open,SBD,M,Single-ply
3,Andrei Ivanets,1984,Belarus,96.5,300,320,330,330,190,200,205,205,330,350,-367.5,350,885,100,Open,SBD,M,Single-ply
4,Andr Peeters,1970,France,98.8,325,-340,-340,325,200,210,215,215,-325,325,-347.5,325,865,100,Open,SBD,M,Single-ply
5,Antonio Foroni,1974,Italy,99.2,-280,300,-310,300,190,-200,200,200,300,320,340,340,840,100,Open,SBD,M,Single-ply
6,Karol Kopienka,1980,Poland,90.4,320,330,-335,330,185,192.5,197.5,197.5,310,,,310,837.5,100,Open,SBD,M,Single-ply
7,Marcel Matej,1972,Slovakia,97.5,-295,295,305,305,200,210,217.5,217.5,275,282.5,-287.5,282.5,805,100,Open,SBD,M,Single-ply
8,Bas Roessen,1980,Netherlands,95.8,295,315,322.5,322.5,180,187.5,192.5,192.5,270,285,-290,285,800,100,Open,SBD,M,Single-ply
9,Arunas Jašmontas,1968,Lithuania,98.6,285,295,-302.5,295,185,195,202.5,202.5,290,300,-305,300,797.5,100,Open,SBD,M,Single-ply
10,Gabor Schulteisz,1975,Hungary,99.3,-245,245,-260,245,195,-202.5,-202.5,195,280,300,-310,300,740,100,Open,SBD,M,Single-ply
11,Martin Larsen,1966,Denmark,99.8,-270,270,287.5,287.5,170,-175,175,175,255,265,-270,265,727.5,100,Open,SBD,M,Single-ply
12,Keld Ingerslev,1966,Denmark,99.6,250,260,270,270,-180,180,-187.5,180,260,-275,275,275,725,100,Open,SBD,M,Single-ply
13,Berne Janez,1976,Slovenia,99.8,265,275,280,280,165,-175,-175,165,260,270,-277.5,270,715,100,Open,SBD,M,Single-ply
DQ,Orhan Bilican,1978,Belgium,99.3,-360,-360,-360,,,,,,,,,,,100,Open,SBD,M,Single-ply
DQ,Karu Rain,1976,Estonia,99.5,-270,-270,-270,,,,,,,,,,,100,Open,SBD,M,Single-ply
1,Nikolay Suslov,1979,Russia,110,370,-390,390,390,240,255,-262.5,255,330,340,,340,985,110,Open,SBD,M,Single-ply
2,Igor Medvedev,1980,Russia,105.1,355,370,-380,370,240,252.5,-260,252.5,330,340,-345,340,962.5,110,Open,SBD,M,Single-ply
3,Roman Voroshylin,1983,Ukraine,109.2,345,-360,-360,345,210,220,230,230,340,355,370,370,945,110,Open,SBD,M,Single-ply
4,Ignat Belausav,1976,Belarus,108.65,340,-350,-350,340,225,232.5,-235,232.5,320,332.5,-337.5,332.5,905,110,Open,SBD,M,Single-ply
5,Hannu Kopola,1978,Finland,109.8,340,-347.5,-347.5,340,-215,-215,215,215,335,345,-352.5,345,900,110,Open,SBD,M,Single-ply
6,Sławomir Ceglarek,1974,Poland,108.5,-325,325,-340,325,205,212.5,220,220,325,335,-355,335,880,110,Open,SBD,M,Single-ply
7,Stefan Huldén,1966,Sweden,109.75,315,327.5,335,335,215,222.5,-227.5,222.5,310,322.5,-332.5,322.5,880,110,Open,SBD,M,Single-ply
8,Tomas Saik,1975,Czechia,109.9,300,315,-325,315,220,230,235,235,300,315,317.5,317.5,867.5,110,Open,SBD,M,Single-ply
9,Janne Salmela,1975,Sweden,108.7,315,330,-340,330,200,210,-215,210,325,-342.5,-342.5,325,865,110,Open,SBD,M,Single-ply
10,Tollef Taksdal,1975,Norway,109.8,310,-330,-330,310,240,250,-255,250,300,-307.5,-307.5,300,860,110,Open,SBD,M,Single-ply
11,Lars Sørige,1968,Denmark,109.6,302.5,312.5,-327.5,312.5,215,225,235,235,-285,285,300,300,847.5,110,Open,SBD,M,Single-ply
12,Audrius Vosylius,1964,Lithuania,103.9,280,290,-300,290,215,225,-230,225,290,-300,-300,290,805,110,Open,SBD,M,Single-ply
13,Zbyněk Krejča,1974,Czechia,109,290,300,-305,300,230,-235,-235,230,275,-282.5,-282.5,275,805,110,Open,SBD,M,Single-ply
14,Peter Bongers,1965,Netherlands,108.2,290,310,-317.5,310,165,175,-180,175,290,305,315,315,800,110,Open,SBD,M,Single-ply
15,Vorup Stephan,1973,Denmark,108.6,307.5,-320,-325,307.5,180,190,,190,260,280,-282.5,280,777.5,110,Open,SBD,M,Single-ply
16,Zsolt Molnár,1979,Hungary,106.1,255,265,270,270,180,-192.5,195,195,265,290,300,300,765,110,Open,SBD,M,Single-ply
17,Marco Oliva,1977,Luxembourg,108.7,247.5,255,260,260,125,132.5,137.5,137.5,260,267.5,275,275,672.5,110,Open,SBD,M,Single-ply
1,Istvan Arvai,1971,Hungary,119.3,370,390,400,400,255,270,280,280,360,375,390,390,1070,125,Open,SBD,M,Single-ply
2,Jörgen Ljungberg,1967,Sweden,124,390,410,420,420,255,265,-270,265,357.5,370,-388,370,1055,125,Open,SBD,M,Single-ply
3,Ove Lehto,1972,Finland,124.5,340,-347.5,-347.5,340,280,292.5,-300.5,292.5,330,355,-370,355,987.5,125,Open,SBD,M,Single-ply
4,Clive Henry,1966,UK,124.1,410,-430,-430,410,240,250,255,255,320,-330,-330,320,985,125,Open,SBD,M,Single-ply
5,Frode Rui,1969,Norway,124.4,335,352.5,360,360,225,235,240,240,335,350,-355,350,950,125,Open,SBD,M,Single-ply
6,Stoyan Andreev,1978,Bulgaria,123.1,325,345,355,355,230,-242.5,-242.5,230,330,-345,345,345,930,125,Open,SBD,M,Single-ply
7,Asbjørn Randen,1973,Norway,117.4,330,340,345,345,225,230,-235,230,330,-340,-340,330,905,125,Open,SBD,M,Single-ply
8,Jean-Luc Collart,1959,Belgium,120.2,330,340,355,355,200,210,215,215,290,310,-320,310,880,125,Open,SBD,M,Single-ply
9,Morten Sørig,1969,Denmark,124.4,335,-347.5,-360,335,220,227.5,-237.5,227.5,290,307.5,315,315,877.5,125,Open,SBD,M,Single-ply
10,Olof Wiklund,1978,Sweden,123.7,-340,340,360,360,-205,205,-217.5,205,310,-330,-330,310,875,125,Open,SBD,M,Single-ply
11,Andrew Hawkins,1966,UK,122.8,285,305,-315,305,230,-237.5,237.5,237.5,260,280,300,300,842.5,125,Open,SBD,M,Single-ply
12,Peter Eriksen,1970,Denmark,111.5,-275,-275,275,275,210,-220,-237.5,210,240,260,270,270,755,125,Open,SBD,M,Single-ply
1,Kenneth Tallqvist,1979,Finland,164.3,400,412.5,-417.5,412.5,280,292.5,-300,292.5,330,340,350,350,1055,125+,Open,SBD,M,Single-ply
2,Zdeněk Sedmík,1974,Czechia,145.7,370,-385,385,385,260,275,280,280,340,350,357.5,357.5,1022.5,125+,Open,SBD,M,Single-ply
3,Tibor Mészáros,1967,Hungary,148.8,360,-380,380,380,220,-235,235,235,380,408,-420,408,1022.5,125+,Open,SBD,M,Single-ply
4,Yevgen Yarymbash,1983,Ukraine,125.5,360,375,385,385,280,-295,-295,280,320,337.5,-342.5,337.5,1002.5,125+,Open,SBD,M,Single-ply
5,Andrew Thompson,1976,UK,159.6,360,-380,380,380,265,-280,-280,265,330,350,-360,350,995,125+,Open,SBD,M,Single-ply
6,Jørn Høyset,1979,Norway,127.1,345,355,362.5,362.5,230,-237.5,-240,230,340,-355,-355,340,932.5,125+,Open,SBD,M,Single-ply
7,Frederik Swensson,1979,Sweden,144.8,320,-332.5,-332.5,320,-282.5,287.5,-300,287.5,290,305,-310,305,912.5,125+,Open,SBD,M,Single-ply
8,Niels Stærkjær,1966,Denmark,169.5,330,-360,-360,330,-290,297.5,-302.5,297.5,230,-275,-275,230,857.5,125+,Open,SBD,M,Single-ply
DQ,Kenneth Sandvik,1975,Finland,147.1,-380,-380,-380,,,,,,,,,,,125+,Open,SBD,M,Single-ply
